sim/waveform/area_func.vcd
$date
	Mon Mar 16 05:15:23 2026
$end
$version
	Icarus Verilog
$end
$timescale
	1ps
$end
$scope module msg_extractor_tb $end
$var wire 1 ! m_tready $end
$var wire 1 " s_tready $end
$var wire 1 # m_tvalid $end
$var wire 1 $ m_tlast $end
$var wire 8 % m_tkeep [7:0] $end
$var wire 64 & m_tdata [63:0] $end
$var reg 1 ' clk $end
$var reg 1 ( rst_n $end
$var reg 64 ) s_tdata [63:0] $end
$var reg 8 * s_tkeep [7:0] $end
$var reg 1 + s_tlast $end
$var reg 1 , s_tvalid $end
$var integer 32 - fail_cnt [31:0] $end
$var integer 32 . n_out [31:0] $end
$var integer 32 / pass_cnt [31:0] $end
$scope module dut $end
$var wire 1 ' clk $end
$var wire 1 0 flush $end
$var wire 1 $ m_tlast $end
$var wire 1 ! m_tready $end
$var wire 1 # m_tvalid $end
$var wire 1 ( rst_n $end
$var wire 64 1 s_tdata [63:0] $end
$var wire 8 2 s_tkeep [7:0] $end
$var wire 1 + s_tlast $end
$var wire 1 " s_tready $end
$var wire 1 , s_tvalid $end
$var wire 8 3 m_tkeep_flush [7:0] $end
$var wire 8 4 m_tkeep [7:0] $end
$var wire 8 5 cur_byte [7:0] $end
$var reg 3 6 bptr_nx [2:0] $end
$var reg 3 7 bptr_q [2:0] $end
$var reg 8 8 hb0_q [7:0] $end
$var reg 1 9 hgot_q $end
$var reg 1 : last_q $end
$var reg 64 ; m_tdata [63:0] $end
$var reg 3 < ocnt_q [2:0] $end
$var reg 64 = out_q [63:0] $end
$var reg 6 > prem_nx [5:0] $end
$var reg 6 ? prem_q [5:0] $end
$var reg 2 @ state_nx [1:0] $end
$var reg 2 A state_q [1:0] $end
$var reg 64 B wa_nx [63:0] $end
$var reg 64 C wa_q [63:0] $end
$scope module u_bmux $end
$var wire 3 D index [2:0] $end
$var wire 64 E word [63:0] $end
$var reg 8 F byte_out [7:0] $end
$upscope $end
$scope module u_tkeep $end
$var wire 4 G byte_count [3:0] $end
$var wire 8 H tkeep [7:0] $end
$upscope $end
$upscope $end
$scope task check_beat $end
$var reg 64 I exp_d [63:0] $end
$var reg 8 J exp_k [7:0] $end
$var reg 1 K exp_l $end
$var integer 32 L idx [31:0] $end
$upscope $end
$scope task do_reset $end
$upscope $end
$scope task send_beat $end
$var reg 64 M data [63:0] $end
$var reg 8 N keep [7:0] $end
$var reg 1 O last $end
$upscope $end
$scope task send_idle $end
$upscope $end
$scope task test_max_payload $end
$var integer 32 P base [31:0] $end
$var integer 32 Q i [31:0] $end
$upscope $end
$scope task test_multi_min_msgs $end
$var integer 32 R base [31:0] $end
$upscope $end
$scope task test_single_8byte_msg $end
$var integer 32 S base [31:0] $end
$upscope $end
$scope task test_two_messages $end
$var integer 32 T base [31:0] $end
$upscope $end
$scope task test_with_input_gaps $end
$var integer 32 U base [31:0] $end
$upscope $end
$scope task wait_for_outputs $end
$var integer 32 V base [31:0] $end
$var integer 32 W count [31:0] $end
$var integer 32 X timeout_cnt [31:0] $end
$upscope $end
$upscope $end
$enddefinitions $end
$comment Show the parameter values. $end
$dumpall
$end
#0
$dumpvars
bx X
bx W
bx V
bx U
bx T
bx S
bx R
bx Q
bx P
xO
bx N
bx M
bx L
xK
bx J
bx I
b10000000 H
b1 G
b0 F
b0 E
b0 D
b0 C
b0 B
b0 A
b0 @
b0 ?
b0 >
b0 =
b0 <
b0 ;
0:
09
b0 8
b0 7
b0 6
b0 5
b0 4
b10000000 3
b11111111 2
b0 1
00
b0 /
b0 .
b0 -
0,
0+
b11111111 *
b0 )
0(
0'
b0 &
b0 %
0$
0#
1"
1!
$end
#5000
1'
#10000
0'
#15000
1'
#20000
0'
#25000
1'
#30000
0'
#35000
1(
1'
#40000
0'
#45000
1'
#50000
0'
#55000
b1 @
b1000110111101010110110111110111011110000000000000000 B
1,
b1000110111101010110110111110111011110000000000000000 )
b1000110111101010110110111110111011110000000000000000 1
0O
b11111111 N
b1000110111101010110110111110111011110000000000000000 M
b0 S
1'
#60000
0'
#65000
b1 6
0"
1:
b1000110111101010110110111110111011110000000000000000 C
b1000110111101010110110111110111011110000000000000000 E
b1 A
b1000110111101010110110111110111011110000000000000000 B
b1 @
1+
b11000000 *
b11000000 2
b1000000000000000000000000000000000000000000000000 )
b1000000000000000000000000000000000000000000000000 1
1O
b11000000 N
b1000000000000000000000000000000000000000000000000 M
1'
#70000
0'
#75000
b100000000000000000000000000000000000000000000000000000000000 &
b100000000000000000000000000000000000000000000000000000000000 ;
b1000 >
b1000 5
b1000 F
b10 @
b10 6
19
b1 7
b1 D
1'
#80000
0'
#85000
b1101111000000000000000000000000000000000000000000000000000000000 &
b1101111000000000000000000000000000000000000000000000000000000000 ;
b11011110 5
b11011110 F
b111 >
b11 6
09
b1000 ?
b10 7
b10 D
b10 A
1'
#90000
0'
#95000
b1101111010101101000000000000000000000000000000000000000000000000 &
b1101111010101101000000000000000000000000000000000000000000000000 ;
b10101101 5
b10101101 F
b110 >
b100 6
b11000000 3
b11000000 H
b10 G
b1 <
b1101111000000000000000000000000000000000000000000000000000000000 =
b111 ?
b11 7
b11 D
1'
#100000
0'
#105000
b1101111010101101101111100000000000000000000000000000000000000000 &
b1101111010101101101111100000000000000000000000000000000000000000 ;
b10111110 5
b10111110 F
b101 >
b101 6
b11100000 3
b11100000 H
b11 G
b10 <
b1101111010101101000000000000000000000000000000000000000000000000 =
b110 ?
b100 7
b100 D
1'
#110000
0'
#115000
b1101111010101101101111101110111100000000000000000000000000000000 &
b1101111010101101101111101110111100000000000000000000000000000000 ;
b11101111 5
b11101111 F
b100 >
b110 6
b11110000 3
b11110000 H
b100 G
b11 <
b1101111010101101101111100000000000000000000000000000000000000000 =
b101 ?
b101 7
b101 D
1'
#120000
0'
#125000
b0 5
b0 F
b11 >
b111 6
b11111000 3
b11111000 H
b101 G
b100 <
b1101111010101101101111101110111100000000000000000000000000000000 =
b100 ?
b110 7
b110 D
1'
#130000
0'
#135000
1"
b10 >
b1000000000000000000000000000000000000000000000000 B
b0 6
b11111100 3
b11111100 H
b110 G
b101 <
b11 ?
b111 7
b111 D
1'
#140000
0'
#145000
0"
b11111110 3
b11111110 H
b111 G
b110 <
b10 ?
b0 7
b0 D
b1000000000000000000000000000000000000000000000000 C
b1000000000000000000000000000000000000000000000000 E
b10 @
b1 >
b1 6
b1000000000000000000000000000000000000000000000000 B
b0 X
b1 W
b0 V
0,
1'
#150000
0'
#155000
1$
b1 @
b11111111 %
b11111111 4
1#
10
b1101111010101101101111101110111100000000000000000000000000000001 &
b1101111010101101101111101110111100000000000000000000000000000001 ;
b1 5
b1 F
b0 >
b10 6
b11111111 3
b11111111 H
b1000 G
b111 <
b1 ?
b1 7
b1 D
b1 X
1'
#160000
0'
#165000
b0 &
b0 ;
b0 %
b0 4
0$
b0 5
b0 F
b11 6
0#
00
b10000000 3
b10000000 H
b1 G
b0 <
b0 ?
b10 7
b10 D
b1 A
b1 /
1K
b11111111 J
b1101111010101101101111101110111100000000000000000000000000000001 I
b0 L
b10 X
b1 .
1'
#170000
0'
#175000
b0 @
b100 6
19
b11 7
b11 D
1'
#180000
0'
#185000
1"
09
b100 7
b100 D
b0 A
1'
#190000
0'
#195000
1'
#200000
0'
#205000
1'
#210000
0'
#215000
b0 6
b0 B
0:
b0 =
b0 7
b0 D
b0 C
b0 E
b0 .
b11111111 *
b11111111 2
b0 )
b0 1
0+
0(
1'
#220000
0'
#225000
1'
#230000
0'
#235000
1'
#240000
0'
#245000
1'
#250000
0'
#255000
1(
1'
#260000
0'
#265000
1'
#270000
0'
#275000
b1 @
b1000110111101010110110111110111011110000000000000000 B
1,
b1000110111101010110110111110111011110000000000000000 )
b1000110111101010110110111110111011110000000000000000 1
0O
b11111111 N
b1000110111101010110110111110111011110000000000000000 M
b0 T
1'
#280000
0'
#285000
b1 6
0"
b1000110111101010110110111110111011110000000000000000 C
b1000110111101010110110111110111011110000000000000000 E
b1 A
b1000110111101010110110111110111011110000000000000000 B
b1 @
b1000000000000101011001010111111101011101010111110 )
b1000000000000101011001010111111101011101010111110 1
b1000000000000101011001010111111101011101010111110 M
1'
#290000
0'
#295000
b100000000000000000000000000000000000000000000000000000000000 &
b100000000000000000000000000000000000000000000000000000000000 ;
b1000 >
b1000 5
b1000 F
b10 @
b10 6
19
b1 7
b1 D
1'
#300000
0'
#305000
b1101111000000000000000000000000000000000000000000000000000000000 &
b1101111000000000000000000000000000000000000000000000000000000000 ;
b11011110 5
b11011110 F
b111 >
b11 6
09
b1000 ?
b10 7
b10 D
b10 A
1'
#310000
0'
#315000
b1101111010101101000000000000000000000000000000000000000000000000 &
b1101111010101101000000000000000000000000000000000000000000000000 ;
b10101101 5
b10101101 F
b110 >
b100 6
b11000000 3
b11000000 H
b10 G
b1 <
b1101111000000000000000000000000000000000000000000000000000000000 =
b111 ?
b11 7
b11 D
1'
#320000
0'
#325000
b1101111010101101101111100000000000000000000000000000000000000000 &
b1101111010101101101111100000000000000000000000000000000000000000 ;
b10111110 5
b10111110 F
b101 >
b101 6
b11100000 3
b11100000 H
b11 G
b10 <
b1101111010101101000000000000000000000000000000000000000000000000 =
b110 ?
b100 7
b100 D
1'
#330000
0'
#335000
b1101111010101101101111101110111100000000000000000000000000000000 &
b1101111010101101101111101110111100000000000000000000000000000000 ;
b11101111 5
b11101111 F
b100 >
b110 6
b11110000 3
b11110000 H
b100 G
b11 <
b1101111010101101101111100000000000000000000000000000000000000000 =
b101 ?
b101 7
b101 D
1'
#340000
0'
#345000
b0 5
b0 F
b11 >
b111 6
b11111000 3
b11111000 H
b101 G
b100 <
b1101111010101101101111101110111100000000000000000000000000000000 =
b100 ?
b110 7
b110 D
1'
#350000
0'
#355000
1"
b10 >
b1000000000000101011001010111111101011101010111110 B
b0 6
b11111100 3
b11111100 H
b110 G
b101 <
b11 ?
b111 7
b111 D
1'
#360000
0'
#365000
0"
b11111110 3
b11111110 H
b111 G
b110 <
1:
b10 ?
b0 7
b0 D
b1000000000000101011001010111111101011101010111110 C
b1000000000000101011001010111111101011101010111110 E
b1 >
b1 6
b1000000000000101011001010111111101011101010111110 B
1+
b100000000000000000 )
b100000000000000000 1
1O
b100000000000000000 M
1'
#370000
0'
#375000
1$
b1 @
b11111111 %
b11111111 4
1#
10
b1101111010101101101111101110111100000000000000000000000000000001 &
b1101111010101101101111101110111100000000000000000000000000000001 ;
b1 5
b1 F
b0 >
b10 6
b11111111 3
b11111111 H
b1000 G
b111 <
b1 ?
b1 7
b1 D
1'
#380000
0'
#385000
b0 &
b0 ;
b0 %
b0 4
0$
b0 5
b0 F
b11 6
0#
00
b10000000 3
b10000000 H
b1 G
b0 <
b0 ?
b10 7
b10 D
b1 A
b1 .
1'
#390000
0'
#395000
b101000000000000000000000000000000000000000000000000000000000 &
b101000000000000000000000000000000000000000000000000000000000 ;
b1010 >
b1010 5
b1010 F
b10 @
b100 6
19
b11 7
b11 D
1'
#400000
0'
#405000
b1100101000000000000000000000000000000000000000000000000000000000 &
b1100101000000000000000000000000000000000000000000000000000000000 ;
b11001010 5
b11001010 F
b1001 >
b101 6
09
b1010 ?
b100 7
b100 D
b10 A
1'
#410000
0'
#415000
b1100101011111110000000000000000000000000000000000000000000000000 &
b1100101011111110000000000000000000000000000000000000000000000000 ;
b11111110 5
b11111110 F
b1000 >
b110 6
b11000000 3
b11000000 H
b10 G
b1 <
b1100101010101101101111101110111100000000000000000000000000000000 =
b1001 ?
b101 7
b101 D
1'
#420000
0'
#425000
b1100101011111110101110100000000000000000000000000000000000000000 &
b1100101011111110101110100000000000000000000000000000000000000000 ;
b10111010 5
b10111010 F
b111 >
b111 6
b11100000 3
b11100000 H
b11 G
b10 <
b1100101011111110101111101110111100000000000000000000000000000000 =
b1000 ?
b110 7
b110 D
1'
#430000
0'
#435000
b1100101011111110101110101011111000000000000000000000000000000000 &
b1100101011111110101110101011111000000000000000000000000000000000 ;
1"
b10111110 5
b10111110 F
b110 >
b100000000000000000 B
b0 6
b11110000 3
b11110000 H
b100 G
b11 <
b1100101011111110101110101110111100000000000000000000000000000000 =
b111 ?
b111 7
b111 D
1'
#440000
0'
#445000
0"
b0 5
b0 F
b11111000 3
b11111000 H
b101 G
b100 <
b1100101011111110101110101011111000000000000000000000000000000000 =
b110 ?
b0 7
b0 D
b100000000000000000 C
b100000000000000000 E
b10 @
b101 >
b1 6
b100000000000000000 B
b0 X
b11 W
0,
1'
#450000
0'
#455000
b100 >
b10 6
b11111100 3
b11111100 H
b110 G
b101 <
b101 ?
b1 7
b1 D
b1 X
1'
#460000
0'
#465000
b11 >
b11 6
b11111110 3
b11111110 H
b111 G
b110 <
b100 ?
b10 7
b10 D
b10 X
1'
#470000
0'
#475000
b11111111 %
b11111111 4
1#
10
b10 >
b100 6
b11111111 3
b11111111 H
b1000 G
b111 <
b11 ?
b11 7
b11 D
b11 X
1'
#480000
0'
#485000
0#
00
b0 &
b0 ;
b0 %
b0 4
b1 >
b101 6
b10000000 3
b10000000 H
b1 G
b0 <
b10 ?
b100 7
b100 D
b100 X
b10 .
1'
#490000
0'
#495000
1$
b1 @
b11000000 %
b11000000 4
1#
10
b10000000000000000000000000000000000000000000000000 &
b10000000000000000000000000000000000000000000000000 ;
b10 5
b10 F
b0 >
b110 6
b11000000 3
b11000000 H
b10 G
b1 <
b11111110101110101011111000000000000000000000000000000000 =
b1 ?
b101 7
b101 D
b101 X
1'
#500000
0'
#505000
b0 &
b0 ;
b0 %
b0 4
0$
b0 5
b0 F
b111 6
0#
00
b10000000 3
b10000000 H
b1 G
b0 <
b0 ?
b110 7
b110 D
b1 A
b11000000 J
1K
b10000000000000000000000000000000000000000000000000 I
b10 L
b100 /
b110 X
b11 .
1'
#510000
0'
#515000
1"
b0 @
b0 6
19
b111 7
b111 D
1'
#520000
0'
#525000
09
b0 7
b0 D
b0 A
1'
#530000
0'
#535000
1'
#540000
0'
#545000
1'
#550000
0'
#555000
b0 B
0:
b0 =
b0 C
b0 E
b0 .
b0 )
b0 1
0+
0(
1'
#560000
0'
#565000
1'
#570000
0'
#575000
1'
#580000
0'
#585000
1'
#590000
0'
#595000
1(
1'
#600000
0'
#605000
1'
#610000
0'
#615000
b1 @
b100000101010101010101010101010101010101010101010101010 B
1,
b100000101010101010101010101010101010101010101010101010 )
b100000101010101010101010101010101010101010101010101010 1
0O
b100000101010101010101010101010101010101010101010101010 M
b0 P
1'
#620000
0'
#625000
b1 6
0"
b100000101010101010101010101010101010101010101010101010 C
b100000101010101010101010101010101010101010101010101010 E
b1 A
b100000101010101010101010101010101010101010101010101010 B
b1 @
b1010101010101010101010101010101010101010101010101010101010101010 )
b1010101010101010101010101010101010101010101010101010101010101010 1
b1010101010101010101010101010101010101010101010101010101010101010 M
1'
#630000
0'
#635000
b10000000000000000000000000000000000000000000000000000000000000 &
b10000000000000000000000000000000000000000000000000000000000000 ;
b100000 >
b100000 5
b100000 F
b10 @
b10 6
19
b1 7
b1 D
1'
#640000
0'
#645000
b1010101000000000000000000000000000000000000000000000000000000000 &
b1010101000000000000000000000000000000000000000000000000000000000 ;
b10101010 5
b10101010 F
b11111 >
b11 6
09
b100000 ?
b10 7
b10 D
b10 A
1'
#650000
0'
#655000
b1010101010101010000000000000000000000000000000000000000000000000 &
b1010101010101010000000000000000000000000000000000000000000000000 ;
b11110 >
b100 6
b11000000 3
b11000000 H
b10 G
b1 <
b1010101000000000000000000000000000000000000000000000000000000000 =
b11111 ?
b11 7
b11 D
1'
#660000
0'
#665000
b1010101010101010101010100000000000000000000000000000000000000000 &
b1010101010101010101010100000000000000000000000000000000000000000 ;
b11101 >
b101 6
b11100000 3
b11100000 H
b11 G
b10 <
b1010101010101010000000000000000000000000000000000000000000000000 =
b11110 ?
b100 7
b100 D
1'
#670000
0'
#675000
b1010101010101010101010101010101000000000000000000000000000000000 &
b1010101010101010101010101010101000000000000000000000000000000000 ;
b11100 >
b110 6
b11110000 3
b11110000 H
b100 G
b11 <
b1010101010101010101010100000000000000000000000000000000000000000 =
b11101 ?
b101 7
b101 D
1'
#680000
0'
#685000
b1010101010101010101010101010101010101010000000000000000000000000 &
b1010101010101010101010101010101010101010000000000000000000000000 ;
b11011 >
b111 6
b11111000 3
b11111000 H
b101 G
b100 <
b1010101010101010101010101010101000000000000000000000000000000000 =
b11100 ?
b110 7
b110 D
1'
#690000
0'
#695000
b1010101010101010101010101010101010101010101010100000000000000000 &
b1010101010101010101010101010101010101010101010100000000000000000 ;
1"
b11010 >
b1010101010101010101010101010101010101010101010101010101010101010 B
b0 6
b11111100 3
b11111100 H
b110 G
b101 <
b1010101010101010101010101010101010101010000000000000000000000000 =
b11011 ?
b111 7
b111 D
1'
#700000
0'
#705000
b1010101010101010101010101010101010101010101010101010101000000000 &
b1010101010101010101010101010101010101010101010101010101000000000 ;
0"
b11001 >
b1 6
b11111110 3
b11111110 H
b111 G
b110 <
b1010101010101010101010101010101010101010101010100000000000000000 =
b11010 ?
b0 7
b0 D
b1010101010101010101010101010101010101010101010101010101010101010 C
b1010101010101010101010101010101010101010101010101010101010101010 E
1'
#710000
0'
#715000
b11111111 %
b11111111 4
1#
10
b1010101010101010101010101010101010101010101010101010101010101010 &
b1010101010101010101010101010101010101010101010101010101010101010 ;
b11000 >
b10 6
b11111111 3
b11111111 H
b1000 G
b111 <
b1010101010101010101010101010101010101010101010101010101000000000 =
b11001 ?
b1 7
b1 D
1'
#720000
0'
#725000
0#
00
b1010101000000000000000000000000000000000000000000000000000000000 &
b1010101000000000000000000000000000000000000000000000000000000000 ;
b0 %
b0 4
b10111 >
b11 6
b10000000 3
b10000000 H
b1 G
b0 <
b11000 ?
b10 7
b10 D
b1 .
1'
#730000
0'
#735000
b1010101010101010000000000000000000000000000000000000000000000000 &
b1010101010101010000000000000000000000000000000000000000000000000 ;
b10110 >
b100 6
b11000000 3
b11000000 H
b10 G
b1 <
b10111 ?
b11 7
b11 D
1'
#740000
0'
#745000
b1010101010101010101010100000000000000000000000000000000000000000 &
b1010101010101010101010100000000000000000000000000000000000000000 ;
b10101 >
b101 6
b11100000 3
b11100000 H
b11 G
b10 <
b10110 ?
b100 7
b100 D
1'
#750000
0'
#755000
b1010101010101010101010101010101000000000000000000000000000000000 &
b1010101010101010101010101010101000000000000000000000000000000000 ;
b10100 >
b110 6
b11110000 3
b11110000 H
b100 G
b11 <
b10101 ?
b101 7
b101 D
1'
#760000
0'
#765000
b1010101010101010101010101010101010101010000000000000000000000000 &
b1010101010101010101010101010101010101010000000000000000000000000 ;
b10011 >
b111 6
b11111000 3
b11111000 H
b101 G
b100 <
b10100 ?
b110 7
b110 D
1'
#770000
0'
#775000
b1010101010101010101010101010101010101010101010100000000000000000 &
b1010101010101010101010101010101010101010101010100000000000000000 ;
1"
b10010 >
b0 6
b11111100 3
b11111100 H
b110 G
b101 <
b10011 ?
b111 7
b111 D
1'
#780000
0'
#785000
b1010101010101010101010101010101010101010101010101010101000000000 &
b1010101010101010101010101010101010101010101010101010101000000000 ;
0"
b10001 >
b1 6
b11111110 3
b11111110 H
b111 G
b110 <
b10010 ?
b0 7
b0 D
1'
#790000
0'
#795000
b11111111 %
b11111111 4
1#
10
b1010101010101010101010101010101010101010101010101010101010101010 &
b1010101010101010101010101010101010101010101010101010101010101010 ;
b10000 >
b10 6
b11111111 3
b11111111 H
b1000 G
b111 <
b10001 ?
b1 7
b1 D
1'
#800000
0'
#805000
0#
00
b1010101000000000000000000000000000000000000000000000000000000000 &
b1010101000000000000000000000000000000000000000000000000000000000 ;
b0 %
b0 4
b1111 >
b11 6
b10000000 3
b10000000 H
b1 G
b0 <
b10000 ?
b10 7
b10 D
b10 .
1'
#810000
0'
#815000
b1010101010101010000000000000000000000000000000000000000000000000 &
b1010101010101010000000000000000000000000000000000000000000000000 ;
b1110 >
b100 6
b11000000 3
b11000000 H
b10 G
b1 <
b1111 ?
b11 7
b11 D
1'
#820000
0'
#825000
b1010101010101010101010100000000000000000000000000000000000000000 &
b1010101010101010101010100000000000000000000000000000000000000000 ;
b1101 >
b101 6
b11100000 3
b11100000 H
b11 G
b10 <
b1110 ?
b100 7
b100 D
1'
#830000
0'
#835000
b1010101010101010101010101010101000000000000000000000000000000000 &
b1010101010101010101010101010101000000000000000000000000000000000 ;
b1100 >
b110 6
b11110000 3
b11110000 H
b100 G
b11 <
b1101 ?
b101 7
b101 D
1'
#840000
0'
#845000
b1010101010101010101010101010101010101010000000000000000000000000 &
b1010101010101010101010101010101010101010000000000000000000000000 ;
b1011 >
b111 6
b11111000 3
b11111000 H
b101 G
b100 <
b1100 ?
b110 7
b110 D
1'
#850000
0'
#855000
b1010101010101010101010101010101010101010101010100000000000000000 &
b1010101010101010101010101010101010101010101010100000000000000000 ;
1"
b1010 >
b0 6
b11111100 3
b11111100 H
b110 G
b101 <
b1011 ?
b111 7
b111 D
1'
#860000
0'
#865000
b1010101010101010101010101010101010101010101010101010101000000000 &
b1010101010101010101010101010101010101010101010101010101000000000 ;
0"
b11111110 3
b11111110 H
b111 G
b110 <
1:
b1010 ?
b0 7
b0 D
b1010101010101010101010101010101010101010101010101010101010101010 B
b1001 >
b1 6
1+
b11000000 *
b11000000 2
b1010101010101010101010101010101000000000000000000000000000000000 )
b1010101010101010101010101010101000000000000000000000000000000000 1
1O
b11000000 N
b1010101010101010101010101010101000000000000000000000000000000000 M
1'
#870000
0'
#875000
b11111111 %
b11111111 4
1#
10
b1010101010101010101010101010101010101010101010101010101010101010 &
b1010101010101010101010101010101010101010101010101010101010101010 ;
b1000 >
b10 6
b11111111 3
b11111111 H
b1000 G
b111 <
b1001 ?
b1 7
b1 D
1'
#880000
0'
#885000
0#
00
b1010101000000000000000000000000000000000000000000000000000000000 &
b1010101000000000000000000000000000000000000000000000000000000000 ;
b0 %
b0 4
b111 >
b11 6
b10000000 3
b10000000 H
b1 G
b0 <
b1000 ?
b10 7
b10 D
b11 .
1'
#890000
0'
#895000
b1010101010101010000000000000000000000000000000000000000000000000 &
b1010101010101010000000000000000000000000000000000000000000000000 ;
b110 >
b100 6
b11000000 3
b11000000 H
b10 G
b1 <
b111 ?
b11 7
b11 D
1'
#900000
0'
#905000
b1010101010101010101010100000000000000000000000000000000000000000 &
b1010101010101010101010100000000000000000000000000000000000000000 ;
b101 >
b101 6
b11100000 3
b11100000 H
b11 G
b10 <
b110 ?
b100 7
b100 D
1'
#910000
0'
#915000
b1010101010101010101010101010101000000000000000000000000000000000 &
b1010101010101010101010101010101000000000000000000000000000000000 ;
b100 >
b110 6
b11110000 3
b11110000 H
b100 G
b11 <
b101 ?
b101 7
b101 D
1'
#920000
0'
#925000
b1010101010101010101010101010101010101010000000000000000000000000 &
b1010101010101010101010101010101010101010000000000000000000000000 ;
b11 >
b111 6
b11111000 3
b11111000 H
b101 G
b100 <
b100 ?
b110 7
b110 D
1'
#930000
0'
#935000
b1010101010101010101010101010101010101010101010100000000000000000 &
b1010101010101010101010101010101010101010101010100000000000000000 ;
1"
b10 >
b1010101010101010101010101010101000000000000000000000000000000000 B
b0 6
b11111100 3
b11111100 H
b110 G
b101 <
b11 ?
b111 7
b111 D
1'
#940000
0'
#945000
b1010101010101010101010101010101010101010101010101010101000000000 &
b1010101010101010101010101010101010101010101010101010101000000000 ;
0"
b11111110 3
b11111110 H
b111 G
b110 <
b10 ?
b0 7
b0 D
b1010101010101010101010101010101000000000000000000000000000000000 C
b1010101010101010101010101010101000000000000000000000000000000000 E
b10 @
b1 >
b1 6
b1010101010101010101010101010101000000000000000000000000000000000 B
b0 X
b100 W
0,
1'
#950000
0'
#955000
1$
b1 @
b11111111 %
b11111111 4
1#
10
b1010101010101010101010101010101010101010101010101010101010101010 &
b1010101010101010101010101010101010101010101010101010101010101010 ;
b0 >
b10 6
b11111111 3
b11111111 H
b1000 G
b111 <
b1 ?
b1 7
b1 D
b1 X
1'
#960000
0'
#965000
b1010101000000000000000000000000000000000000000000000000000000000 &
b1010101000000000000000000000000000000000000000000000000000000000 ;
b0 %
b0 4
0$
b11 6
0#
00
b10000000 3
b10000000 H
b1 G
b0 <
b0 ?
b10 7
b10 D
b1 A
b1000 /
1K
b11111111 J
b1010101010101010101010101010101010101010101010101010101010101010 I
b11 L
b11 Q
b10 X
b100 .
1'
#970000
0'
#975000
b0 @
b100 6
19
b10101010 8
b11 7
b11 D
1'
#980000
0'
#985000
b0 &
b0 ;
b0 5
b0 F
1"
09
b100 7
b100 D
b0 A
1'
#990000
0'
#995000
1'
#1000000
0'
#1005000
1'
#1010000
0'
#1015000
b0 6
b0 B
0:
b0 =
b0 8
b0 7
b0 D
b0 C
b0 E
b0 .
b11111111 *
b11111111 2
b0 )
b0 1
0+
0(
1'
#1020000
0'
#1025000
1'
#1030000
0'
#1035000
1'
#1040000
0'
#1045000
1'
#1050000
0'
#1055000
1(
1'
#1060000
0'
#1065000
1'
#1070000
0'
#1075000
b1 @
b1000110111101010110110111110111011110000000000000000 B
1,
b1000110111101010110110111110111011110000000000000000 )
b1000110111101010110110111110111011110000000000000000 1
0O
b11111111 N
b1000110111101010110110111110111011110000000000000000 M
b0 U
1'
#1080000
0'
#1085000
b1 6
0"
b1000110111101010110110111110111011110000000000000000 C
b1000110111101010110110111110111011110000000000000000 E
b1 A
b1000110111101010110110111110111011110000000000000000 B
b1 @
0,
1'
#1090000
0'
#1095000
b100000000000000000000000000000000000000000000000000000000000 &
b100000000000000000000000000000000000000000000000000000000000 ;
b1000 >
b1000 5
b1000 F
b10 @
b10 6
19
b1 7
b1 D
1'
#1100000
0'
#1105000
b1101111000000000000000000000000000000000000000000000000000000000 &
b1101111000000000000000000000000000000000000000000000000000000000 ;
b11011110 5
b11011110 F
09
b1000 ?
b10 7
b10 D
b10 A
b111 >
b11 6
b10 @
1,
1+
b11000000 *
b11000000 2
b1000000000000000000000000000000000000000000000000 )
b1000000000000000000000000000000000000000000000000 1
1O
b11000000 N
b1000000000000000000000000000000000000000000000000 M
1'
#1110000
0'
#1115000
b1101111010101101000000000000000000000000000000000000000000000000 &
b1101111010101101000000000000000000000000000000000000000000000000 ;
b10101101 5
b10101101 F
b110 >
b100 6
b11000000 3
b11000000 H
b10 G
b1 <
b1101111000000000000000000000000000000000000000000000000000000000 =
b111 ?
b11 7
b11 D
1'
#1120000
0'
#1125000
b1101111010101101101111100000000000000000000000000000000000000000 &
b1101111010101101101111100000000000000000000000000000000000000000 ;
b10111110 5
b10111110 F
b101 >
b101 6
b11100000 3
b11100000 H
b11 G
b10 <
b1101111010101101000000000000000000000000000000000000000000000000 =
b110 ?
b100 7
b100 D
1'
#1130000
0'
#1135000
b1101111010101101101111101110111100000000000000000000000000000000 &
b1101111010101101101111101110111100000000000000000000000000000000 ;
b11101111 5
b11101111 F
b100 >
b110 6
b11110000 3
b11110000 H
b100 G
b11 <
b1101111010101101101111100000000000000000000000000000000000000000 =
b101 ?
b101 7
b101 D
1'
#1140000
0'
#1145000
b0 5
b0 F
b11 >
b111 6
b11111000 3
b11111000 H
b101 G
b100 <
b1101111010101101101111101110111100000000000000000000000000000000 =
b100 ?
b110 7
b110 D
1'
#1150000
0'
#1155000
1"
b10 >
b1000000000000000000000000000000000000000000000000 B
b0 6
b11111100 3
b11111100 H
b110 G
b101 <
b11 ?
b111 7
b111 D
1'
#1160000
0'
#1165000
0"
b11111110 3
b11111110 H
b111 G
b110 <
b10 ?
b0 7
b0 D
b1000000000000000000000000000000000000000000000000 C
b1000000000000000000000000000000000000000000000000 E
b1 >
b1 6
b1000000000000000000000000000000000000000000000000 B
b0 X
b1 W
0,
1'
#1170000
0'
#1175000
1$
b1 @
b11111111 %
b11111111 4
1#
10
b1101111010101101101111101110111100000000000000000000000000000001 &
b1101111010101101101111101110111100000000000000000000000000000001 ;
b1 5
b1 F
b0 >
b10 6
b11111111 3
b11111111 H
b1000 G
b111 <
b1 ?
b1 7
b1 D
b1 X
1'
#1180000
0'
#1185000
b0 &
b0 ;
b0 %
b0 4
0$
b0 5
b0 F
b11 6
0#
00
b10000000 3
b10000000 H
b1 G
b0 <
b0 ?
b10 7
b10 D
b1 A
b1001 /
b1101111010101101101111101110111100000000000000000000000000000001 I
b0 L
b10 X
b1 .
1'
#1190000
0'
#1195000
b0 @
b100 6
19
b11 7
b11 D
1'
#1200000
0'
#1205000
1"
09
b100 7
b100 D
b0 A
1'
#1210000
0'
#1215000
1'
#1220000
0'
#1225000
1'
#1230000
0'
#1235000
b0 6
b0 B
b0 =
b0 7
b0 D
b0 C
b0 E
b0 .
b11111111 *
b11111111 2
b0 )
b0 1
0+
0(
1'
#1240000
0'
#1245000
1'
#1250000
0'
#1255000
1'
#1260000
0'
#1265000
1'
#1270000
0'
#1275000
1(
1'
#1280000
0'
#1285000
1'
#1290000
0'
#1295000
b1 @
b1000000100010001000100010001000100010001000100010001 B
1,
b1000000100010001000100010001000100010001000100010001 )
b1000000100010001000100010001000100010001000100010001 1
0O
b11111111 N
b1000000100010001000100010001000100010001000100010001 M
b0 R
1'
#1300000
0'
#1305000
b1 6
0"
b1000000100010001000100010001000100010001000100010001 C
b1000000100010001000100010001000100010001000100010001 E
b1 A
b1000000100010001000100010001000100010001000100010001 B
b1 @
b1000100010001000000000000100000100010001000100010001000100010 )
b1000100010001000000000000100000100010001000100010001000100010 1
b1000100010001000000000000100000100010001000100010001000100010 M
1'
#1310000
0'
#1315000
b100000000000000000000000000000000000000000000000000000000000 &
b100000000000000000000000000000000000000000000000000000000000 ;
b1000 >
b1000 5
b1000 F
b10 @
b10 6
19
b1 7
b1 D
1'
#1320000
0'
