sim/waveform/baseline_func.vcd
$date
	Mon Mar 16 07:39:40 2026
$end
$version
	Icarus Verilog
$end
$timescale
	1ps
$end
$scope module msg_extractor_tb $end
$var wire 1 ! m_tready $end
$var wire 1 " s_tready $end
$var wire 1 # m_tvalid $end
$var wire 1 $ m_tlast $end
$var wire 8 % m_tkeep [7:0] $end
$var wire 64 & m_tdata [63:0] $end
$var reg 1 ' clk $end
$var reg 1 ( rst_n $end
$var reg 64 ) s_tdata [63:0] $end
$var reg 8 * s_tkeep [7:0] $end
$var reg 1 + s_tlast $end
$var reg 1 , s_tvalid $end
$var integer 32 - fail_cnt [31:0] $end
$var integer 32 . n_out [31:0] $end
$var integer 32 / pass_cnt [31:0] $end
$scope module dut $end
$var wire 1 ' clk $end
$var wire 1 ! m_tready $end
$var wire 1 # m_tvalid $end
$var wire 1 ( rst_n $end
$var wire 64 0 s_tdata [63:0] $end
$var wire 8 1 s_tkeep [7:0] $end
$var wire 1 + s_tlast $end
$var wire 1 " s_tready $end
$var wire 1 , s_tvalid $end
$var wire 128 2 wide_fill [127:0] $end
$var wire 128 3 wide [127:0] $end
$var wire 4 4 out_bytes [3:0] $end
$var wire 5 5 noff5 [4:0] $end
$var wire 1 $ m_tlast $end
$var wire 8 6 m_tkeep [7:0] $end
$var wire 64 7 m_tdata [63:0] $end
$var wire 16 8 hdr [15:0] $end
$var reg 1 9 last_nx $end
$var reg 1 : last_q $end
$var reg 3 ; off_nx [2:0] $end
$var reg 3 < off_q [2:0] $end
$var reg 6 = prem_nx [5:0] $end
$var reg 6 > prem_q [5:0] $end
$var reg 2 ? state_nx [1:0] $end
$var reg 2 @ state_q [1:0] $end
$var reg 64 A wa_nx [63:0] $end
$var reg 64 B wa_q [63:0] $end
$var reg 1 C wa_valid_nx $end
$var reg 1 D wa_valid_q $end
$var reg 64 E wb_nx [63:0] $end
$var reg 64 F wb_q [63:0] $end
$var reg 1 G wb_vld_nx $end
$var reg 1 H wb_vld_q $end
$scope module u_bshift $end
$var wire 3 I offset [2:0] $end
$var wire 128 J window [127:0] $end
$var wire 64 K data_out [63:0] $end
$upscope $end
$scope module u_tkeep $end
$var wire 8 L tkeep [7:0] $end
$var wire 4 M byte_count [3:0] $end
$upscope $end
$scope module u_win $end
$var wire 3 N off [2:0] $end
$var wire 6 O prem [5:0] $end
$var wire 64 P wa [63:0] $end
$var wire 64 Q wb [63:0] $end
$var wire 1 H wb_vld $end
$var wire 128 R wide_fill [127:0] $end
$var wire 128 S wide [127:0] $end
$var wire 4 T out_bytes [3:0] $end
$var wire 5 U noff5 [4:0] $end
$var wire 16 V hdr [15:0] $end
$upscope $end
$upscope $end
$scope task check_beat $end
$var reg 64 W exp_d [63:0] $end
$var reg 8 X exp_k [7:0] $end
$var reg 1 Y exp_l $end
$var integer 32 Z idx [31:0] $end
$upscope $end
$scope task do_reset $end
$upscope $end
$scope task send_beat $end
$var reg 64 [ data [63:0] $end
$var reg 8 \ keep [7:0] $end
$var reg 1 ] last $end
$upscope $end
$scope task send_idle $end
$upscope $end
$scope task test_max_payload $end
$var integer 32 ^ base [31:0] $end
$var integer 32 _ i [31:0] $end
$upscope $end
$scope task test_multi_min_msgs $end
$var integer 32 ` base [31:0] $end
$upscope $end
$scope task test_single_8byte_msg $end
$var integer 32 a base [31:0] $end
$upscope $end
$scope task test_two_messages $end
$var integer 32 b base [31:0] $end
$upscope $end
$scope task test_with_input_gaps $end
$var integer 32 c base [31:0] $end
$upscope $end
$scope task wait_for_outputs $end
$var integer 32 d base [31:0] $end
$var integer 32 e count [31:0] $end
$var integer 32 f timeout_cnt [31:0] $end
$upscope $end
$upscope $end
$enddefinitions $end
$comment Show the parameter values. $end
$dumpall
$end
#0
$dumpvars
bx f
bx e
bx d
bx c
bx b
bx a
bx `
bx _
bx ^
x]
bx \
bx [
bx Z
xY
bx X
bx W
b0 V
b0 U
b0 T
b0 S
b0 R
b0 Q
b0 P
b0 O
b0 N
b0 M
b0 L
b0 K
b0 J
b0 I
0H
0G
b0 F
b0 E
1D
1C
b0 B
b0 A
b0 @
b0 ?
b0 >
b0 =
b0 <
b0 ;
0:
09
b0 8
b0 7
b0 6
b0 5
b0 4
b0 3
b0 2
b11111111 1
b0 0
b0 /
b0 .
b0 -
0,
0+
b11111111 *
b0 )
0(
0'
b0 &
b0 %
1$
0#
1"
1!
$end
#5000
1'
#10000
0'
#15000
1'
#20000
0'
#25000
1'
#30000
0'
#35000
1(
1'
#40000
0'
#45000
1'
#50000
0'
#55000
b1 ?
b1000110111101010110110111110111011110000000000000000 A
1,
b1000110111101010110110111110111011110000000000000000 )
b1000110111101010110110111110111011110000000000000000 0
0]
b11111111 \
b1000110111101010110110111110111011110000000000000000 [
b0 a
1'
#60000
0'
#65000
b10 ;
b1000 =
1G
b1000000000000000000000000000000000000000000000000 E
b1000 8
b1000 V
b10001101111010101101101111101110111100000000000000000000000000000000000000000000000000000000000000000000000000000000 3
b10001101111010101101101111101110111100000000000000000000000000000000000000000000000000000000000000000000000000000000 S
b1000110111101010110110111110111011110000000000000000 &
b1000110111101010110110111110111011110000000000000000 7
b1000110111101010110110111110111011110000000000000000 K
b10001101111010101101101111101110111100000000000000000000000000000000000000000000000000000000000000000000000000000000 2
b10001101111010101101101111101110111100000000000000000000000000000000000000000000000000000000000000000000000000000000 J
b10001101111010101101101111101110111100000000000000000000000000000000000000000000000000000000000000000000000000000000 R
b1000110111101010110110111110111011110000000000000000 B
b1000110111101010110110111110111011110000000000000000 P
b1 @
19
b1000110111101010110110111110111011110000000000000000 A
b10 ?
1+
b11000000 *
b11000000 1
b1000000000000000000000000000000000000000000000000 )
b1000000000000000000000000000000000000000000000000 0
1]
b11000000 \
b1000000000000000000000000000000000000000000000000 [
1'
#70000
0'
#75000
b1000000000000000000000000000000000000000000000000 A
b11111111 %
b11111111 6
b11111111 L
b1000 4
b1000 M
b1000 T
0"
b10001101111010101101101111101110111100000000000000000000000000000001000000000000000000000000000000000000000000000000 2
b10001101111010101101101111101110111100000000000000000000000000000001000000000000000000000000000000000000000000000000 J
b10001101111010101101101111101110111100000000000000000000000000000001000000000000000000000000000000000000000000000000 R
1#
1:
b1000 >
b1000 O
b1101111010101101101111101110111100000000000000000000000000000001 &
b1101111010101101101111101110111100000000000000000000000000000001 7
b1101111010101101101111101110111100000000000000000000000000000001 K
b1101111010101101 8
b1101111010101101 V
b1010 5
b1010 U
b10 <
b10 I
b10 N
1H
b10001101111010101101101111101110111100000000000000000000000000000001000000000000000000000000000000000000000000000000 3
b10001101111010101101101111101110111100000000000000000000000000000001000000000000000000000000000000000000000000000000 S
b1000000000000000000000000000000000000000000000000 F
b1000000000000000000000000000000000000000000000000 Q
b10 @
19
b0 =
b10 ;
0G
b1000000000000000000000000000000000000000000000000 E
b1 ?
b0 f
b1 e
b0 d
0,
1'
#80000
0'
#85000
b10 5
b10 U
b0 %
b0 6
b0 L
b0 4
b0 M
b0 T
1"
b0 ?
0#
b0 >
b0 O
0H
b0 8
b0 V
b10000000000000000000000000000000000000000000000000000000000000001000000000000000000000000000000000000000000000000 3
b10000000000000000000000000000000000000000000000000000000000000001000000000000000000000000000000000000000000000000 S
b0 &
b0 7
b0 K
b10000000000000000000000000000000000000000000000000000000000000000000000000000000000000000000000000000000000000000 2
b10000000000000000000000000000000000000000000000000000000000000000000000000000000000000000000000000000000000000000 J
b10000000000000000000000000000000000000000000000000000000000000000000000000000000000000000000000000000000000000000 R
b1000000000000000000000000000000000000000000000000 B
b1000000000000000000000000000000000000000000000000 P
b1 @
b1 .
b1 f
1'
#90000
0'
#95000
b0 @
b1 /
1Y
b11111111 X
b1101111010101101101111101110111100000000000000000000000000000001 W
b0 Z
b10 f
1'
#100000
0'
#105000
1'
#110000
0'
#115000
1'
#120000
0'
#125000
1'
#130000
0'
#135000
1'
#140000
0'
#145000
09
b0 ;
b0 E
b0 A
0:
b0 5
b0 U
b0 <
b0 I
b0 N
b0 F
b0 Q
b0 3
b0 S
b0 2
b0 J
b0 R
b0 B
b0 P
b0 .
b11111111 *
b11111111 1
b0 )
b0 0
0+
0(
1'
#150000
0'
#155000
1'
#160000
0'
#165000
1'
#170000
0'
#175000
1'
#180000
0'
#185000
1(
1'
#190000
0'
#195000
1'
#200000
0'
#205000
b1 ?
b1000110111101010110110111110111011110000000000000000 A
1,
b1000110111101010110110111110111011110000000000000000 )
b1000110111101010110110111110111011110000000000000000 0
0]
b11111111 \
b1000110111101010110110111110111011110000000000000000 [
b0 b
1'
#210000
0'
#215000
b10 ;
b1000 =
1G
b1000000000000101011001010111111101011101010111110 E
b1000 8
b1000 V
b10001101111010101101101111101110111100000000000000000000000000000000000000000000000000000000000000000000000000000000 3
b10001101111010101101101111101110111100000000000000000000000000000000000000000000000000000000000000000000000000000000 S
b1000110111101010110110111110111011110000000000000000 &
b1000110111101010110110111110111011110000000000000000 7
b1000110111101010110110111110111011110000000000000000 K
b10001101111010101101101111101110111100000000000000000000000000000000000000000000000000000000000000000000000000000000 2
b10001101111010101101101111101110111100000000000000000000000000000000000000000000000000000000000000000000000000000000 J
b10001101111010101101101111101110111100000000000000000000000000000000000000000000000000000000000000000000000000000000 R
b1000110111101010110110111110111011110000000000000000 B
b1000110111101010110110111110111011110000000000000000 P
b1 @
b1000110111101010110110111110111011110000000000000000 A
b10 ?
b1000000000000101011001010111111101011101010111110 )
b1000000000000101011001010111111101011101010111110 0
b1000000000000101011001010111111101011101010111110 [
1'
#220000
0'
#225000
b1000000000000101011001010111111101011101010111110 A
b11111111 %
b11111111 6
b11111111 L
b1000 4
b1000 M
b1000 T
0"
b10001101111010101101101111101110111100000000000000000000000000000001000000000000101011001010111111101011101010111110 2
b10001101111010101101101111101110111100000000000000000000000000000001000000000000101011001010111111101011101010111110 J
b10001101111010101101101111101110111100000000000000000000000000000001000000000000101011001010111111101011101010111110 R
1#
b1000 >
b1000 O
b1101111010101101101111101110111100000000000000000000000000000001 &
b1101111010101101101111101110111100000000000000000000000000000001 7
b1101111010101101101111101110111100000000000000000000000000000001 K
b1101111010101101 8
b1101111010101101 V
b1010 5
b1010 U
b10 <
b10 I
b10 N
1H
b10001101111010101101101111101110111100000000000000000000000000000001000000000000101011001010111111101011101010111110 3
b10001101111010101101101111101110111100000000000000000000000000000001000000000000101011001010111111101011101010111110 S
b1000000000000101011001010111111101011101010111110 F
b1000000000000101011001010111111101011101010111110 Q
b10 @
09
b0 =
b10 ;
0G
b1000000000000101011001010111111101011101010111110 E
b1 ?
1+
b100000000000000000 )
b100000000000000000 0
1]
b100000000000000000 [
1'
#230000
0'
#235000
19
1G
b100000000000000000 E
b10 5
b10 U
b0 %
b0 6
b0 L
b0 4
b0 M
b0 T
1"
b10 ?
b100 ;
b1010 =
0#
b0 >
b0 O
0H
b1010 8
b1010 V
b10000000000001010110010101111111010111010101111100000000000000001000000000000101011001010111111101011101010111110 3
b10000000000001010110010101111111010111010101111100000000000000001000000000000101011001010111111101011101010111110 S
b1010110010101111111010111010101111100000000000000000 &
b1010110010101111111010111010101111100000000000000000 7
b1010110010101111111010111010101111100000000000000000 K
b10000000000001010110010101111111010111010101111100000000000000000000000000000000000000000000000000000000000000000 2
b10000000000001010110010101111111010111010101111100000000000000000000000000000000000000000000000000000000000000000 J
b10000000000001010110010101111111010111010101111100000000000000000000000000000000000000000000000000000000000000000 R
b1000000000000101011001010111111101011101010111110 B
b1000000000000101011001010111111101011101010111110 P
b1 @
b1 .
1'
#240000
0'
#245000
b11111111 %
b11111111 6
b11111111 L
b1000 4
b1000 M
b1000 T
0"
b10000000000001010110010101111111010111010101111100000000000000000000000000000000000000000000000100000000000000000 2
b10000000000001010110010101111111010111010101111100000000000000000000000000000000000000000000000100000000000000000 J
b10000000000001010110010101111111010111010101111100000000000000000000000000000000000000000000000100000000000000000 R
b100000000000000000 A
1#
1:
0$
b1010 >
b1010 O
b1100101011111110101110101011111000000000000000000000000000000000 &
b1100101011111110101110101011111000000000000000000000000000000000 7
b1100101011111110101110101011111000000000000000000000000000000000 K
b1100101011111110 8
b1100101011111110 V
b1100 5
b1100 U
b100 <
b100 I
b100 N
1H
b10000000000001010110010101111111010111010101111100000000000000000000000000000000000000000000000100000000000000000 3
b10000000000001010110010101111111010111010101111100000000000000000000000000000000000000000000000100000000000000000 S
b100000000000000000 F
b100000000000000000 Q
b10 @
19
b10 =
b100 ;
0G
b100000000000000000 E
b10 ?
b0 f
b11 e
0,
1'
#250000
0'
#255000
b110 ;
1#
b110 5
b110 U
b11000000 %
b11000000 6
b11000000 L
b10 4
b10 M
b10 T
1"
b1 ?
b0 =
1$
b10 >
b10 O
0H
b10 8
b10 V
b1000000000000000000000000000000000000000000000000000000000000000100000000000000000 3
b1000000000000000000000000000000000000000000000000000000000000000100000000000000000 S
b10000000000000000000000000000000000000000000000000 &
b10000000000000000000000000000000000000000000000000 7
b10000000000000000000000000000000000000000000000000 K
b1000000000000000000000000000000000000000000000000000000000000000000000000000000000 2
b1000000000000000000000000000000000000000000000000000000000000000000000000000000000 J
b1000000000000000000000000000000000000000000000000000000000000000000000000000000000 R
b100000000000000000 B
b100000000000000000 P
b10 .
b1 f
1'
#260000
0'
#265000
b0 %
b0 6
b0 L
b0 4
b0 M
b0 T
b0 ?
0#
b0 >
b0 O
b0 &
b0 7
b0 K
b0 8
b0 V
b110 5
b110 U
b110 <
b110 I
b110 N
b1 @
b11000000 X
1Y
b10000000000000000000000000000000000000000000000000 W
b10 Z
b100 /
b10 f
b11 .
1'
#270000
0'
#275000
b0 @
1'
#280000
0'
#285000
1'
#290000
0'
#295000
1'
#300000
0'
#305000
1'
#310000
0'
#315000
09
b0 ;
b0 E
b0 A
0:
b0 5
b0 U
b0 <
b0 I
b0 N
b0 F
b0 Q
b0 3
b0 S
b0 2
b0 J
b0 R
b0 B
b0 P
b0 .
b0 )
b0 0
0+
0(
1'
#320000
0'
#325000
1'
#330000
0'
#335000
1'
#340000
0'
#345000
1'
#350000
0'
#355000
1(
1'
#360000
0'
#365000
1'
#370000
0'
#375000
b1 ?
b100000101010101010101010101010101010101010101010101010 A
1,
b100000101010101010101010101010101010101010101010101010 )
b100000101010101010101010101010101010101010101010101010 0
0]
b100000101010101010101010101010101010101010101010101010 [
b0 ^
1'
#380000
0'
#385000
b10 ;
b100000 =
1G
b1010101010101010101010101010101010101010101010101010101010101010 E
b100000 8
b100000 V
b1000001010101010101010101010101010101010101010101010100000000000000000000000000000000000000000000000000000000000000000 3
b1000001010101010101010101010101010101010101010101010100000000000000000000000000000000000000000000000000000000000000000 S
b100000101010101010101010101010101010101010101010101010 &
b100000101010101010101010101010101010101010101010101010 7
b100000101010101010101010101010101010101010101010101010 K
b1000001010101010101010101010101010101010101010101010100000000000000000000000000000000000000000000000000000000000000000 2
b1000001010101010101010101010101010101010101010101010100000000000000000000000000000000000000000000000000000000000000000 J
b1000001010101010101010101010101010101010101010101010100000000000000000000000000000000000000000000000000000000000000000 R
b100000101010101010101010101010101010101010101010101010 B
b100000101010101010101010101010101010101010101010101010 P
b1 @
b100000101010101010101010101010101010101010101010101010 A
b10 ?
b1010101010101010101010101010101010101010101010101010101010101010 )
b1010101010101010101010101010101010101010101010101010101010101010 0
b1010101010101010101010101010101010101010101010101010101010101010 [
1'
#390000
0'
#395000
b11111111 %
b11111111 6
b11111111 L
b1000 4
b1000 M
b1000 T
0"
b1000001010101010101010101010101010101010101010101010101010101010101010101010101010101010101010101010101010101010101010 2
b1000001010101010101010101010101010101010101010101010101010101010101010101010101010101010101010101010101010101010101010 J
b1000001010101010101010101010101010101010101010101010101010101010101010101010101010101010101010101010101010101010101010 R
0G
b1010101010101010101010101010101010101010101010101010101010101010 A
b11000 =
1#
0$
b100000 >
b100000 O
b1010101010101010101010101010101010101010101010101010101010101010 &
b1010101010101010101010101010101010101010101010101010101010101010 7
b1010101010101010101010101010101010101010101010101010101010101010 K
b1010101010101010 8
b1010101010101010 V
b1010 5
b1010 U
b10 <
b10 I
b10 N
1H
b1000001010101010101010101010101010101010101010101010101010101010101010101010101010101010101010101010101010101010101010 3
b1000001010101010101010101010101010101010101010101010101010101010101010101010101010101010101010101010101010101010101010 S
b1010101010101010101010101010101010101010101010101010101010101010 F
b1010101010101010101010101010101010101010101010101010101010101010 Q
b10 @
1'
#400000
0'
#405000
1G
0#
1"
b1010101010101010101010101010101010101010101010100000000000000000 &
b1010101010101010101010101010101010101010101010100000000000000000 7
b1010101010101010101010101010101010101010101010100000000000000000 K
b11000 =
b11000 >
b11000 O
0H
b10101010101010101010101010101010101010101010101010101010101010101010101010101010101010101010101010101010101010101010101010101010 3
b10101010101010101010101010101010101010101010101010101010101010101010101010101010101010101010101010101010101010101010101010101010 S
b10101010101010101010101010101010101010101010101010101010101010100000000000000000000000000000000000000000000000000000000000000000 2
b10101010101010101010101010101010101010101010101010101010101010100000000000000000000000000000000000000000000000000000000000000000 J
b10101010101010101010101010101010101010101010101010101010101010100000000000000000000000000000000000000000000000000000000000000000 R
b1010101010101010101010101010101010101010101010101010101010101010 B
b1010101010101010101010101010101010101010101010101010101010101010 P
b1 .
1'
#410000
0'
#415000
0G
b10000 =
1#
0"
b1010101010101010101010101010101010101010101010101010101010101010 &
b1010101010101010101010101010101010101010101010101010101010101010 7
b1010101010101010101010101010101010101010101010101010101010101010 K
b10101010101010101010101010101010101010101010101010101010101010101010101010101010101010101010101010101010101010101010101010101010 2
b10101010101010101010101010101010101010101010101010101010101010101010101010101010101010101010101010101010101010101010101010101010 J
b10101010101010101010101010101010101010101010101010101010101010101010101010101010101010101010101010101010101010101010101010101010 R
1H
1'
#420000
0'
#425000
1G
0#
1"
b1010101010101010101010101010101010101010101010100000000000000000 &
b1010101010101010101010101010101010101010101010100000000000000000 7
b1010101010101010101010101010101010101010101010100000000000000000 K
b10101010101010101010101010101010101010101010101010101010101010100000000000000000000000000000000000000000000000000000000000000000 2
b10101010101010101010101010101010101010101010101010101010101010100000000000000000000000000000000000000000000000000000000000000000 J
b10101010101010101010101010101010101010101010101010101010101010100000000000000000000000000000000000000000000000000000000000000000 R
b10000 =
b10000 >
b10000 O
0H
b10 .
1'
#430000
0'
#435000
b1000 =
1#
0"
b1010101010101010101010101010101010101010101010101010101010101010 &
b1010101010101010101010101010101010101010101010101010101010101010 7
b1010101010101010101010101010101010101010101010101010101010101010 K
b10101010101010101010101010101010101010101010101010101010101010101010101010101010101010101010101010101010101010101010101010101010 2
b10101010101010101010101010101010101010101010101010101010101010101010101010101010101010101010101010101010101010101010101010101010 J
b10101010101010101010101010101010101010101010101010101010101010101010101010101010101010101010101010101010101010101010101010101010 R
1H
09
b1010101010101010101010101010101010101010101010101010101010101010 E
0G
1+
b11000000 *
b11000000 1
b1010101010101010101010101010101000000000000000000000000000000000 )
b1010101010101010101010101010101000000000000000000000000000000000 0
1]
b11000000 \
b1010101010101010101010101010101000000000000000000000000000000000 [
1'
#440000
0'
#445000
19
1G
b1010101010101010101010101010101000000000000000000000000000000000 E
0#
1"
b1010101010101010101010101010101010101010101010100000000000000000 &
b1010101010101010101010101010101010101010101010100000000000000000 7
b1010101010101010101010101010101010101010101010100000000000000000 K
b10101010101010101010101010101010101010101010101010101010101010100000000000000000000000000000000000000000000000000000000000000000 2
b10101010101010101010101010101010101010101010101010101010101010100000000000000000000000000000000000000000000000000000000000000000 J
b10101010101010101010101010101010101010101010101010101010101010100000000000000000000000000000000000000000000000000000000000000000 R
b10 ?
b1000 =
1$
b1000 >
b1000 O
0H
b11 .
1'
#450000
0'
#455000
b1 ?
b1010101010101010101010101010101000000000000000000000000000000000 A
b0 =
1#
0"
b1010101010101010101010101010101010101010101010101010101010101010 &
b1010101010101010101010101010101010101010101010101010101010101010 7
b1010101010101010101010101010101010101010101010101010101010101010 K
b10101010101010101010101010101010101010101010101010101010101010101010101010101010101010101010101000000000000000000000000000000000 2
b10101010101010101010101010101010101010101010101010101010101010101010101010101010101010101010101000000000000000000000000000000000 J
b10101010101010101010101010101010101010101010101010101010101010101010101010101010101010101010101000000000000000000000000000000000 R
1:
1H
b10101010101010101010101010101010101010101010101010101010101010101010101010101010101010101010101000000000000000000000000000000000 3
b10101010101010101010101010101010101010101010101010101010101010101010101010101010101010101010101000000000000000000000000000000000 S
b1010101010101010101010101010101000000000000000000000000000000000 F
b1010101010101010101010101010101000000000000000000000000000000000 Q
19
0G
b1010101010101010101010101010101000000000000000000000000000000000 E
b0 f
b100 e
0,
1'
#460000
0'
#465000
b10 5
b10 U
b0 %
b0 6
b0 L
b0 4
b0 M
b0 T
1"
b0 ?
b101010 =
0#
b0 >
b0 O
0H
b10101010101010101010101010101010000000000000000000000000000000001010101010101010101010101010101000000000000000000000000000000000 3
b10101010101010101010101010101010000000000000000000000000000000001010101010101010101010101010101000000000000000000000000000000000 S
b1010101010101010000000000000000000000000000000000000000000000000 &
b1010101010101010000000000000000000000000000000000000000000000000 7
b1010101010101010000000000000000000000000000000000000000000000000 K
b10101010101010101010101010101010000000000000000000000000000000000000000000000000000000000000000000000000000000000000000000000000 2
b10101010101010101010101010101010000000000000000000000000000000000000000000000000000000000000000000000000000000000000000000000000 J
b10101010101010101010101010101010000000000000000000000000000000000000000000000000000000000000000000000000000000000000000000000000 R
b1010101010101010101010101010101000000000000000000000000000000000 B
b1010101010101010101010101010101000000000000000000000000000000000 P
b1 @
b100 .
b1 f
1'
#470000
0'
#475000
b1010 5
b1010 U
b11111111 %
b11111111 6
b11111111 L
b1000 4
b1000 M
b1000 T
0$
b101010 >
b101010 O
b0 @
b1000 /
1Y
b11111111 X
b1010101010101010101010101010101010101010101010101010101010101010 W
b11 Z
b11 _
b10 f
1'
#480000
0'
#485000
1'
#490000
0'
#495000
1'
#500000
0'
#505000
1'
#510000
0'
#515000
1'
#520000
0'
#525000
b0 %
b0 6
b0 L
b0 4
b0 M
b0 T
09
b0 =
b0 ;
b0 E
b0 A
0:
1$
b0 >
b0 O
b0 5
b0 U
b0 <
b0 I
b0 N
b0 F
b0 Q
b0 8
b0 V
b0 3
b0 S
b0 &
b0 7
b0 K
b0 2
b0 J
b0 R
b0 B
b0 P
b0 .
b11111111 *
b11111111 1
b0 )
b0 0
0+
0(
1'
#530000
0'
#535000
1'
#540000
0'
#545000
1'
#550000
0'
#555000
1'
#560000
0'
#565000
1(
1'
#570000
0'
#575000
1'
#580000
0'
#585000
b1 ?
b1000110111101010110110111110111011110000000000000000 A
1,
b1000110111101010110110111110111011110000000000000000 )
b1000110111101010110110111110111011110000000000000000 0
0]
b11111111 \
b1000110111101010110110111110111011110000000000000000 [
b0 c
1'
#590000
0'
#595000
b10 ;
b1000 =
b1000 8
b1000 V
b10001101111010101101101111101110111100000000000000000000000000000000000000000000000000000000000000000000000000000000 3
b10001101111010101101101111101110111100000000000000000000000000000000000000000000000000000000000000000000000000000000 S
b1000110111101010110110111110111011110000000000000000 &
b1000110111101010110110111110111011110000000000000000 7
b1000110111101010110110111110111011110000000000000000 K
b10001101111010101101101111101110111100000000000000000000000000000000000000000000000000000000000000000000000000000000 2
b10001101111010101101101111101110111100000000000000000000000000000000000000000000000000000000000000000000000000000000 J
b10001101111010101101101111101110111100000000000000000000000000000000000000000000000000000000000000000000000000000000 R
b1000110111101010110110111110111011110000000000000000 B
b1000110111101010110110111110111011110000000000000000 P
b1 @
b1000110111101010110110111110111011110000000000000000 A
b10 ?
0,
1'
#600000
0'
#605000
b1000110111101010110110111110111011110000000000000000 A
b11111111 %
b11111111 6
b11111111 L
b1000 4
b1000 M
b1000 T
b10 ?
b1000 =
0#
b1000 >
b1000 O
b1101111010101101101111101110111100000000000000000000000000000000 &
b1101111010101101101111101110111100000000000000000000000000000000 7
b1101111010101101101111101110111100000000000000000000000000000000 K
b1101111010101101 8
b1101111010101101 V
b1010 5
b1010 U
b10 <
b10 I
b10 N
b10 @
1'
#610000
0'
#615000
19
1G
b1000000000000000000000000000000000000000000000000 E
1,
1+
b11000000 *
b11000000 1
b1000000000000000000000000000000000000000000000000 )
b1000000000000000000000000000000000000000000000000 0
1]
b11000000 \
b1000000000000000000000000000000000000000000000000 [
1'
#620000
0'
#625000
b1 ?
b1000000000000000000000000000000000000000000000000 A
b0 =
1#
0"
b1101111010101101101111101110111100000000000000000000000000000001 &
b1101111010101101101111101110111100000000000000000000000000000001 7
b1101111010101101101111101110111100000000000000000000000000000001 K
b10001101111010101101101111101110111100000000000000000000000000000001000000000000000000000000000000000000000000000000 2
b10001101111010101101101111101110111100000000000000000000000000000001000000000000000000000000000000000000000000000000 J
b10001101111010101101101111101110111100000000000000000000000000000001000000000000000000000000000000000000000000000000 R
1:
1H
b10001101111010101101101111101110111100000000000000000000000000000001000000000000000000000000000000000000000000000000 3
b10001101111010101101101111101110111100000000000000000000000000000001000000000000000000000000000000000000000000000000 S
b1000000000000000000000000000000000000000000000000 F
b1000000000000000000000000000000000000000000000000 Q
19
0G
b1000000000000000000000000000000000000000000000000 E
b0 f
b1 e
0,
1'
#630000
0'
#635000
b10 5
b10 U
b0 %
b0 6
b0 L
b0 4
b0 M
b0 T
1"
b0 ?
0#
b0 >
b0 O
0H
b0 8
b0 V
b10000000000000000000000000000000000000000000000000000000000000001000000000000000000000000000000000000000000000000 3
b10000000000000000000000000000000000000000000000000000000000000001000000000000000000000000000000000000000000000000 S
b0 &
b0 7
b0 K
b10000000000000000000000000000000000000000000000000000000000000000000000000000000000000000000000000000000000000000 2
b10000000000000000000000000000000000000000000000000000000000000000000000000000000000000000000000000000000000000000 J
b10000000000000000000000000000000000000000000000000000000000000000000000000000000000000000000000000000000000000000 R
b1000000000000000000000000000000000000000000000000 B
b1000000000000000000000000000000000000000000000000 P
b1 @
b1 .
b1 f
1'
#640000
0'
#645000
b0 @
b1001 /
b1101111010101101101111101110111100000000000000000000000000000001 W
b0 Z
b10 f
1'
#650000
0'
#655000
1'
#660000
0'
#665000
1'
#670000
0'
#675000
1'
#680000
0'
#685000
1'
#690000
0'
#695000
09
b0 ;
b0 E
b0 A
0:
b0 5
b0 U
b0 <
b0 I
b0 N
b0 F
b0 Q
b0 3
b0 S
b0 2
b0 J
b0 R
b0 B
b0 P
b0 .
b11111111 *
b11111111 1
b0 )
b0 0
0+
0(
1'
#700000
0'
#705000
1'
#710000
0'
#715000
1'
#720000
0'
#725000
1'
#730000
0'
#735000
1(
1'
#740000
0'
#745000
1'
#750000
0'
#755000
b1 ?
b1000000100010001000100010001000100010001000100010001 A
1,
b1000000100010001000100010001000100010001000100010001 )
b1000000100010001000100010001000100010001000100010001 0
0]
b11111111 \
b1000000100010001000100010001000100010001000100010001 [
b0 `
1'
#760000
0'
#765000
b10 ;
b1000 =
1G
b1000100010001000000000000100000100010001000100010001000100010 E
b1000 8
b1000 V
b10000001000100010001000100010001000100010001000100010000000000000000000000000000000000000000000000000000000000000000 3
b10000001000100010001000100010001000100010001000100010000000000000000000000000000000000000000000000000000000000000000 S
b1000000100010001000100010001000100010001000100010001 &
b1000000100010001000100010001000100010001000100010001 7
b1000000100010001000100010001000100010001000100010001 K
b10000001000100010001000100010001000100010001000100010000000000000000000000000000000000000000000000000000000000000000 2
b10000001000100010001000100010001000100010001000100010000000000000000000000000000000000000000000000000000000000000000 J
b10000001000100010001000100010001000100010001000100010000000000000000000000000000000000000000000000000000000000000000 R
b1000000100010001000100010001000100010001000100010001 B
b1000000100010001000100010001000100010001000100010001 P
b1 @
b1000000100010001000100010001000100010001000100010001 A
b10 ?
b1000100010001000000000000100000100010001000100010001000100010 )
b1000100010001000000000000100000100010001000100010001000100010 0
b1000100010001000000000000100000100010001000100010001000100010 [
1'
#770000
0'
#775000
b1000100010001000000000000100000100010001000100010001000100010 A
b11111111 %
b11111111 6
b11111111 L
b1000 4
b1000 M
b1000 T
0"
b10000001000100010001000100010001000100010001000100010001000100010001000000000000100000100010001000100010001000100010 2
b10000001000100010001000100010001000100010001000100010001000100010001000000000000100000100010001000100010001000100010 J
b10000001000100010001000100010001000100010001000100010001000100010001000000000000100000100010001000100010001000100010 R
1#
b1000 >
b1000 O
b1000100010001000100010001000100010001000100010001000100010001 &
b1000100010001000100010001000100010001000100010001000100010001 7
b1000100010001000100010001000100010001000100010001000100010001 K
b1000100010001 8
b1000100010001 V
b1010 5
b1010 U
b10 <
b10 I
b10 N
1H
b10000001000100010001000100010001000100010001000100010001000100010001000000000000100000100010001000100010001000100010 3
b10000001000100010001000100010001000100010001000100010001000100010001000000000000100000100010001000100010001000100010 S
b1000100010001000000000000100000100010001000100010001000100010 F
b1000100010001000000000000100000100010001000100010001000100010 Q
b10 @
b0 =
b10 ;
0G
b1000100010001000000000000100000100010001000100010001000100010 E
b1 ?
b10001000100010001000100010001000000000000010000011001100110011 )
b10001000100010001000100010001000000000000010000011001100110011 0
b10001000100010001000100010001000000000000010000011001100110011 [
1'
#780000
0'
