sim/waveform/power_func.vcd
$date
	Mon Mar 16 07:39:40 2026
$end
$version
	Icarus Verilog
$end
$timescale
	1ps
$end
$scope module msg_extractor_tb $end
$var wire 1 ! m_tready $end
$var wire 1 " s_tready $end
$var wire 1 # m_tvalid $end
$var wire 1 $ m_tlast $end
$var wire 8 % m_tkeep [7:0] $end
$var wire 64 & m_tdata [63:0] $end
$var reg 1 ' clk $end
$var reg 1 ( rst_n $end
$var reg 64 ) s_tdata [63:0] $end
$var reg 8 * s_tkeep [7:0] $end
$var reg 1 + s_tlast $end
$var reg 1 , s_tvalid $end
$var integer 32 - fail_cnt [31:0] $end
$var integer 32 . n_out [31:0] $end
$var integer 32 / pass_cnt [31:0] $end
$scope module dut $end
$var wire 1 ' clk $end
$var wire 1 ! m_tready $end
$var wire 1 0 m_tvalid_pre $end
$var wire 1 ( rst_n $end
$var wire 64 1 s_tdata [63:0] $end
$var wire 8 2 s_tkeep [7:0] $end
$var wire 1 + s_tlast $end
$var wire 1 " s_tready $end
$var wire 1 , s_tvalid $end
$var wire 128 3 wide_gated [127:0] $end
$var wire 128 4 wide_fill [127:0] $end
$var wire 128 5 wide [127:0] $end
$var wire 4 6 out_bytes [3:0] $end
$var wire 5 7 noff5 [4:0] $end
$var wire 1 # m_tvalid $end
$var wire 1 8 m_tlast_pre $end
$var wire 1 $ m_tlast $end
$var wire 8 9 m_tkeep_pre [7:0] $end
$var wire 8 : m_tkeep [7:0] $end
$var wire 64 ; m_tdata_pre [63:0] $end
$var wire 64 < m_tdata [63:0] $end
$var wire 16 = hdr [15:0] $end
$var reg 1 > last_nx $end
$var reg 1 ? last_q $end
$var reg 3 @ off_nx [2:0] $end
$var reg 3 A off_q [2:0] $end
$var reg 6 B prem_nx [5:0] $end
$var reg 6 C prem_q [5:0] $end
$var reg 2 D state_nx [1:0] $end
$var reg 2 E state_q [1:0] $end
$var reg 1 F wa_en $end
$var reg 64 G wa_nx [63:0] $end
$var reg 64 H wa_q [63:0] $end
$var reg 1 I wa_valid_nx $end
$var reg 1 J wa_valid_q $end
$var reg 64 K wb_nx [63:0] $end
$var reg 64 L wb_q [63:0] $end
$var reg 1 M wb_vld_nx $end
$var reg 1 N wb_vld_q $end
$scope module u_bshift $end
$var wire 3 O offset [2:0] $end
$var wire 128 P window [127:0] $end
$var wire 64 Q data_out [63:0] $end
$upscope $end
$scope module u_opipe $end
$var wire 1 ' clk $end
$var wire 64 R d_pre [63:0] $end
$var wire 1 8 l_pre $end
$var wire 1 ( rst_n $end
$var wire 1 0 v_pre $end
$var wire 8 S k_pre [7:0] $end
$var reg 64 T m_tdata [63:0] $end
$var reg 8 U m_tkeep [7:0] $end
$var reg 1 $ m_tlast $end
$var reg 1 # m_tvalid $end
$upscope $end
$scope module u_tkeep $end
$var wire 8 V tkeep [7:0] $end
$var wire 4 W byte_count [3:0] $end
$upscope $end
$scope module u_win $end
$var wire 3 X off [2:0] $end
$var wire 6 Y prem [5:0] $end
$var wire 64 Z wa [63:0] $end
$var wire 64 [ wb [63:0] $end
$var wire 1 N wb_vld $end
$var wire 128 \ wide_fill [127:0] $end
$var wire 128 ] wide [127:0] $end
$var wire 4 ^ out_bytes [3:0] $end
$var wire 5 _ noff5 [4:0] $end
$var wire 16 ` hdr [15:0] $end
$upscope $end
$scope begin wa_en_logic $end
$upscope $end
$upscope $end
$scope task check_beat $end
$var reg 64 a exp_d [63:0] $end
$var reg 8 b exp_k [7:0] $end
$var reg 1 c exp_l $end
$var integer 32 d idx [31:0] $end
$upscope $end
$scope task do_reset $end
$upscope $end
$scope task send_beat $end
$var reg 64 e data [63:0] $end
$var reg 8 f keep [7:0] $end
$var reg 1 g last $end
$upscope $end
$scope task send_idle $end
$upscope $end
$scope task test_max_payload $end
$var integer 32 h base [31:0] $end
$var integer 32 i i [31:0] $end
$upscope $end
$scope task test_multi_min_msgs $end
$var integer 32 j base [31:0] $end
$upscope $end
$scope task test_single_8byte_msg $end
$var integer 32 k base [31:0] $end
$upscope $end
$scope task test_two_messages $end
$var integer 32 l base [31:0] $end
$upscope $end
$scope task test_with_input_gaps $end
$var integer 32 m base [31:0] $end
$upscope $end
$scope task wait_for_outputs $end
$var integer 32 n base [31:0] $end
$var integer 32 o count [31:0] $end
$var integer 32 p timeout_cnt [31:0] $end
$upscope $end
$upscope $end
$enddefinitions $end
$comment Show the parameter values. $end
$dumpall
$end
#0
$dumpvars
bx p
bx o
bx n
bx m
bx l
bx k
bx j
bx i
bx h
xg
bx f
bx e
bx d
xc
bx b
bx a
b0 `
b0 _
b0 ^
b0 ]
b0 \
b0 [
b0 Z
b0 Y
b0 X
b0 W
b0 V
b0 U
b0 T
b0 S
b0 R
b0 Q
b0 P
b0 O
0N
0M
b0 L
b0 K
1J
1I
b0 H
b0 G
0F
b0 E
b0 D
b0 C
b0 B
b0 A
b0 @
0?
0>
b0 =
b0 <
b0 ;
b0 :
b0 9
18
b0 7
b0 6
b0 5
b0 4
b0 3
b11111111 2
b0 1
00
b0 /
b0 .
b0 -
0,
0+
b11111111 *
b0 )
0(
0'
b0 &
b0 %
0$
0#
1"
1!
$end
#5000
1'
#10000
0'
#15000
1'
#20000
0'
#25000
1'
#30000
0'
#35000
1(
1'
#40000
0'
#45000
1'
#50000
0'
#55000
1F
b1 D
b1000110111101010110110111110111011110000000000000000 G
1,
b1000110111101010110110111110111011110000000000000000 )
b1000110111101010110110111110111011110000000000000000 1
0g
b11111111 f
b1000110111101010110110111110111011110000000000000000 e
b0 k
1'
#60000
0'
#65000
b10 @
b1000 B
1M
b1000000000000000000000000000000000000000000000000 K
0F
b1000 =
b1000 `
b10001101111010101101101111101110111100000000000000000000000000000000000000000000000000000000000000000000000000000000 5
b10001101111010101101101111101110111100000000000000000000000000000000000000000000000000000000000000000000000000000000 ]
b10001101111010101101101111101110111100000000000000000000000000000000000000000000000000000000000000000000000000000000 4
b10001101111010101101101111101110111100000000000000000000000000000000000000000000000000000000000000000000000000000000 \
b1000110111101010110110111110111011110000000000000000 H
b1000110111101010110110111110111011110000000000000000 Z
b1 E
1>
b1000110111101010110110111110111011110000000000000000 G
b10 D
1+
b11000000 *
b11000000 2
b1000000000000000000000000000000000000000000000000 )
b1000000000000000000000000000000000000000000000000 1
1g
b11000000 f
b1000000000000000000000000000000000000000000000000 e
1'
#70000
0'
#75000
1F
b1000000000000000000000000000000000000000000000000 G
b11111111 9
b11111111 S
b11111111 V
b1000 6
b1000 W
b1000 ^
0"
b10001101111010101101101111101110111100000000000000000000000000000001000000000000000000000000000000000000000000000000 4
b10001101111010101101101111101110111100000000000000000000000000000001000000000000000000000000000000000000000000000000 \
b1101111010101101101111101110111100000000000000000000000000000001 ;
b1101111010101101101111101110111100000000000000000000000000000001 Q
b1101111010101101101111101110111100000000000000000000000000000001 R
b10001101111010101101101111101110111100000000000000000000000000000001000000000000000000000000000000000000000000000000 3
b10001101111010101101101111101110111100000000000000000000000000000001000000000000000000000000000000000000000000000000 P
10
1?
b1000 C
b1000 Y
b1101111010101101 =
b1101111010101101 `
b1010 7
b1010 _
b10 A
b10 O
b10 X
1N
b10001101111010101101101111101110111100000000000000000000000000000001000000000000000000000000000000000000000000000000 5
b10001101111010101101101111101110111100000000000000000000000000000001000000000000000000000000000000000000000000000000 ]
b1000000000000000000000000000000000000000000000000 L
b1000000000000000000000000000000000000000000000000 [
b10 E
1>
b0 B
b10 @
0M
b1000000000000000000000000000000000000000000000000 K
b1 D
b0 p
b1 o
b0 n
0,
1'
#80000
0'
#85000
b10 7
b10 _
b0 9
b0 S
b0 V
b0 6
b0 W
b0 ^
1"
b0 D
0F
b0 ;
b0 Q
b0 R
b0 3
b0 P
00
b0 C
b0 Y
0N
b0 =
b0 `
b10000000000000000000000000000000000000000000000000000000000000001000000000000000000000000000000000000000000000000 5
b10000000000000000000000000000000000000000000000000000000000000001000000000000000000000000000000000000000000000000 ]
b10000000000000000000000000000000000000000000000000000000000000000000000000000000000000000000000000000000000000000 4
b10000000000000000000000000000000000000000000000000000000000000000000000000000000000000000000000000000000000000000 \
b1000000000000000000000000000000000000000000000000 H
b1000000000000000000000000000000000000000000000000 Z
b1 E
1$
b11111111 %
b11111111 :
b11111111 U
b1101111010101101101111101110111100000000000000000000000000000001 &
b1101111010101101101111101110111100000000000000000000000000000001 <
b1101111010101101101111101110111100000000000000000000000000000001 T
1#
b1 p
1'
#90000
0'
#95000
0#
b0 E
b1 /
1c
b11111111 b
b1101111010101101101111101110111100000000000000000000000000000001 a
b0 d
b10 p
b1 .
1'
#100000
0'
#105000
1'
#110000
0'
#115000
1'
#120000
0'
#125000
1'
#130000
0'
#135000
1'
#140000
0'
#145000
0>
b0 @
b0 K
b0 G
0?
b0 7
b0 _
b0 A
b0 O
b0 X
b0 L
b0 [
b0 5
b0 ]
b0 4
b0 \
b0 H
b0 Z
0$
b0 %
b0 :
b0 U
b0 &
b0 <
b0 T
b0 .
b11111111 *
b11111111 2
b0 )
b0 1
0+
0(
1'
#150000
0'
#155000
1'
#160000
0'
#165000
1'
#170000
0'
#175000
1'
#180000
0'
#185000
1(
1'
#190000
0'
#195000
1'
#200000
0'
#205000
1F
b1 D
b1000110111101010110110111110111011110000000000000000 G
1,
b1000110111101010110110111110111011110000000000000000 )
b1000110111101010110110111110111011110000000000000000 1
0g
b11111111 f
b1000110111101010110110111110111011110000000000000000 e
b0 l
1'
#210000
0'
#215000
b10 @
b1000 B
1M
b1000000000000101011001010111111101011101010111110 K
0F
b1000 =
b1000 `
b10001101111010101101101111101110111100000000000000000000000000000000000000000000000000000000000000000000000000000000 5
b10001101111010101101101111101110111100000000000000000000000000000000000000000000000000000000000000000000000000000000 ]
b10001101111010101101101111101110111100000000000000000000000000000000000000000000000000000000000000000000000000000000 4
b10001101111010101101101111101110111100000000000000000000000000000000000000000000000000000000000000000000000000000000 \
b1000110111101010110110111110111011110000000000000000 H
b1000110111101010110110111110111011110000000000000000 Z
b1 E
b1000110111101010110110111110111011110000000000000000 G
b10 D
b1000000000000101011001010111111101011101010111110 )
b1000000000000101011001010111111101011101010111110 1
b1000000000000101011001010111111101011101010111110 e
1'
#220000
0'
#225000
1F
b1000000000000101011001010111111101011101010111110 G
b11111111 9
b11111111 S
b11111111 V
b1000 6
b1000 W
b1000 ^
0"
b10001101111010101101101111101110111100000000000000000000000000000001000000000000101011001010111111101011101010111110 4
b10001101111010101101101111101110111100000000000000000000000000000001000000000000101011001010111111101011101010111110 \
b1101111010101101101111101110111100000000000000000000000000000001 ;
b1101111010101101101111101110111100000000000000000000000000000001 Q
b1101111010101101101111101110111100000000000000000000000000000001 R
b10001101111010101101101111101110111100000000000000000000000000000001000000000000101011001010111111101011101010111110 3
b10001101111010101101101111101110111100000000000000000000000000000001000000000000101011001010111111101011101010111110 P
10
b1000 C
b1000 Y
b1101111010101101 =
b1101111010101101 `
b1010 7
b1010 _
b10 A
b10 O
b10 X
1N
b10001101111010101101101111101110111100000000000000000000000000000001000000000000101011001010111111101011101010111110 5
b10001101111010101101101111101110111100000000000000000000000000000001000000000000101011001010111111101011101010111110 ]
b1000000000000101011001010111111101011101010111110 L
b1000000000000101011001010111111101011101010111110 [
b10 E
0>
b0 B
b10 @
0M
b1000000000000101011001010111111101011101010111110 K
b1 D
1+
b100000000000000000 )
b100000000000000000 1
1g
b100000000000000000 e
1'
#230000
0'
#235000
1>
1M
b100000000000000000 K
b10 7
b10 _
b0 9
b0 S
b0 V
b0 6
b0 W
b0 ^
1"
b10 D
b100 @
b1010 B
0F
b0 ;
b0 Q
b0 R
b0 3
b0 P
00
1$
b11111111 %
b11111111 :
b11111111 U
b1101111010101101101111101110111100000000000000000000000000000001 &
b1101111010101101101111101110111100000000000000000000000000000001 <
b1101111010101101101111101110111100000000000000000000000000000001 T
1#
b0 C
b0 Y
0N
b1010 =
b1010 `
b10000000000001010110010101111111010111010101111100000000000000001000000000000101011001010111111101011101010111110 5
b10000000000001010110010101111111010111010101111100000000000000001000000000000101011001010111111101011101010111110 ]
b10000000000001010110010101111111010111010101111100000000000000000000000000000000000000000000000000000000000000000 4
b10000000000001010110010101111111010111010101111100000000000000000000000000000000000000000000000000000000000000000 \
b1000000000000101011001010111111101011101010111110 H
b1000000000000101011001010111111101011101010111110 Z
b1 E
1'
#240000
0'
#245000
b11111111 9
b11111111 S
b11111111 V
b1000 6
b1000 W
b1000 ^
0"
b10000000000001010110010101111111010111010101111100000000000000000000000000000000000000000000000100000000000000000 4
b10000000000001010110010101111111010111010101111100000000000000000000000000000000000000000000000100000000000000000 \
b100000000000000000 G
1F
b1100101011111110101110101011111000000000000000000000000000000000 ;
b1100101011111110101110101011111000000000000000000000000000000000 Q
b1100101011111110101110101011111000000000000000000000000000000000 R
b10000000000001010110010101111111010111010101111100000000000000000000000000000000000000000000000100000000000000000 3
b10000000000001010110010101111111010111010101111100000000000000000000000000000000000000000000000100000000000000000 P
10
1?
08
b1010 C
b1010 Y
b1100101011111110 =
b1100101011111110 `
b1100 7
b1100 _
b100 A
b100 O
b100 X
1N
b10000000000001010110010101111111010111010101111100000000000000000000000000000000000000000000000100000000000000000 5
b10000000000001010110010101111111010111010101111100000000000000000000000000000000000000000000000100000000000000000 ]
b100000000000000000 L
b100000000000000000 [
b10 E
0#
1>
b10 B
b100 @
0M
b100000000000000000 K
b10 D
b0 p
b11 o
0,
b1 .
1'
#250000
0'
#255000
b110 @
10
b110 7
b110 _
b11000000 9
b11000000 S
b11000000 V
b10 6
b10 W
b10 ^
1"
0F
b10000000000000000000000000000000000000000000000000 ;
b10000000000000000000000000000000000000000000000000 Q
b10000000000000000000000000000000000000000000000000 R
b1000000000000000000000000000000000000000000000000000000000000000000000000000000000 3
b1000000000000000000000000000000000000000000000000000000000000000000000000000000000 P
b1 D
b0 B
0$
b1100101011111110101110101011111000000000000000000000000000000000 &
b1100101011111110101110101011111000000000000000000000000000000000 <
b1100101011111110101110101011111000000000000000000000000000000000 T
1#
18
b10 C
b10 Y
0N
b10 =
b10 `
b1000000000000000000000000000000000000000000000000000000000000000100000000000000000 5
b1000000000000000000000000000000000000000000000000000000000000000100000000000000000 ]
b1000000000000000000000000000000000000000000000000000000000000000000000000000000000 4
b1000000000000000000000000000000000000000000000000000000000000000000000000000000000 \
b100000000000000000 H
b100000000000000000 Z
b1 p
1'
#260000
0'
#265000
b0 9
b0 S
b0 V
b0 6
b0 W
b0 ^
b0 D
b0 3
b0 P
00
b0 C
b0 Y
b0 ;
b0 Q
b0 R
b0 =
b0 `
b110 7
b110 _
b110 A
b110 O
b110 X
b1 E
1$
b11000000 %
b11000000 :
b11000000 U
b10000000000000000000000000000000000000000000000000 &
b10000000000000000000000000000000000000000000000000 <
b10000000000000000000000000000000000000000000000000 T
b10 p
b10 .
1'
#270000
0'
#275000
0#
b0 E
b11 .
b11 p
1'
#280000
0'
#285000
b11000000 b
1c
b10000000000000000000000000000000000000000000000000 a
b10 d
b100 /
b100 p
1'
#290000
0'
#295000
1'
#300000
0'
#305000
1'
#310000
0'
#315000
1'
#320000
0'
#325000
1'
#330000
0'
#335000
0>
b0 @
b0 K
b0 G
0$
b0 %
b0 :
b0 U
b0 &
b0 <
b0 T
0?
b0 7
b0 _
b0 A
b0 O
b0 X
b0 L
b0 [
b0 5
b0 ]
b0 4
b0 \
b0 H
b0 Z
b0 .
b0 )
b0 1
0+
0(
1'
#340000
0'
#345000
1'
#350000
0'
#355000
1'
#360000
0'
#365000
1'
#370000
0'
#375000
1(
1'
#380000
0'
#385000
1'
#390000
0'
#395000
1F
b1 D
b100000101010101010101010101010101010101010101010101010 G
1,
b100000101010101010101010101010101010101010101010101010 )
b100000101010101010101010101010101010101010101010101010 1
0g
b100000101010101010101010101010101010101010101010101010 e
b0 h
1'
#400000
0'
#405000
b10 @
b100000 B
1M
b1010101010101010101010101010101010101010101010101010101010101010 K
0F
b100000 =
b100000 `
b1000001010101010101010101010101010101010101010101010100000000000000000000000000000000000000000000000000000000000000000 5
b1000001010101010101010101010101010101010101010101010100000000000000000000000000000000000000000000000000000000000000000 ]
b1000001010101010101010101010101010101010101010101010100000000000000000000000000000000000000000000000000000000000000000 4
b1000001010101010101010101010101010101010101010101010100000000000000000000000000000000000000000000000000000000000000000 \
b100000101010101010101010101010101010101010101010101010 H
b100000101010101010101010101010101010101010101010101010 Z
b1 E
b100000101010101010101010101010101010101010101010101010 G
b10 D
b1010101010101010101010101010101010101010101010101010101010101010 )
b1010101010101010101010101010101010101010101010101010101010101010 1
b1010101010101010101010101010101010101010101010101010101010101010 e
1'
#410000
0'
#415000
b11111111 9
b11111111 S
b11111111 V
b1000 6
b1000 W
b1000 ^
0"
b1000001010101010101010101010101010101010101010101010101010101010101010101010101010101010101010101010101010101010101010 4
b1000001010101010101010101010101010101010101010101010101010101010101010101010101010101010101010101010101010101010101010 \
0M
b1010101010101010101010101010101010101010101010101010101010101010 G
b11000 B
1F
b1010101010101010101010101010101010101010101010101010101010101010 ;
b1010101010101010101010101010101010101010101010101010101010101010 Q
b1010101010101010101010101010101010101010101010101010101010101010 R
b1000001010101010101010101010101010101010101010101010101010101010101010101010101010101010101010101010101010101010101010 3
b1000001010101010101010101010101010101010101010101010101010101010101010101010101010101010101010101010101010101010101010 P
10
08
b100000 C
b100000 Y
b1010101010101010 =
b1010101010101010 `
b1010 7
b1010 _
b10 A
b10 O
b10 X
1N
b1000001010101010101010101010101010101010101010101010101010101010101010101010101010101010101010101010101010101010101010 5
b1000001010101010101010101010101010101010101010101010101010101010101010101010101010101010101010101010101010101010101010 ]
b1010101010101010101010101010101010101010101010101010101010101010 L
b1010101010101010101010101010101010101010101010101010101010101010 [
b10 E
1'
#420000
0'
#425000
1M
b1010101010101010101010101010101010101010101010100000000000000000 ;
b1010101010101010101010101010101010101010101010100000000000000000 Q
b1010101010101010101010101010101010101010101010100000000000000000 R
00
1"
0F
b10101010101010101010101010101010101010101010101010101010101010100000000000000000000000000000000000000000000000000000000000000000 3
b10101010101010101010101010101010101010101010101010101010101010100000000000000000000000000000000000000000000000000000000000000000 P
b11000 B
b11000 C
b11000 Y
0N
b10101010101010101010101010101010101010101010101010101010101010101010101010101010101010101010101010101010101010101010101010101010 5
b10101010101010101010101010101010101010101010101010101010101010101010101010101010101010101010101010101010101010101010101010101010 ]
b10101010101010101010101010101010101010101010101010101010101010100000000000000000000000000000000000000000000000000000000000000000 4
b10101010101010101010101010101010101010101010101010101010101010100000000000000000000000000000000000000000000000000000000000000000 \
b1010101010101010101010101010101010101010101010101010101010101010 H
b1010101010101010101010101010101010101010101010101010101010101010 Z
b11111111 %
b11111111 :
b11111111 U
b1010101010101010101010101010101010101010101010101010101010101010 &
b1010101010101010101010101010101010101010101010101010101010101010 <
b1010101010101010101010101010101010101010101010101010101010101010 T
1#
1'
#430000
0'
#435000
1F
0M
b10000 B
b1010101010101010101010101010101010101010101010101010101010101010 ;
b1010101010101010101010101010101010101010101010101010101010101010 Q
b1010101010101010101010101010101010101010101010101010101010101010 R
b10101010101010101010101010101010101010101010101010101010101010101010101010101010101010101010101010101010101010101010101010101010 3
b10101010101010101010101010101010101010101010101010101010101010101010101010101010101010101010101010101010101010101010101010101010 P
10
0"
b10101010101010101010101010101010101010101010101010101010101010101010101010101010101010101010101010101010101010101010101010101010 4
b10101010101010101010101010101010101010101010101010101010101010101010101010101010101010101010101010101010101010101010101010101010 \
0#
1N
b1 .
1'
#440000
0'
#445000
1M
b1010101010101010101010101010101010101010101010100000000000000000 ;
b1010101010101010101010101010101010101010101010100000000000000000 Q
b1010101010101010101010101010101010101010101010100000000000000000 R
b10101010101010101010101010101010101010101010101010101010101010100000000000000000000000000000000000000000000000000000000000000000 3
b10101010101010101010101010101010101010101010101010101010101010100000000000000000000000000000000000000000000000000000000000000000 P
00
1"
b10101010101010101010101010101010101010101010101010101010101010100000000000000000000000000000000000000000000000000000000000000000 4
b10101010101010101010101010101010101010101010101010101010101010100000000000000000000000000000000000000000000000000000000000000000 \
0F
b10000 B
b10000 C
b10000 Y
0N
1#
1'
#450000
0'
#455000
1F
b1000 B
b1010101010101010101010101010101010101010101010101010101010101010 ;
b1010101010101010101010101010101010101010101010101010101010101010 Q
b1010101010101010101010101010101010101010101010101010101010101010 R
b10101010101010101010101010101010101010101010101010101010101010101010101010101010101010101010101010101010101010101010101010101010 3
b10101010101010101010101010101010101010101010101010101010101010101010101010101010101010101010101010101010101010101010101010101010 P
10
0"
b10101010101010101010101010101010101010101010101010101010101010101010101010101010101010101010101010101010101010101010101010101010 4
b10101010101010101010101010101010101010101010101010101010101010101010101010101010101010101010101010101010101010101010101010101010 \
0#
1N
0>
b1010101010101010101010101010101010101010101010101010101010101010 K
0M
1+
b11000000 *
b11000000 2
b1010101010101010101010101010101000000000000000000000000000000000 )
b1010101010101010101010101010101000000000000000000000000000000000 1
1g
b11000000 f
b1010101010101010101010101010101000000000000000000000000000000000 e
b10 .
1'
#460000
0'
#465000
1>
1M
b1010101010101010101010101010101000000000000000000000000000000000 K
b1010101010101010101010101010101010101010101010100000000000000000 ;
b1010101010101010101010101010101010101010101010100000000000000000 Q
b1010101010101010101010101010101010101010101010100000000000000000 R
b10101010101010101010101010101010101010101010101010101010101010100000000000000000000000000000000000000000000000000000000000000000 3
b10101010101010101010101010101010101010101010101010101010101010100000000000000000000000000000000000000000000000000000000000000000 P
00
1"
b10101010101010101010101010101010101010101010101010101010101010100000000000000000000000000000000000000000000000000000000000000000 4
b10101010101010101010101010101010101010101010101010101010101010100000000000000000000000000000000000000000000000000000000000000000 \
0F
b10 D
b1000 B
18
b1000 C
b1000 Y
0N
1#
1'
#470000
0'
#475000
1F
b1 D
b1010101010101010101010101010101000000000000000000000000000000000 G
b0 B
b1010101010101010101010101010101010101010101010101010101010101010 ;
b1010101010101010101010101010101010101010101010101010101010101010 Q
b1010101010101010101010101010101010101010101010101010101010101010 R
b10101010101010101010101010101010101010101010101010101010101010101010101010101010101010101010101000000000000000000000000000000000 3
b10101010101010101010101010101010101010101010101010101010101010101010101010101010101010101010101000000000000000000000000000000000 P
10
0"
b10101010101010101010101010101010101010101010101010101010101010101010101010101010101010101010101000000000000000000000000000000000 4
b10101010101010101010101010101010101010101010101010101010101010101010101010101010101010101010101000000000000000000000000000000000 \
0#
1?
1N
b10101010101010101010101010101010101010101010101010101010101010101010101010101010101010101010101000000000000000000000000000000000 5
b10101010101010101010101010101010101010101010101010101010101010101010101010101010101010101010101000000000000000000000000000000000 ]
b1010101010101010101010101010101000000000000000000000000000000000 L
b1010101010101010101010101010101000000000000000000000000000000000 [
1>
0M
b1010101010101010101010101010101000000000000000000000000000000000 K
b0 p
b100 o
0,
b11 .
1'
#480000
0'
#485000
b10 7
b10 _
b0 9
b0 S
b0 V
b0 6
b0 W
b0 ^
1"
b0 D
b101010 B
0F
b0 ;
b0 Q
b0 R
b0 3
b0 P
00
b0 C
b0 Y
0N
b10101010101010101010101010101010000000000000000000000000000000001010101010101010101010101010101000000000000000000000000000000000 5
b10101010101010101010101010101010000000000000000000000000000000001010101010101010101010101010101000000000000000000000000000000000 ]
b10101010101010101010101010101010000000000000000000000000000000000000000000000000000000000000000000000000000000000000000000000000 4
b10101010101010101010101010101010000000000000000000000000000000000000000000000000000000000000000000000000000000000000000000000000 \
b1010101010101010101010101010101000000000000000000000000000000000 H
b1010101010101010101010101010101000000000000000000000000000000000 Z
b1 E
1$
1#
b1 p
1'
#490000
0'
#495000
b1010 7
b1010 _
b11111111 9
b11111111 S
b11111111 V
b1000 6
b1000 W
b1000 ^
0#
08
b101010 C
b101010 Y
b0 E
b1000 /
1c
b11111111 b
b1010101010101010101010101010101010101010101010101010101010101010 a
b11 d
b11 i
b10 p
b100 .
1'
#500000
0'
#505000
1'
#510000
0'
#515000
1'
#520000
0'
#525000
1'
#530000
0'
#535000
1'
#540000
0'
#545000
b0 9
b0 S
b0 V
b0 6
b0 W
b0 ^
0>
b0 B
b0 @
b0 K
b0 G
0?
18
b0 C
b0 Y
b0 7
b0 _
b0 A
b0 O
b0 X
b0 L
b0 [
b0 =
b0 `
b0 5
b0 ]
b0 4
b0 \
b0 H
b0 Z
0$
b0 %
b0 :
b0 U
b0 &
b0 <
b0 T
b0 .
b11111111 *
b11111111 2
b0 )
b0 1
0+
0(
1'
#550000
0'
#555000
1'
#560000
0'
#565000
1'
#570000
0'
#575000
1'
#580000
0'
#585000
1(
1'
#590000
0'
#595000
1'
#600000
0'
#605000
1F
b1 D
b1000110111101010110110111110111011110000000000000000 G
1,
b1000110111101010110110111110111011110000000000000000 )
b1000110111101010110110111110111011110000000000000000 1
0g
b11111111 f
b1000110111101010110110111110111011110000000000000000 e
b0 m
1'
#610000
0'
#615000
b10 @
b1000 B
b1000 =
b1000 `
b10001101111010101101101111101110111100000000000000000000000000000000000000000000000000000000000000000000000000000000 5
b10001101111010101101101111101110111100000000000000000000000000000000000000000000000000000000000000000000000000000000 ]
b10001101111010101101101111101110111100000000000000000000000000000000000000000000000000000000000000000000000000000000 4
b10001101111010101101101111101110111100000000000000000000000000000000000000000000000000000000000000000000000000000000 \
b1000110111101010110110111110111011110000000000000000 H
b1000110111101010110110111110111011110000000000000000 Z
b1 E
b1000110111101010110110111110111011110000000000000000 G
b10 D
0F
0,
1'
#620000
0'
#625000
0F
b1000110111101010110110111110111011110000000000000000 G
b11111111 9
b11111111 S
b11111111 V
b1000 6
b1000 W
b1000 ^
b10 D
b1000 B
b1101111010101101101111101110111100000000000000000000000000000000 ;
b1101111010101101101111101110111100000000000000000000000000000000 Q
b1101111010101101101111101110111100000000000000000000000000000000 R
b10001101111010101101101111101110111100000000000000000000000000000000000000000000000000000000000000000000000000000000 3
b10001101111010101101101111101110111100000000000000000000000000000000000000000000000000000000000000000000000000000000 P
00
b1000 C
b1000 Y
b1101111010101101 =
b1101111010101101 `
b1010 7
b1010 _
b10 A
b10 O
b10 X
b10 E
1'
#630000
0'
#635000
1>
1M
b1000000000000000000000000000000000000000000000000 K
1,
1+
b11000000 *
b11000000 2
b1000000000000000000000000000000000000000000000000 )
b1000000000000000000000000000000000000000000000000 1
1g
b11000000 f
b1000000000000000000000000000000000000000000000000 e
1'
#640000
0'
#645000
1F
b1 D
b1000000000000000000000000000000000000000000000000 G
b0 B
b1101111010101101101111101110111100000000000000000000000000000001 ;
b1101111010101101101111101110111100000000000000000000000000000001 Q
b1101111010101101101111101110111100000000000000000000000000000001 R
b10001101111010101101101111101110111100000000000000000000000000000001000000000000000000000000000000000000000000000000 3
b10001101111010101101101111101110111100000000000000000000000000000001000000000000000000000000000000000000000000000000 P
10
0"
b10001101111010101101101111101110111100000000000000000000000000000001000000000000000000000000000000000000000000000000 4
b10001101111010101101101111101110111100000000000000000000000000000001000000000000000000000000000000000000000000000000 \
1?
1N
b10001101111010101101101111101110111100000000000000000000000000000001000000000000000000000000000000000000000000000000 5
b10001101111010101101101111101110111100000000000000000000000000000001000000000000000000000000000000000000000000000000 ]
b1000000000000000000000000000000000000000000000000 L
b1000000000000000000000000000000000000000000000000 [
1>
0M
b1000000000000000000000000000000000000000000000000 K
b0 p
b1 o
0,
1'
#650000
0'
#655000
b10 7
b10 _
b0 9
b0 S
b0 V
b0 6
b0 W
b0 ^
1"
b0 D
0F
b0 ;
b0 Q
b0 R
b0 3
b0 P
00
1$
b11111111 %
b11111111 :
b11111111 U
b1101111010101101101111101110111100000000000000000000000000000001 &
b1101111010101101101111101110111100000000000000000000000000000001 <
b1101111010101101101111101110111100000000000000000000000000000001 T
1#
b0 C
b0 Y
0N
b0 =
b0 `
b10000000000000000000000000000000000000000000000000000000000000001000000000000000000000000000000000000000000000000 5
b10000000000000000000000000000000000000000000000000000000000000001000000000000000000000000000000000000000000000000 ]
b10000000000000000000000000000000000000000000000000000000000000000000000000000000000000000000000000000000000000000 4
b10000000000000000000000000000000000000000000000000000000000000000000000000000000000000000000000000000000000000000 \
b1000000000000000000000000000000000000000000000000 H
b1000000000000000000000000000000000000000000000000 Z
b1 E
b1 p
1'
#660000
0'
#665000
b0 E
0#
b1001 /
b1101111010101101101111101110111100000000000000000000000000000001 a
b0 d
b10 p
b1 .
1'
#670000
0'
#675000
1'
#680000
0'
#685000
1'
#690000
0'
#695000
1'
#700000
0'
#705000
1'
#710000
0'
#715000
0>
b0 @
b0 K
b0 G
0$
b0 %
b0 :
b0 U
b0 &
b0 <
b0 T
0?
b0 7
b0 _
b0 A
b0 O
b0 X
b0 L
b0 [
b0 5
b0 ]
b0 4
b0 \
b0 H
b0 Z
b0 .
b11111111 *
b11111111 2
b0 )
b0 1
0+
0(
1'
#720000
0'
#725000
1'
#730000
0'
#735000
1'
#740000
0'
#745000
1'
#750000
0'
#755000
1(
1'
#760000
0'
#765000
1'
#770000
0'
#775000
1F
b1 D
b1000000100010001000100010001000100010001000100010001 G
1,
b1000000100010001000100010001000100010001000100010001 )
b1000000100010001000100010001000100010001000100010001 1
0g
b11111111 f
b1000000100010001000100010001000100010001000100010001 e
b0 j
1'
#780000
0'
