sim/waveform/power_func.vcd
$date
	Mon Mar 16 05:15:22 2026
$end
$version
	Icarus Verilog
$end
$timescale
	1ps
$end
$scope module msg_extractor_tb $end
$var wire 1 ! m_tready $end
$var wire 1 " s_tready $end
$var wire 1 # m_tvalid $end
$var wire 1 $ m_tlast $end
$var wire 8 % m_tkeep [7:0] $end
$var wire 64 & m_tdata [63:0] $end
$var reg 1 ' clk $end
$var reg 1 ( rst_n $end
$var reg 64 ) s_tdata [63:0] $end
$var reg 8 * s_tkeep [7:0] $end
$var reg 1 + s_tlast $end
$var reg 1 , s_tvalid $end
$var integer 32 - fail_cnt [31:0] $end
$var integer 32 . n_out [31:0] $end
$var integer 32 / pass_cnt [31:0] $end
$scope module dut $end
$var wire 1 ' clk $end
$var wire 1 ! m_tready $end
$var wire 1 0 m_tvalid_pre $end
$var wire 1 ( rst_n $end
$var wire 64 1 s_tdata [63:0] $end
$var wire 8 2 s_tkeep [7:0] $end
$var wire 1 + s_tlast $end
$var wire 1 " s_tready $end
$var wire 1 , s_tvalid $end
$var wire 128 3 wide_gated [127:0] $end
$var wire 128 4 wide_fill [127:0] $end
$var wire 128 5 wide [127:0] $end
$var wire 4 6 out_bytes [3:0] $end
$var wire 5 7 noff5 [4:0] $end
$var wire 1 # m_tvalid $end
$var wire 1 8 m_tlast_pre $end
$var wire 1 $ m_tlast $end
$var wire 8 9 m_tkeep_pre [7:0] $end
$var wire 8 : m_tkeep [7:0] $end
$var wire 64 ; m_tdata_pre [63:0] $end
$var wire 64 < m_tdata [63:0] $end
$var wire 16 = hdr [15:0] $end
$var reg 1 > last_nx $end
$var reg 1 ? last_q $end
$var reg 3 @ off_nx [2:0] $end
$var reg 3 A off_q [2:0] $end
$var reg 6 B prem_nx [5:0] $end
$var reg 6 C prem_q [5:0] $end
$var reg 2 D state_nx [1:0] $end
$var reg 2 E state_q [1:0] $end
$var reg 64 F wa_nx [63:0] $end
$var reg 64 G wa_q [63:0] $end
$var reg 1 H wa_valid_nx $end
$var reg 1 I wa_valid_q $end
$var reg 64 J wb_nx [63:0] $end
$var reg 64 K wb_q [63:0] $end
$var reg 1 L wb_vld_nx $end
$var reg 1 M wb_vld_q $end
$scope module u_bshift $end
$var wire 3 N offset [2:0] $end
$var wire 128 O window [127:0] $end
$var wire 64 P data_out [63:0] $end
$upscope $end
$scope module u_opipe $end
$var wire 1 ' clk $end
$var wire 64 Q d_pre [63:0] $end
$var wire 1 8 l_pre $end
$var wire 1 ( rst_n $end
$var wire 1 0 v_pre $end
$var wire 8 R k_pre [7:0] $end
$var reg 64 S m_tdata [63:0] $end
$var reg 8 T m_tkeep [7:0] $end
$var reg 1 $ m_tlast $end
$var reg 1 # m_tvalid $end
$upscope $end
$scope module u_tkeep $end
$var wire 8 U tkeep [7:0] $end
$var wire 4 V byte_count [3:0] $end
$upscope $end
$scope module u_win $end
$var wire 3 W off [2:0] $end
$var wire 6 X prem [5:0] $end
$var wire 64 Y wa [63:0] $end
$var wire 64 Z wb [63:0] $end
$var wire 1 M wb_vld $end
$var wire 128 [ wide_fill [127:0] $end
$var wire 128 \ wide [127:0] $end
$var wire 4 ] out_bytes [3:0] $end
$var wire 5 ^ noff5 [4:0] $end
$var wire 16 _ hdr [15:0] $end
$upscope $end
$upscope $end
$scope task check_beat $end
$var reg 64 ` exp_d [63:0] $end
$var reg 8 a exp_k [7:0] $end
$var reg 1 b exp_l $end
$var integer 32 c idx [31:0] $end
$upscope $end
$scope task do_reset $end
$upscope $end
$scope task send_beat $end
$var reg 64 d data [63:0] $end
$var reg 8 e keep [7:0] $end
$var reg 1 f last $end
$upscope $end
$scope task send_idle $end
$upscope $end
$scope task test_max_payload $end
$var integer 32 g base [31:0] $end
$var integer 32 h i [31:0] $end
$upscope $end
$scope task test_multi_min_msgs $end
$var integer 32 i base [31:0] $end
$upscope $end
$scope task test_single_8byte_msg $end
$var integer 32 j base [31:0] $end
$upscope $end
$scope task test_two_messages $end
$var integer 32 k base [31:0] $end
$upscope $end
$scope task test_with_input_gaps $end
$var integer 32 l base [31:0] $end
$upscope $end
$scope task wait_for_outputs $end
$var integer 32 m base [31:0] $end
$var integer 32 n count [31:0] $end
$var integer 32 o timeout_cnt [31:0] $end
$upscope $end
$upscope $end
$enddefinitions $end
$comment Show the parameter values. $end
$dumpall
$end
#0
$dumpvars
bx o
bx n
bx m
bx l
bx k
bx j
bx i
bx h
bx g
xf
bx e
bx d
bx c
xb
bx a
bx `
b0 _
b0 ^
b0 ]
b0 \
b0 [
b0 Z
b0 Y
b0 X
b0 W
b0 V
b0 U
b0 T
b0 S
b0 R
b0 Q
b0 P
b0 O
b0 N
0M
0L
b0 K
b0 J
1I
1H
b0 G
b0 F
b0 E
b0 D
b0 C
b0 B
b0 A
b0 @
0?
0>
b0 =
b0 <
b0 ;
b0 :
b0 9
18
b0 7
b0 6
b0 5
b0 4
b0 3
b11111111 2
b0 1
00
b0 /
b0 .
b0 -
0,
0+
b11111111 *
b0 )
0(
0'
b0 &
b0 %
0$
0#
1"
1!
$end
#5000
1'
#10000
0'
#15000
1'
#20000
0'
#25000
1'
#30000
0'
#35000
1(
1'
#40000
0'
#45000
1'
#50000
0'
#55000
b1 D
b1000110111101010110110111110111011110000000000000000 F
1,
b1000110111101010110110111110111011110000000000000000 )
b1000110111101010110110111110111011110000000000000000 1
0f
b11111111 e
b1000110111101010110110111110111011110000000000000000 d
b0 j
1'
#60000
0'
#65000
b10 @
b1000 B
1L
b1000000000000000000000000000000000000000000000000 J
b1000 =
b1000 _
b10001101111010101101101111101110111100000000000000000000000000000000000000000000000000000000000000000000000000000000 5
b10001101111010101101101111101110111100000000000000000000000000000000000000000000000000000000000000000000000000000000 \
b10001101111010101101101111101110111100000000000000000000000000000000000000000000000000000000000000000000000000000000 4
b10001101111010101101101111101110111100000000000000000000000000000000000000000000000000000000000000000000000000000000 [
b1000110111101010110110111110111011110000000000000000 G
b1000110111101010110110111110111011110000000000000000 Y
b1 E
1>
b1000110111101010110110111110111011110000000000000000 F
b10 D
1+
b11000000 *
b11000000 2
b1000000000000000000000000000000000000000000000000 )
b1000000000000000000000000000000000000000000000000 1
1f
b11000000 e
b1000000000000000000000000000000000000000000000000 d
1'
#70000
0'
#75000
b1000000000000000000000000000000000000000000000000 F
b11111111 9
b11111111 R
b11111111 U
b1000 6
b1000 V
b1000 ]
0"
b10001101111010101101101111101110111100000000000000000000000000000001000000000000000000000000000000000000000000000000 4
b10001101111010101101101111101110111100000000000000000000000000000001000000000000000000000000000000000000000000000000 [
b1101111010101101101111101110111100000000000000000000000000000001 ;
b1101111010101101101111101110111100000000000000000000000000000001 P
b1101111010101101101111101110111100000000000000000000000000000001 Q
b10001101111010101101101111101110111100000000000000000000000000000001000000000000000000000000000000000000000000000000 3
b10001101111010101101101111101110111100000000000000000000000000000001000000000000000000000000000000000000000000000000 O
10
1?
b1000 C
b1000 X
b1101111010101101 =
b1101111010101101 _
b1010 7
b1010 ^
b10 A
b10 N
b10 W
1M
b10001101111010101101101111101110111100000000000000000000000000000001000000000000000000000000000000000000000000000000 5
b10001101111010101101101111101110111100000000000000000000000000000001000000000000000000000000000000000000000000000000 \
b1000000000000000000000000000000000000000000000000 K
b1000000000000000000000000000000000000000000000000 Z
b10 E
1>
b0 B
b10 @
0L
b1000000000000000000000000000000000000000000000000 J
b1 D
b0 o
b1 n
b0 m
0,
1'
#80000
0'
#85000
b10 7
b10 ^
b0 9
b0 R
b0 U
b0 6
b0 V
b0 ]
1"
b0 D
b0 ;
b0 P
b0 Q
b0 3
b0 O
00
b0 C
b0 X
0M
b0 =
b0 _
b10000000000000000000000000000000000000000000000000000000000000001000000000000000000000000000000000000000000000000 5
b10000000000000000000000000000000000000000000000000000000000000001000000000000000000000000000000000000000000000000 \
b10000000000000000000000000000000000000000000000000000000000000000000000000000000000000000000000000000000000000000 4
b10000000000000000000000000000000000000000000000000000000000000000000000000000000000000000000000000000000000000000 [
b1000000000000000000000000000000000000000000000000 G
b1000000000000000000000000000000000000000000000000 Y
b1 E
1$
b11111111 %
b11111111 :
b11111111 T
b1101111010101101101111101110111100000000000000000000000000000001 &
b1101111010101101101111101110111100000000000000000000000000000001 <
b1101111010101101101111101110111100000000000000000000000000000001 S
1#
b1 o
1'
#90000
0'
#95000
0#
b0 E
b1 /
1b
b11111111 a
b1101111010101101101111101110111100000000000000000000000000000001 `
b0 c
b10 o
b1 .
1'
#100000
0'
#105000
1'
#110000
0'
#115000
1'
#120000
0'
#125000
1'
#130000
0'
#135000
1'
#140000
0'
#145000
0>
b0 @
b0 J
b0 F
0?
b0 7
b0 ^
b0 A
b0 N
b0 W
b0 K
b0 Z
b0 5
b0 \
b0 4
b0 [
b0 G
b0 Y
0$
b0 %
b0 :
b0 T
b0 &
b0 <
b0 S
b0 .
b11111111 *
b11111111 2
b0 )
b0 1
0+
0(
1'
#150000
0'
#155000
1'
#160000
0'
#165000
1'
#170000
0'
#175000
1'
#180000
0'
#185000
1(
1'
#190000
0'
#195000
1'
#200000
0'
#205000
b1 D
b1000110111101010110110111110111011110000000000000000 F
1,
b1000110111101010110110111110111011110000000000000000 )
b1000110111101010110110111110111011110000000000000000 1
0f
b11111111 e
b1000110111101010110110111110111011110000000000000000 d
b0 k
1'
#210000
0'
#215000
b10 @
b1000 B
1L
b1000000000000101011001010111111101011101010111110 J
b1000 =
b1000 _
b10001101111010101101101111101110111100000000000000000000000000000000000000000000000000000000000000000000000000000000 5
b10001101111010101101101111101110111100000000000000000000000000000000000000000000000000000000000000000000000000000000 \
b10001101111010101101101111101110111100000000000000000000000000000000000000000000000000000000000000000000000000000000 4
b10001101111010101101101111101110111100000000000000000000000000000000000000000000000000000000000000000000000000000000 [
b1000110111101010110110111110111011110000000000000000 G
b1000110111101010110110111110111011110000000000000000 Y
b1 E
b1000110111101010110110111110111011110000000000000000 F
b10 D
b1000000000000101011001010111111101011101010111110 )
b1000000000000101011001010111111101011101010111110 1
b1000000000000101011001010111111101011101010111110 d
1'
#220000
0'
#225000
b1000000000000101011001010111111101011101010111110 F
b11111111 9
b11111111 R
b11111111 U
b1000 6
b1000 V
b1000 ]
0"
b10001101111010101101101111101110111100000000000000000000000000000001000000000000101011001010111111101011101010111110 4
b10001101111010101101101111101110111100000000000000000000000000000001000000000000101011001010111111101011101010111110 [
b1101111010101101101111101110111100000000000000000000000000000001 ;
b1101111010101101101111101110111100000000000000000000000000000001 P
b1101111010101101101111101110111100000000000000000000000000000001 Q
b10001101111010101101101111101110111100000000000000000000000000000001000000000000101011001010111111101011101010111110 3
b10001101111010101101101111101110111100000000000000000000000000000001000000000000101011001010111111101011101010111110 O
10
b1000 C
b1000 X
b1101111010101101 =
b1101111010101101 _
b1010 7
b1010 ^
b10 A
b10 N
b10 W
1M
b10001101111010101101101111101110111100000000000000000000000000000001000000000000101011001010111111101011101010111110 5
b10001101111010101101101111101110111100000000000000000000000000000001000000000000101011001010111111101011101010111110 \
b1000000000000101011001010111111101011101010111110 K
b1000000000000101011001010111111101011101010111110 Z
b10 E
0>
b0 B
b10 @
0L
b1000000000000101011001010111111101011101010111110 J
b1 D
1+
b100000000000000000 )
b100000000000000000 1
1f
b100000000000000000 d
1'
#230000
0'
#235000
1>
1L
b100000000000000000 J
b10 7
b10 ^
b0 9
b0 R
b0 U
b0 6
b0 V
b0 ]
1"
b10 D
b100 @
b1010 B
b0 ;
b0 P
b0 Q
b0 3
b0 O
00
1$
b11111111 %
b11111111 :
b11111111 T
b1101111010101101101111101110111100000000000000000000000000000001 &
b1101111010101101101111101110111100000000000000000000000000000001 <
b1101111010101101101111101110111100000000000000000000000000000001 S
1#
b0 C
b0 X
0M
b1010 =
b1010 _
b10000000000001010110010101111111010111010101111100000000000000001000000000000101011001010111111101011101010111110 5
b10000000000001010110010101111111010111010101111100000000000000001000000000000101011001010111111101011101010111110 \
b10000000000001010110010101111111010111010101111100000000000000000000000000000000000000000000000000000000000000000 4
b10000000000001010110010101111111010111010101111100000000000000000000000000000000000000000000000000000000000000000 [
b1000000000000101011001010111111101011101010111110 G
b1000000000000101011001010111111101011101010111110 Y
b1 E
1'
#240000
0'
#245000
b11111111 9
b11111111 R
b11111111 U
b1000 6
b1000 V
b1000 ]
0"
b10000000000001010110010101111111010111010101111100000000000000000000000000000000000000000000000100000000000000000 4
b10000000000001010110010101111111010111010101111100000000000000000000000000000000000000000000000100000000000000000 [
b100000000000000000 F
b1100101011111110101110101011111000000000000000000000000000000000 ;
b1100101011111110101110101011111000000000000000000000000000000000 P
b1100101011111110101110101011111000000000000000000000000000000000 Q
b10000000000001010110010101111111010111010101111100000000000000000000000000000000000000000000000100000000000000000 3
b10000000000001010110010101111111010111010101111100000000000000000000000000000000000000000000000100000000000000000 O
10
1?
08
b1010 C
b1010 X
b1100101011111110 =
b1100101011111110 _
b1100 7
b1100 ^
b100 A
b100 N
b100 W
1M
b10000000000001010110010101111111010111010101111100000000000000000000000000000000000000000000000100000000000000000 5
b10000000000001010110010101111111010111010101111100000000000000000000000000000000000000000000000100000000000000000 \
b100000000000000000 K
b100000000000000000 Z
b10 E
0#
1>
b10 B
b100 @
0L
b100000000000000000 J
b10 D
b0 o
b11 n
0,
b1 .
1'
#250000
0'
#255000
b110 @
10
b110 7
b110 ^
b11000000 9
b11000000 R
b11000000 U
b10 6
b10 V
b10 ]
1"
b10000000000000000000000000000000000000000000000000 ;
b10000000000000000000000000000000000000000000000000 P
b10000000000000000000000000000000000000000000000000 Q
b1000000000000000000000000000000000000000000000000000000000000000000000000000000000 3
b1000000000000000000000000000000000000000000000000000000000000000000000000000000000 O
b1 D
b0 B
0$
b1100101011111110101110101011111000000000000000000000000000000000 &
b1100101011111110101110101011111000000000000000000000000000000000 <
b1100101011111110101110101011111000000000000000000000000000000000 S
1#
18
b10 C
b10 X
0M
b10 =
b10 _
b1000000000000000000000000000000000000000000000000000000000000000100000000000000000 5
b1000000000000000000000000000000000000000000000000000000000000000100000000000000000 \
b1000000000000000000000000000000000000000000000000000000000000000000000000000000000 4
b1000000000000000000000000000000000000000000000000000000000000000000000000000000000 [
b100000000000000000 G
b100000000000000000 Y
b1 o
1'
#260000
0'
#265000
b0 9
b0 R
b0 U
b0 6
b0 V
b0 ]
b0 D
b0 3
b0 O
00
b0 C
b0 X
b0 ;
b0 P
b0 Q
b0 =
b0 _
b110 7
b110 ^
b110 A
b110 N
b110 W
b1 E
1$
b11000000 %
b11000000 :
b11000000 T
b10000000000000000000000000000000000000000000000000 &
b10000000000000000000000000000000000000000000000000 <
b10000000000000000000000000000000000000000000000000 S
b10 o
b10 .
1'
#270000
0'
#275000
0#
b0 E
b11 .
b11 o
1'
#280000
0'
#285000
b11000000 a
1b
b10000000000000000000000000000000000000000000000000 `
b10 c
b100 /
b100 o
1'
#290000
0'
#295000
1'
#300000
0'
#305000
1'
#310000
0'
#315000
1'
#320000
0'
#325000
1'
#330000
0'
#335000
0>
b0 @
b0 J
b0 F
0$
b0 %
b0 :
b0 T
b0 &
b0 <
b0 S
0?
b0 7
b0 ^
b0 A
b0 N
b0 W
b0 K
b0 Z
b0 5
b0 \
b0 4
b0 [
b0 G
b0 Y
b0 .
b0 )
b0 1
0+
0(
1'
#340000
0'
#345000
1'
#350000
0'
#355000
1'
#360000
0'
#365000
1'
#370000
0'
#375000
1(
1'
#380000
0'
#385000
1'
#390000
0'
#395000
b1 D
b100000101010101010101010101010101010101010101010101010 F
1,
b100000101010101010101010101010101010101010101010101010 )
b100000101010101010101010101010101010101010101010101010 1
0f
b100000101010101010101010101010101010101010101010101010 d
b0 g
1'
#400000
0'
#405000
b10 @
b100000 B
1L
b1010101010101010101010101010101010101010101010101010101010101010 J
b100000 =
b100000 _
b1000001010101010101010101010101010101010101010101010100000000000000000000000000000000000000000000000000000000000000000 5
b1000001010101010101010101010101010101010101010101010100000000000000000000000000000000000000000000000000000000000000000 \
b1000001010101010101010101010101010101010101010101010100000000000000000000000000000000000000000000000000000000000000000 4
b1000001010101010101010101010101010101010101010101010100000000000000000000000000000000000000000000000000000000000000000 [
b100000101010101010101010101010101010101010101010101010 G
b100000101010101010101010101010101010101010101010101010 Y
b1 E
b100000101010101010101010101010101010101010101010101010 F
b10 D
b1010101010101010101010101010101010101010101010101010101010101010 )
b1010101010101010101010101010101010101010101010101010101010101010 1
b1010101010101010101010101010101010101010101010101010101010101010 d
1'
#410000
0'
#415000
b11111111 9
b11111111 R
b11111111 U
b1000 6
b1000 V
b1000 ]
0"
b1000001010101010101010101010101010101010101010101010101010101010101010101010101010101010101010101010101010101010101010 4
b1000001010101010101010101010101010101010101010101010101010101010101010101010101010101010101010101010101010101010101010 [
0L
b1010101010101010101010101010101010101010101010101010101010101010 F
b11000 B
b1010101010101010101010101010101010101010101010101010101010101010 ;
b1010101010101010101010101010101010101010101010101010101010101010 P
b1010101010101010101010101010101010101010101010101010101010101010 Q
b1000001010101010101010101010101010101010101010101010101010101010101010101010101010101010101010101010101010101010101010 3
b1000001010101010101010101010101010101010101010101010101010101010101010101010101010101010101010101010101010101010101010 O
10
08
b100000 C
b100000 X
b1010101010101010 =
b1010101010101010 _
b1010 7
b1010 ^
b10 A
b10 N
b10 W
1M
b1000001010101010101010101010101010101010101010101010101010101010101010101010101010101010101010101010101010101010101010 5
b1000001010101010101010101010101010101010101010101010101010101010101010101010101010101010101010101010101010101010101010 \
b1010101010101010101010101010101010101010101010101010101010101010 K
b1010101010101010101010101010101010101010101010101010101010101010 Z
b10 E
1'
#420000
0'
#425000
1L
b1010101010101010101010101010101010101010101010100000000000000000 ;
b1010101010101010101010101010101010101010101010100000000000000000 P
b1010101010101010101010101010101010101010101010100000000000000000 Q
00
1"
b10101010101010101010101010101010101010101010101010101010101010100000000000000000000000000000000000000000000000000000000000000000 3
b10101010101010101010101010101010101010101010101010101010101010100000000000000000000000000000000000000000000000000000000000000000 O
b11000 B
b11000 C
b11000 X
0M
b10101010101010101010101010101010101010101010101010101010101010101010101010101010101010101010101010101010101010101010101010101010 5
b10101010101010101010101010101010101010101010101010101010101010101010101010101010101010101010101010101010101010101010101010101010 \
b10101010101010101010101010101010101010101010101010101010101010100000000000000000000000000000000000000000000000000000000000000000 4
b10101010101010101010101010101010101010101010101010101010101010100000000000000000000000000000000000000000000000000000000000000000 [
b1010101010101010101010101010101010101010101010101010101010101010 G
b1010101010101010101010101010101010101010101010101010101010101010 Y
b11111111 %
b11111111 :
b11111111 T
b1010101010101010101010101010101010101010101010101010101010101010 &
b1010101010101010101010101010101010101010101010101010101010101010 <
b1010101010101010101010101010101010101010101010101010101010101010 S
1#
1'
#430000
0'
#435000
0L
b10000 B
b1010101010101010101010101010101010101010101010101010101010101010 ;
b1010101010101010101010101010101010101010101010101010101010101010 P
b1010101010101010101010101010101010101010101010101010101010101010 Q
b10101010101010101010101010101010101010101010101010101010101010101010101010101010101010101010101010101010101010101010101010101010 3
b10101010101010101010101010101010101010101010101010101010101010101010101010101010101010101010101010101010101010101010101010101010 O
10
0"
b10101010101010101010101010101010101010101010101010101010101010101010101010101010101010101010101010101010101010101010101010101010 4
b10101010101010101010101010101010101010101010101010101010101010101010101010101010101010101010101010101010101010101010101010101010 [
0#
1M
b1 .
1'
#440000
0'
#445000
1L
b1010101010101010101010101010101010101010101010100000000000000000 ;
b1010101010101010101010101010101010101010101010100000000000000000 P
b1010101010101010101010101010101010101010101010100000000000000000 Q
b10101010101010101010101010101010101010101010101010101010101010100000000000000000000000000000000000000000000000000000000000000000 3
b10101010101010101010101010101010101010101010101010101010101010100000000000000000000000000000000000000000000000000000000000000000 O
00
1"
b10101010101010101010101010101010101010101010101010101010101010100000000000000000000000000000000000000000000000000000000000000000 4
b10101010101010101010101010101010101010101010101010101010101010100000000000000000000000000000000000000000000000000000000000000000 [
b10000 B
b10000 C
b10000 X
0M
1#
1'
#450000
0'
#455000
b1000 B
b1010101010101010101010101010101010101010101010101010101010101010 ;
b1010101010101010101010101010101010101010101010101010101010101010 P
b1010101010101010101010101010101010101010101010101010101010101010 Q
b10101010101010101010101010101010101010101010101010101010101010101010101010101010101010101010101010101010101010101010101010101010 3
b10101010101010101010101010101010101010101010101010101010101010101010101010101010101010101010101010101010101010101010101010101010 O
10
0"
b10101010101010101010101010101010101010101010101010101010101010101010101010101010101010101010101010101010101010101010101010101010 4
b10101010101010101010101010101010101010101010101010101010101010101010101010101010101010101010101010101010101010101010101010101010 [
0#
1M
0>
b1010101010101010101010101010101010101010101010101010101010101010 J
0L
1+
b11000000 *
b11000000 2
b1010101010101010101010101010101000000000000000000000000000000000 )
b1010101010101010101010101010101000000000000000000000000000000000 1
1f
b11000000 e
b1010101010101010101010101010101000000000000000000000000000000000 d
b10 .
1'
#460000
0'
#465000
1>
1L
b1010101010101010101010101010101000000000000000000000000000000000 J
b1010101010101010101010101010101010101010101010100000000000000000 ;
b1010101010101010101010101010101010101010101010100000000000000000 P
b1010101010101010101010101010101010101010101010100000000000000000 Q
b10101010101010101010101010101010101010101010101010101010101010100000000000000000000000000000000000000000000000000000000000000000 3
b10101010101010101010101010101010101010101010101010101010101010100000000000000000000000000000000000000000000000000000000000000000 O
00
1"
b10101010101010101010101010101010101010101010101010101010101010100000000000000000000000000000000000000000000000000000000000000000 4
b10101010101010101010101010101010101010101010101010101010101010100000000000000000000000000000000000000000000000000000000000000000 [
b10 D
b1000 B
18
b1000 C
b1000 X
0M
1#
1'
#470000
0'
#475000
b1 D
b1010101010101010101010101010101000000000000000000000000000000000 F
b0 B
b1010101010101010101010101010101010101010101010101010101010101010 ;
b1010101010101010101010101010101010101010101010101010101010101010 P
b1010101010101010101010101010101010101010101010101010101010101010 Q
b10101010101010101010101010101010101010101010101010101010101010101010101010101010101010101010101000000000000000000000000000000000 3
b10101010101010101010101010101010101010101010101010101010101010101010101010101010101010101010101000000000000000000000000000000000 O
10
0"
b10101010101010101010101010101010101010101010101010101010101010101010101010101010101010101010101000000000000000000000000000000000 4
b10101010101010101010101010101010101010101010101010101010101010101010101010101010101010101010101000000000000000000000000000000000 [
0#
1?
1M
b10101010101010101010101010101010101010101010101010101010101010101010101010101010101010101010101000000000000000000000000000000000 5
b10101010101010101010101010101010101010101010101010101010101010101010101010101010101010101010101000000000000000000000000000000000 \
b1010101010101010101010101010101000000000000000000000000000000000 K
b1010101010101010101010101010101000000000000000000000000000000000 Z
1>
0L
b1010101010101010101010101010101000000000000000000000000000000000 J
b0 o
b100 n
0,
b11 .
1'
#480000
0'
#485000
b10 7
b10 ^
b0 9
b0 R
b0 U
b0 6
b0 V
b0 ]
1"
b0 D
b101010 B
b0 ;
b0 P
b0 Q
b0 3
b0 O
00
b0 C
b0 X
0M
b10101010101010101010101010101010000000000000000000000000000000001010101010101010101010101010101000000000000000000000000000000000 5
b10101010101010101010101010101010000000000000000000000000000000001010101010101010101010101010101000000000000000000000000000000000 \
b10101010101010101010101010101010000000000000000000000000000000000000000000000000000000000000000000000000000000000000000000000000 4
b10101010101010101010101010101010000000000000000000000000000000000000000000000000000000000000000000000000000000000000000000000000 [
b1010101010101010101010101010101000000000000000000000000000000000 G
b1010101010101010101010101010101000000000000000000000000000000000 Y
b1 E
1$
1#
b1 o
1'
#490000
0'
#495000
b1010 7
b1010 ^
b11111111 9
b11111111 R
b11111111 U
b1000 6
b1000 V
b1000 ]
0#
08
b101010 C
b101010 X
b0 E
b1000 /
1b
b11111111 a
b1010101010101010101010101010101010101010101010101010101010101010 `
b11 c
b11 h
b10 o
b100 .
1'
#500000
0'
#505000
1'
#510000
0'
#515000
1'
#520000
0'
#525000
1'
#530000
0'
#535000
1'
#540000
0'
#545000
b0 9
b0 R
b0 U
b0 6
b0 V
b0 ]
0>
b0 B
b0 @
b0 J
b0 F
0?
18
b0 C
b0 X
b0 7
b0 ^
b0 A
b0 N
b0 W
b0 K
b0 Z
b0 =
b0 _
b0 5
b0 \
b0 4
b0 [
b0 G
b0 Y
0$
b0 %
b0 :
b0 T
b0 &
b0 <
b0 S
b0 .
b11111111 *
b11111111 2
b0 )
b0 1
0+
0(
1'
#550000
0'
#555000
1'
#560000
0'
#565000
1'
#570000
0'
#575000
1'
#580000
0'
#585000
1(
1'
#590000
0'
#595000
1'
#600000
0'
#605000
b1 D
b1000110111101010110110111110111011110000000000000000 F
1,
b1000110111101010110110111110111011110000000000000000 )
b1000110111101010110110111110111011110000000000000000 1
0f
b11111111 e
b1000110111101010110110111110111011110000000000000000 d
b0 l
1'
#610000
0'
#615000
b10 @
b1000 B
b1000 =
b1000 _
b10001101111010101101101111101110111100000000000000000000000000000000000000000000000000000000000000000000000000000000 5
b10001101111010101101101111101110111100000000000000000000000000000000000000000000000000000000000000000000000000000000 \
b10001101111010101101101111101110111100000000000000000000000000000000000000000000000000000000000000000000000000000000 4
b10001101111010101101101111101110111100000000000000000000000000000000000000000000000000000000000000000000000000000000 [
b1000110111101010110110111110111011110000000000000000 G
b1000110111101010110110111110111011110000000000000000 Y
b1 E
b1000110111101010110110111110111011110000000000000000 F
b10 D
0,
1'
#620000
0'
#625000
b1000110111101010110110111110111011110000000000000000 F
b11111111 9
b11111111 R
b11111111 U
b1000 6
b1000 V
b1000 ]
b10 D
b1000 B
b1101111010101101101111101110111100000000000000000000000000000000 ;
b1101111010101101101111101110111100000000000000000000000000000000 P
b1101111010101101101111101110111100000000000000000000000000000000 Q
b10001101111010101101101111101110111100000000000000000000000000000000000000000000000000000000000000000000000000000000 3
b10001101111010101101101111101110111100000000000000000000000000000000000000000000000000000000000000000000000000000000 O
00
b1000 C
b1000 X
b1101111010101101 =
b1101111010101101 _
b1010 7
b1010 ^
b10 A
b10 N
b10 W
b10 E
1'
#630000
0'
#635000
1>
1L
b1000000000000000000000000000000000000000000000000 J
1,
1+
b11000000 *
b11000000 2
b1000000000000000000000000000000000000000000000000 )
b1000000000000000000000000000000000000000000000000 1
1f
b11000000 e
b1000000000000000000000000000000000000000000000000 d
1'
#640000
0'
#645000
b1 D
b1000000000000000000000000000000000000000000000000 F
b0 B
b1101111010101101101111101110111100000000000000000000000000000001 ;
b1101111010101101101111101110111100000000000000000000000000000001 P
b1101111010101101101111101110111100000000000000000000000000000001 Q
b10001101111010101101101111101110111100000000000000000000000000000001000000000000000000000000000000000000000000000000 3
b10001101111010101101101111101110111100000000000000000000000000000001000000000000000000000000000000000000000000000000 O
10
0"
b10001101111010101101101111101110111100000000000000000000000000000001000000000000000000000000000000000000000000000000 4
b10001101111010101101101111101110111100000000000000000000000000000001000000000000000000000000000000000000000000000000 [
1?
1M
b10001101111010101101101111101110111100000000000000000000000000000001000000000000000000000000000000000000000000000000 5
b10001101111010101101101111101110111100000000000000000000000000000001000000000000000000000000000000000000000000000000 \
b1000000000000000000000000000000000000000000000000 K
b1000000000000000000000000000000000000000000000000 Z
1>
0L
b1000000000000000000000000000000000000000000000000 J
b0 o
b1 n
0,
1'
#650000
0'
#655000
b10 7
b10 ^
b0 9
b0 R
b0 U
b0 6
b0 V
b0 ]
1"
b0 D
b0 ;
b0 P
b0 Q
b0 3
b0 O
00
1$
b11111111 %
b11111111 :
b11111111 T
b1101111010101101101111101110111100000000000000000000000000000001 &
b1101111010101101101111101110111100000000000000000000000000000001 <
b1101111010101101101111101110111100000000000000000000000000000001 S
1#
b0 C
b0 X
0M
b0 =
b0 _
b10000000000000000000000000000000000000000000000000000000000000001000000000000000000000000000000000000000000000000 5
b10000000000000000000000000000000000000000000000000000000000000001000000000000000000000000000000000000000000000000 \
b10000000000000000000000000000000000000000000000000000000000000000000000000000000000000000000000000000000000000000 4
b10000000000000000000000000000000000000000000000000000000000000000000000000000000000000000000000000000000000000000 [
b1000000000000000000000000000000000000000000000000 G
b1000000000000000000000000000000000000000000000000 Y
b1 E
b1 o
1'
#660000
0'
#665000
b0 E
0#
b1001 /
b1101111010101101101111101110111100000000000000000000000000000001 `
b0 c
b10 o
b1 .
1'
#670000
0'
#675000
1'
#680000
0'
#685000
1'
#690000
0'
#695000
1'
#700000
0'
#705000
1'
#710000
0'
#715000
0>
b0 @
b0 J
b0 F
0$
b0 %
b0 :
b0 T
b0 &
b0 <
b0 S
0?
b0 7
b0 ^
b0 A
b0 N
b0 W
b0 K
b0 Z
b0 5
b0 \
b0 4
b0 [
b0 G
b0 Y
b0 .
b11111111 *
b11111111 2
b0 )
b0 1
0+
0(
1'
#720000
0'
#725000
1'
#730000
0'
#735000
1'
#740000
0'
#745000
1'
#750000
0'
#755000
1(
1'
#760000
0'
#765000
1'
#770000
0'
#775000
b1 D
b1000000100010001000100010001000100010001000100010001 F
1,
b1000000100010001000100010001000100010001000100010001 )
b1000000100010001000100010001000100010001000100010001 1
0f
b11111111 e
b1000000100010001000100010001000100010001000100010001 d
b0 i
1'
#780000
0'
#785000
b10 @
b1000 B
1L
b1000100010001000000000000100000100010001000100010001000100010 J
b1000 =
b1000 _
b10000001000100010001000100010001000100010001000100010000000000000000000000000000000000000000000000000000000000000000 5
b10000001000100010001000100010001000100010001000100010000000000000000000000000000000000000000000000000000000000000000 \
b10000001000100010001000100010001000100010001000100010000000000000000000000000000000000000000000000000000000000000000 4
b10000001000100010001000100010001000100010001000100010000000000000000000000000000000000000000000000000000000000000000 [
b1000000100010001000100010001000100010001000100010001 G
b1000000100010001000100010001000100010001000100010001 Y
b1 E
b1000000100010001000100010001000100010001000100010001 F
b10 D
b1000100010001000000000000100000100010001000100010001000100010 )
b1000100010001000000000000100000100010001000100010001000100010 1
b1000100010001000000000000100000100010001000100010001000100010 d
1'
#790000
0'
