sim/waveform/throughput_func.vcd
$date
	Mon Mar 16 07:39:41 2026
$end
$version
	Icarus Verilog
$end
$timescale
	1ps
$end
$scope module msg_extractor_tb $end
$var wire 1 ! m_tready $end
$var wire 1 " s_tready $end
$var wire 1 # m_tvalid $end
$var wire 1 $ m_tlast $end
$var wire 8 % m_tkeep [7:0] $end
$var wire 64 & m_tdata [63:0] $end
$var reg 1 ' clk $end
$var reg 1 ( rst_n $end
$var reg 64 ) s_tdata [63:0] $end
$var reg 8 * s_tkeep [7:0] $end
$var reg 1 + s_tlast $end
$var reg 1 , s_tvalid $end
$var integer 32 - fail_cnt [31:0] $end
$var integer 32 . n_out [31:0] $end
$var integer 32 / pass_cnt [31:0] $end
$scope module dut $end
$var wire 1 ' clk $end
$var wire 1 ! m_tready $end
$var wire 1 # m_tvalid $end
$var wire 1 0 promoting $end
$var wire 1 ( rst_n $end
$var wire 64 1 s_tdata [63:0] $end
$var wire 8 2 s_tkeep [7:0] $end
$var wire 1 + s_tlast $end
$var wire 1 " s_tready $end
$var wire 1 , s_tvalid $end
$var wire 128 3 wide_fill [127:0] $end
$var wire 128 4 wide [127:0] $end
$var wire 4 5 out_bytes [3:0] $end
$var wire 5 6 noff5 [4:0] $end
$var wire 1 $ m_tlast $end
$var wire 8 7 m_tkeep [7:0] $end
$var wire 64 8 m_tdata [63:0] $end
$var wire 16 9 hdr [15:0] $end
$var reg 1 : last_nx $end
$var reg 1 ; last_q $end
$var reg 3 < off_nx [2:0] $end
$var reg 3 = off_q [2:0] $end
$var reg 6 > prem_nx [5:0] $end
$var reg 6 ? prem_q [5:0] $end
$var reg 2 @ state_nx [1:0] $end
$var reg 2 A state_q [1:0] $end
$var reg 64 B wa_nx [63:0] $end
$var reg 64 C wa_q [63:0] $end
$var reg 1 D wa_valid_nx $end
$var reg 1 E wa_valid_q $end
$var reg 64 F wb_nx [63:0] $end
$var reg 64 G wb_q [63:0] $end
$var reg 1 H wb_vld_nx $end
$var reg 1 I wb_vld_q $end
$scope module u_bshift $end
$var wire 3 J offset [2:0] $end
$var wire 128 K window [127:0] $end
$var wire 64 L data_out [63:0] $end
$upscope $end
$scope module u_tkeep $end
$var wire 8 M tkeep [7:0] $end
$var wire 4 N byte_count [3:0] $end
$upscope $end
$scope module u_win $end
$var wire 3 O off [2:0] $end
$var wire 6 P prem [5:0] $end
$var wire 64 Q wa [63:0] $end
$var wire 64 R wb [63:0] $end
$var wire 1 I wb_vld $end
$var wire 128 S wide_fill [127:0] $end
$var wire 128 T wide [127:0] $end
$var wire 4 U out_bytes [3:0] $end
$var wire 5 V noff5 [4:0] $end
$var wire 16 W hdr [15:0] $end
$upscope $end
$upscope $end
$scope task check_beat $end
$var reg 64 X exp_d [63:0] $end
$var reg 8 Y exp_k [7:0] $end
$var reg 1 Z exp_l $end
$var integer 32 [ idx [31:0] $end
$upscope $end
$scope task do_reset $end
$upscope $end
$scope task send_beat $end
$var reg 64 \ data [63:0] $end
$var reg 8 ] keep [7:0] $end
$var reg 1 ^ last $end
$upscope $end
$scope task send_idle $end
$upscope $end
$scope task test_max_payload $end
$var integer 32 _ base [31:0] $end
$var integer 32 ` i [31:0] $end
$upscope $end
$scope task test_multi_min_msgs $end
$var integer 32 a base [31:0] $end
$upscope $end
$scope task test_single_8byte_msg $end
$var integer 32 b base [31:0] $end
$upscope $end
$scope task test_two_messages $end
$var integer 32 c base [31:0] $end
$upscope $end
$scope task test_with_input_gaps $end
$var integer 32 d base [31:0] $end
$upscope $end
$scope task wait_for_outputs $end
$var integer 32 e base [31:0] $end
$var integer 32 f count [31:0] $end
$var integer 32 g timeout_cnt [31:0] $end
$upscope $end
$upscope $end
$enddefinitions $end
$comment Show the parameter values. $end
$dumpall
$end
#0
$dumpvars
bx g
bx f
bx e
bx d
bx c
bx b
bx a
bx `
bx _
x^
bx ]
bx \
bx [
xZ
bx Y
bx X
b0 W
b0 V
b0 U
b0 T
b0 S
b0 R
b0 Q
b0 P
b0 O
b0 N
b0 M
b0 L
b0 K
b0 J
0I
0H
b0 G
b0 F
1E
1D
b0 C
b0 B
b0 A
b0 @
b0 ?
b0 >
b0 =
b0 <
0;
0:
b0 9
b0 8
b0 7
b0 6
b0 5
b0 4
b0 3
b11111111 2
b0 1
00
b0 /
b0 .
b0 -
0,
0+
b11111111 *
b0 )
0(
0'
b0 &
b0 %
1$
0#
1"
1!
$end
#5000
1'
#10000
0'
#15000
1'
#20000
0'
#25000
1'
#30000
0'
#35000
1(
1'
#40000
0'
#45000
1'
#50000
0'
#55000
b1 @
b1000110111101010110110111110111011110000000000000000 B
1,
b1000110111101010110110111110111011110000000000000000 )
b1000110111101010110110111110111011110000000000000000 1
0^
b11111111 ]
b1000110111101010110110111110111011110000000000000000 \
b0 b
1'
#60000
0'
#65000
b10 <
b1000 >
1H
b1000000000000000000000000000000000000000000000000 F
b1000 9
b1000 W
b10001101111010101101101111101110111100000000000000000000000000000000000000000000000000000000000000000000000000000000 4
b10001101111010101101101111101110111100000000000000000000000000000000000000000000000000000000000000000000000000000000 T
b1000110111101010110110111110111011110000000000000000 &
b1000110111101010110110111110111011110000000000000000 8
b1000110111101010110110111110111011110000000000000000 L
b10001101111010101101101111101110111100000000000000000000000000000000000000000000000000000000000000000000000000000000 3
b10001101111010101101101111101110111100000000000000000000000000000000000000000000000000000000000000000000000000000000 K
b10001101111010101101101111101110111100000000000000000000000000000000000000000000000000000000000000000000000000000000 S
b1000110111101010110110111110111011110000000000000000 C
b1000110111101010110110111110111011110000000000000000 Q
b1 A
1:
b1000110111101010110110111110111011110000000000000000 B
b10 @
1+
b11000000 *
b11000000 2
b1000000000000000000000000000000000000000000000000 )
b1000000000000000000000000000000000000000000000000 1
1^
b11000000 ]
b1000000000000000000000000000000000000000000000000 \
1'
#70000
0'
#75000
10
b1000000000000000000000000000000000000000000000000 B
1"
b11111111 %
b11111111 7
b11111111 M
b1000 5
b1000 N
b1000 U
b10001101111010101101101111101110111100000000000000000000000000000001000000000000000000000000000000000000000000000000 3
b10001101111010101101101111101110111100000000000000000000000000000001000000000000000000000000000000000000000000000000 K
b10001101111010101101101111101110111100000000000000000000000000000001000000000000000000000000000000000000000000000000 S
1#
1;
b1000 ?
b1000 P
b1101111010101101101111101110111100000000000000000000000000000001 &
b1101111010101101101111101110111100000000000000000000000000000001 8
b1101111010101101101111101110111100000000000000000000000000000001 L
b1101111010101101 9
b1101111010101101 W
b1010 6
b1010 V
b10 =
b10 J
b10 O
1I
b10001101111010101101101111101110111100000000000000000000000000000001000000000000000000000000000000000000000000000000 4
b10001101111010101101101111101110111100000000000000000000000000000001000000000000000000000000000000000000000000000000 T
b1000000000000000000000000000000000000000000000000 G
b1000000000000000000000000000000000000000000000000 R
b10 A
1:
b0 >
b10 <
0H
b1000000000000000000000000000000000000000000000000 F
b1 @
b0 g
b1 f
b0 e
0,
1'
#80000
0'
#85000
00
b10 6
b10 V
b0 %
b0 7
b0 M
b0 5
b0 N
b0 U
b0 @
0#
b0 ?
b0 P
0I
b0 9
b0 W
b10000000000000000000000000000000000000000000000000000000000000001000000000000000000000000000000000000000000000000 4
b10000000000000000000000000000000000000000000000000000000000000001000000000000000000000000000000000000000000000000 T
b0 &
b0 8
b0 L
b10000000000000000000000000000000000000000000000000000000000000000000000000000000000000000000000000000000000000000 3
b10000000000000000000000000000000000000000000000000000000000000000000000000000000000000000000000000000000000000000 K
b10000000000000000000000000000000000000000000000000000000000000000000000000000000000000000000000000000000000000000 S
b1000000000000000000000000000000000000000000000000 C
b1000000000000000000000000000000000000000000000000 Q
b1 A
b1 .
b1 g
1'
#90000
0'
#95000
b0 A
b1 /
1Z
b11111111 Y
b1101111010101101101111101110111100000000000000000000000000000001 X
b0 [
b10 g
1'
#100000
0'
#105000
1'
#110000
0'
#115000
1'
#120000
0'
#125000
1'
#130000
0'
#135000
1'
#140000
0'
#145000
0:
b0 <
b0 F
b0 B
0;
b0 6
b0 V
b0 =
b0 J
b0 O
b0 G
b0 R
b0 4
b0 T
b0 3
b0 K
b0 S
b0 C
b0 Q
b0 .
b11111111 *
b11111111 2
b0 )
b0 1
0+
0(
1'
#150000
0'
#155000
1'
#160000
0'
#165000
1'
#170000
0'
#175000
1'
#180000
0'
#185000
1(
1'
#190000
0'
#195000
1'
#200000
0'
#205000
b1 @
b1000110111101010110110111110111011110000000000000000 B
1,
b1000110111101010110110111110111011110000000000000000 )
b1000110111101010110110111110111011110000000000000000 1
0^
b11111111 ]
b1000110111101010110110111110111011110000000000000000 \
b0 c
1'
#210000
0'
#215000
b10 <
b1000 >
1H
b1000000000000101011001010111111101011101010111110 F
b1000 9
b1000 W
b10001101111010101101101111101110111100000000000000000000000000000000000000000000000000000000000000000000000000000000 4
b10001101111010101101101111101110111100000000000000000000000000000000000000000000000000000000000000000000000000000000 T
b1000110111101010110110111110111011110000000000000000 &
b1000110111101010110110111110111011110000000000000000 8
b1000110111101010110110111110111011110000000000000000 L
b10001101111010101101101111101110111100000000000000000000000000000000000000000000000000000000000000000000000000000000 3
b10001101111010101101101111101110111100000000000000000000000000000000000000000000000000000000000000000000000000000000 K
b10001101111010101101101111101110111100000000000000000000000000000000000000000000000000000000000000000000000000000000 S
b1000110111101010110110111110111011110000000000000000 C
b1000110111101010110110111110111011110000000000000000 Q
b1 A
b1000110111101010110110111110111011110000000000000000 B
b10 @
b1000000000000101011001010111111101011101010111110 )
b1000000000000101011001010111111101011101010111110 1
b1000000000000101011001010111111101011101010111110 \
1'
#220000
0'
#225000
10
b1000000000000101011001010111111101011101010111110 B
1"
b11111111 %
b11111111 7
b11111111 M
b1000 5
b1000 N
b1000 U
b10001101111010101101101111101110111100000000000000000000000000000001000000000000101011001010111111101011101010111110 3
b10001101111010101101101111101110111100000000000000000000000000000001000000000000101011001010111111101011101010111110 K
b10001101111010101101101111101110111100000000000000000000000000000001000000000000101011001010111111101011101010111110 S
1#
b1000 ?
b1000 P
b1101111010101101101111101110111100000000000000000000000000000001 &
b1101111010101101101111101110111100000000000000000000000000000001 8
b1101111010101101101111101110111100000000000000000000000000000001 L
b1101111010101101 9
b1101111010101101 W
b1010 6
b1010 V
b10 =
b10 J
b10 O
1I
b10001101111010101101101111101110111100000000000000000000000000000001000000000000101011001010111111101011101010111110 4
b10001101111010101101101111101110111100000000000000000000000000000001000000000000101011001010111111101011101010111110 T
b1000000000000101011001010111111101011101010111110 G
b1000000000000101011001010111111101011101010111110 R
b10 A
1:
b0 >
b10 <
1H
b100000000000000000 F
b1 @
1+
b100000000000000000 )
b100000000000000000 1
1^
b100000000000000000 \
1'
#230000
0'
#235000
0"
00
b10 6
b10 V
b0 %
b0 7
b0 M
b0 5
b0 N
b0 U
b100 <
0#
1;
b0 ?
b0 P
b100000000000000000 G
b100000000000000000 R
b1010 9
b1010 W
b10000000000001010110010101111111010111010101111100000000000000000000000000000000000000000000000100000000000000000 4
b10000000000001010110010101111111010111010101111100000000000000000000000000000000000000000000000100000000000000000 T
b1010110010101111111010111010101111100000000000000000 &
b1010110010101111111010111010101111100000000000000000 8
b1010110010101111111010111010101111100000000000000000 L
b10000000000001010110010101111111010111010101111100000000000000000000000000000000000000000000000100000000000000000 3
b10000000000001010110010101111111010111010101111100000000000000000000000000000000000000000000000100000000000000000 K
b10000000000001010110010101111111010111010101111100000000000000000000000000000000000000000000000100000000000000000 S
b1000000000000101011001010111111101011101010111110 C
b1000000000000101011001010111111101011101010111110 Q
b1 A
1H
1:
b1010 >
b100000000000000000 F
b1000000000000101011001010111111101011101010111110 B
b10 @
b0 g
b11 f
0,
b1 .
1'
#240000
0'
#245000
1"
10
b11111111 %
b11111111 7
b11111111 M
b1000 5
b1000 N
b1000 U
0H
b100000000000000000 B
b10 >
1#
0$
b1010 ?
b1010 P
b1100101011111110101110101011111000000000000000000000000000000000 &
b1100101011111110101110101011111000000000000000000000000000000000 8
b1100101011111110101110101011111000000000000000000000000000000000 L
b1100101011111110 9
b1100101011111110 W
b1100 6
b1100 V
b100 =
b100 J
b100 O
b10 A
b1 g
1'
#250000
0'
#255000
b110 <
00
1#
b110 6
b110 V
b11000000 %
b11000000 7
b11000000 M
b10 5
b10 N
b10 U
b1 @
b0 >
1$
b10 ?
b10 P
0I
b10 9
b10 W
b1000000000000000000000000000000000000000000000000000000000000000100000000000000000 4
b1000000000000000000000000000000000000000000000000000000000000000100000000000000000 T
b10000000000000000000000000000000000000000000000000 &
b10000000000000000000000000000000000000000000000000 8
b10000000000000000000000000000000000000000000000000 L
b1000000000000000000000000000000000000000000000000000000000000000000000000000000000 3
b1000000000000000000000000000000000000000000000000000000000000000000000000000000000 K
b1000000000000000000000000000000000000000000000000000000000000000000000000000000000 S
b100000000000000000 C
b100000000000000000 Q
b10 g
b10 .
1'
#260000
0'
#265000
00
b0 %
b0 7
b0 M
b0 5
b0 N
b0 U
b0 @
0#
b0 ?
b0 P
b0 &
b0 8
b0 L
b0 9
b0 W
b110 6
b110 V
b110 =
b110 J
b110 O
b1 A
b11 .
b11 g
1'
#270000
0'
#275000
b0 A
b11000000 Y
1Z
b10000000000000000000000000000000000000000000000000 X
b10 [
b100 /
b100 g
1'
#280000
0'
#285000
1'
#290000
0'
#295000
1'
#300000
0'
#305000
1'
#310000
0'
#315000
1'
#320000
0'
#325000
0:
b0 <
b0 F
b0 B
0;
b0 6
b0 V
b0 =
b0 J
b0 O
b0 G
b0 R
b0 4
b0 T
b0 3
b0 K
b0 S
b0 C
b0 Q
b0 .
b0 )
b0 1
0+
0(
1'
#330000
0'
#335000
1'
#340000
0'
#345000
1'
#350000
0'
#355000
1'
#360000
0'
#365000
1(
1'
#370000
0'
#375000
1'
#380000
0'
#385000
b1 @
b100000101010101010101010101010101010101010101010101010 B
1,
b100000101010101010101010101010101010101010101010101010 )
b100000101010101010101010101010101010101010101010101010 1
0^
b100000101010101010101010101010101010101010101010101010 \
b0 _
1'
#390000
0'
#395000
b10 <
b100000 >
1H
b1010101010101010101010101010101010101010101010101010101010101010 F
b100000 9
b100000 W
b1000001010101010101010101010101010101010101010101010100000000000000000000000000000000000000000000000000000000000000000 4
b1000001010101010101010101010101010101010101010101010100000000000000000000000000000000000000000000000000000000000000000 T
b100000101010101010101010101010101010101010101010101010 &
b100000101010101010101010101010101010101010101010101010 8
b100000101010101010101010101010101010101010101010101010 L
b1000001010101010101010101010101010101010101010101010100000000000000000000000000000000000000000000000000000000000000000 3
b1000001010101010101010101010101010101010101010101010100000000000000000000000000000000000000000000000000000000000000000 K
b1000001010101010101010101010101010101010101010101010100000000000000000000000000000000000000000000000000000000000000000 S
b100000101010101010101010101010101010101010101010101010 C
b100000101010101010101010101010101010101010101010101010 Q
b1 A
b100000101010101010101010101010101010101010101010101010 B
b10 @
b1010101010101010101010101010101010101010101010101010101010101010 )
b1010101010101010101010101010101010101010101010101010101010101010 1
b1010101010101010101010101010101010101010101010101010101010101010 \
1'
#400000
0'
#405000
10
1H
1"
b11111111 %
b11111111 7
b11111111 M
b1000 5
b1000 N
b1000 U
b1000001010101010101010101010101010101010101010101010101010101010101010101010101010101010101010101010101010101010101010 3
b1000001010101010101010101010101010101010101010101010101010101010101010101010101010101010101010101010101010101010101010 K
b1000001010101010101010101010101010101010101010101010101010101010101010101010101010101010101010101010101010101010101010 S
b1010101010101010101010101010101010101010101010101010101010101010 B
b11000 >
1#
0$
b100000 ?
b100000 P
b1010101010101010101010101010101010101010101010101010101010101010 &
b1010101010101010101010101010101010101010101010101010101010101010 8
b1010101010101010101010101010101010101010101010101010101010101010 L
b1010101010101010 9
b1010101010101010 W
b1010 6
b1010 V
b10 =
b10 J
b10 O
1I
b1000001010101010101010101010101010101010101010101010101010101010101010101010101010101010101010101010101010101010101010 4
b1000001010101010101010101010101010101010101010101010101010101010101010101010101010101010101010101010101010101010101010 T
b1010101010101010101010101010101010101010101010101010101010101010 G
b1010101010101010101010101010101010101010101010101010101010101010 R
b10 A
1'
#410000
0'
#415000
b10000 >
b11000 ?
b11000 P
b10101010101010101010101010101010101010101010101010101010101010101010101010101010101010101010101010101010101010101010101010101010 4
b10101010101010101010101010101010101010101010101010101010101010101010101010101010101010101010101010101010101010101010101010101010 T
b10101010101010101010101010101010101010101010101010101010101010101010101010101010101010101010101010101010101010101010101010101010 3
b10101010101010101010101010101010101010101010101010101010101010101010101010101010101010101010101010101010101010101010101010101010 K
b10101010101010101010101010101010101010101010101010101010101010101010101010101010101010101010101010101010101010101010101010101010 S
b1010101010101010101010101010101010101010101010101010101010101010 C
b1010101010101010101010101010101010101010101010101010101010101010 Q
b1 .
1'
#420000
0'
#425000
b10000 ?
b10000 P
1:
b1010101010101010101010101010101000000000000000000000000000000000 F
b1000 >
1+
b11000000 *
b11000000 2
b1010101010101010101010101010101000000000000000000000000000000000 )
b1010101010101010101010101010101000000000000000000000000000000000 1
1^
b11000000 ]
b1010101010101010101010101010101000000000000000000000000000000000 \
b10 .
1'
#430000
0'
#435000
b10101010101010101010101010101010101010101010101010101010101010101010101010101010101010101010101000000000000000000000000000000000 3
b10101010101010101010101010101010101010101010101010101010101010101010101010101010101010101010101000000000000000000000000000000000 K
b10101010101010101010101010101010101010101010101010101010101010101010101010101010101010101010101000000000000000000000000000000000 S
b1 @
b1010101010101010101010101010101000000000000000000000000000000000 B
1;
1$
b1000 ?
b1000 P
b10101010101010101010101010101010101010101010101010101010101010101010101010101010101010101010101000000000000000000000000000000000 4
b10101010101010101010101010101010101010101010101010101010101010101010101010101010101010101010101000000000000000000000000000000000 T
b1010101010101010101010101010101000000000000000000000000000000000 G
b1010101010101010101010101010101000000000000000000000000000000000 R
0H
1:
b0 >
b1010101010101010101010101010101000000000000000000000000000000000 F
b0 g
b100 f
0,
b11 .
1'
#440000
0'
#445000
00
b10 6
b10 V
b0 %
b0 7
b0 M
b0 5
b0 N
b0 U
b0 @
b101010 >
0#
b0 ?
b0 P
0I
b10101010101010101010101010101010000000000000000000000000000000001010101010101010101010101010101000000000000000000000000000000000 4
b10101010101010101010101010101010000000000000000000000000000000001010101010101010101010101010101000000000000000000000000000000000 T
b1010101010101010000000000000000000000000000000000000000000000000 &
b1010101010101010000000000000000000000000000000000000000000000000 8
b1010101010101010000000000000000000000000000000000000000000000000 L
b10101010101010101010101010101010000000000000000000000000000000000000000000000000000000000000000000000000000000000000000000000000 3
b10101010101010101010101010101010000000000000000000000000000000000000000000000000000000000000000000000000000000000000000000000000 K
b10101010101010101010101010101010000000000000000000000000000000000000000000000000000000000000000000000000000000000000000000000000 S
b1010101010101010101010101010101000000000000000000000000000000000 C
b1010101010101010101010101010101000000000000000000000000000000000 Q
b1 A
b100 .
b1 g
1'
#450000
0'
#455000
b1010 6
b1010 V
b11111111 %
b11111111 7
b11111111 M
b1000 5
b1000 N
b1000 U
0$
b101010 ?
b101010 P
b0 A
b1000 /
1Z
b11111111 Y
b1010101010101010101010101010101010101010101010101010101010101010 X
b11 [
b11 `
b10 g
1'
#460000
0'
#465000
1'
#470000
0'
#475000
1'
#480000
0'
#485000
1'
#490000
0'
#495000
1'
#500000
0'
#505000
b0 %
b0 7
b0 M
b0 5
b0 N
b0 U
0:
b0 >
b0 <
b0 F
b0 B
0;
1$
b0 ?
b0 P
b0 6
b0 V
b0 =
b0 J
b0 O
b0 G
b0 R
b0 9
b0 W
b0 4
b0 T
b0 &
b0 8
b0 L
b0 3
b0 K
b0 S
b0 C
b0 Q
b0 .
b11111111 *
b11111111 2
b0 )
b0 1
0+
0(
1'
#510000
0'
#515000
1'
#520000
0'
#525000
1'
#530000
0'
#535000
1'
#540000
0'
#545000
1(
1'
#550000
0'
#555000
1'
#560000
0'
#565000
b1 @
b1000110111101010110110111110111011110000000000000000 B
1,
b1000110111101010110110111110111011110000000000000000 )
b1000110111101010110110111110111011110000000000000000 1
0^
b11111111 ]
b1000110111101010110110111110111011110000000000000000 \
b0 d
1'
#570000
0'
#575000
b10 <
b1000 >
b1000 9
b1000 W
b10001101111010101101101111101110111100000000000000000000000000000000000000000000000000000000000000000000000000000000 4
b10001101111010101101101111101110111100000000000000000000000000000000000000000000000000000000000000000000000000000000 T
b1000110111101010110110111110111011110000000000000000 &
b1000110111101010110110111110111011110000000000000000 8
b1000110111101010110110111110111011110000000000000000 L
b10001101111010101101101111101110111100000000000000000000000000000000000000000000000000000000000000000000000000000000 3
b10001101111010101101101111101110111100000000000000000000000000000000000000000000000000000000000000000000000000000000 K
b10001101111010101101101111101110111100000000000000000000000000000000000000000000000000000000000000000000000000000000 S
b1000110111101010110110111110111011110000000000000000 C
b1000110111101010110110111110111011110000000000000000 Q
b1 A
b1000110111101010110110111110111011110000000000000000 B
b10 @
0,
1'
#580000
0'
#585000
00
b1000110111101010110110111110111011110000000000000000 B
b11111111 %
b11111111 7
b11111111 M
b1000 5
b1000 N
b1000 U
b10 @
b1000 >
0#
b1000 ?
b1000 P
b1101111010101101101111101110111100000000000000000000000000000000 &
b1101111010101101101111101110111100000000000000000000000000000000 8
b1101111010101101101111101110111100000000000000000000000000000000 L
b1101111010101101 9
b1101111010101101 W
b1010 6
b1010 V
b10 =
b10 J
b10 O
b10 A
1'
#590000
0'
#595000
1:
1H
b1000000000000000000000000000000000000000000000000 F
1,
1+
b11000000 *
b11000000 2
b1000000000000000000000000000000000000000000000000 )
b1000000000000000000000000000000000000000000000000 1
1^
b11000000 ]
b1000000000000000000000000000000000000000000000000 \
1'
#600000
0'
#605000
10
b1 @
b1000000000000000000000000000000000000000000000000 B
b0 >
1"
1#
b1101111010101101101111101110111100000000000000000000000000000001 &
b1101111010101101101111101110111100000000000000000000000000000001 8
b1101111010101101101111101110111100000000000000000000000000000001 L
b10001101111010101101101111101110111100000000000000000000000000000001000000000000000000000000000000000000000000000000 3
b10001101111010101101101111101110111100000000000000000000000000000001000000000000000000000000000000000000000000000000 K
b10001101111010101101101111101110111100000000000000000000000000000001000000000000000000000000000000000000000000000000 S
1;
1I
b10001101111010101101101111101110111100000000000000000000000000000001000000000000000000000000000000000000000000000000 4
b10001101111010101101101111101110111100000000000000000000000000000001000000000000000000000000000000000000000000000000 T
b1000000000000000000000000000000000000000000000000 G
b1000000000000000000000000000000000000000000000000 R
1:
0H
b1000000000000000000000000000000000000000000000000 F
b0 g
b1 f
0,
1'
#610000
0'
#615000
00
b10 6
b10 V
b0 %
b0 7
b0 M
b0 5
b0 N
b0 U
b0 @
0#
b0 ?
b0 P
0I
b0 9
b0 W
b10000000000000000000000000000000000000000000000000000000000000001000000000000000000000000000000000000000000000000 4
b10000000000000000000000000000000000000000000000000000000000000001000000000000000000000000000000000000000000000000 T
b0 &
b0 8
b0 L
b10000000000000000000000000000000000000000000000000000000000000000000000000000000000000000000000000000000000000000 3
b10000000000000000000000000000000000000000000000000000000000000000000000000000000000000000000000000000000000000000 K
b10000000000000000000000000000000000000000000000000000000000000000000000000000000000000000000000000000000000000000 S
b1000000000000000000000000000000000000000000000000 C
b1000000000000000000000000000000000000000000000000 Q
b1 A
b1 .
b1 g
1'
#620000
0'
#625000
b0 A
b1001 /
b1101111010101101101111101110111100000000000000000000000000000001 X
b0 [
b10 g
1'
#630000
0'
#635000
1'
#640000
0'
#645000
1'
#650000
0'
#655000
1'
#660000
0'
#665000
1'
#670000
0'
#675000
0:
b0 <
b0 F
b0 B
0;
b0 6
b0 V
b0 =
b0 J
b0 O
b0 G
b0 R
b0 4
b0 T
b0 3
b0 K
b0 S
b0 C
b0 Q
b0 .
b11111111 *
b11111111 2
b0 )
b0 1
0+
0(
1'
#680000
0'
#685000
1'
#690000
0'
#695000
1'
#700000
0'
#705000
1'
#710000
0'
#715000
1(
1'
#720000
0'
#725000
1'
#730000
0'
#735000
b1 @
b1000000100010001000100010001000100010001000100010001 B
1,
b1000000100010001000100010001000100010001000100010001 )
b1000000100010001000100010001000100010001000100010001 1
0^
b11111111 ]
b1000000100010001000100010001000100010001000100010001 \
b0 a
1'
#740000
0'
#745000
b10 <
b1000 >
1H
b1000100010001000000000000100000100010001000100010001000100010 F
b1000 9
b1000 W
b10000001000100010001000100010001000100010001000100010000000000000000000000000000000000000000000000000000000000000000 4
b10000001000100010001000100010001000100010001000100010000000000000000000000000000000000000000000000000000000000000000 T
b1000000100010001000100010001000100010001000100010001 &
b1000000100010001000100010001000100010001000100010001 8
b1000000100010001000100010001000100010001000100010001 L
b10000001000100010001000100010001000100010001000100010000000000000000000000000000000000000000000000000000000000000000 3
b10000001000100010001000100010001000100010001000100010000000000000000000000000000000000000000000000000000000000000000 K
b10000001000100010001000100010001000100010001000100010000000000000000000000000000000000000000000000000000000000000000 S
b1000000100010001000100010001000100010001000100010001 C
b1000000100010001000100010001000100010001000100010001 Q
b1 A
b1000000100010001000100010001000100010001000100010001 B
b10 @
b1000100010001000000000000100000100010001000100010001000100010 )
b1000100010001000000000000100000100010001000100010001000100010 1
b1000100010001000000000000100000100010001000100010001000100010 \
1'
#750000
0'
#755000
10
b1000100010001000000000000100000100010001000100010001000100010 B
1"
b11111111 %
b11111111 7
b11111111 M
b1000 5
b1000 N
b1000 U
b10000001000100010001000100010001000100010001000100010001000100010001000000000000100000100010001000100010001000100010 3
b10000001000100010001000100010001000100010001000100010001000100010001000000000000100000100010001000100010001000100010 K
b10000001000100010001000100010001000100010001000100010001000100010001000000000000100000100010001000100010001000100010 S
1#
b1000 ?
b1000 P
b1000100010001000100010001000100010001000100010001000100010001 &
b1000100010001000100010001000100010001000100010001000100010001 8
b1000100010001000100010001000100010001000100010001000100010001 L
b1000100010001 9
b1000100010001 W
b1010 6
b1010 V
b10 =
b10 J
b10 O
1I
b10000001000100010001000100010001000100010001000100010001000100010001000000000000100000100010001000100010001000100010 4
b10000001000100010001000100010001000100010001000100010001000100010001000000000000100000100010001000100010001000100010 T
b1000100010001000000000000100000100010001000100010001000100010 G
b1000100010001000000000000100000100010001000100010001000100010 R
b10 A
b0 >
b10 <
1H
b10001000100010001000100010001000000000000010000011001100110011 F
b1 @
b10001000100010001000100010001000000000000010000011001100110011 )
b10001000100010001000100010001000000000000010000011001100110011 1
b10001000100010001000100010001000000000000010000011001100110011 \
1'
#760000
0'
#765000
0"
00
b10 6
b10 V
b0 %
b0 7
b0 M
b0 5
b0 N
b0 U
b100 <
0#
b0 ?
b0 P
b10001000100010001000100010001000000000000010000011001100110011 G
b10001000100010001000100010001000000000000010000011001100110011 R
b1000 9
b1000 W
b10001000100010000000000001000001000100010001000100010001000100010001000100010001000100010001000000000000010000011001100110011 4
b10001000100010000000000001000001000100010001000100010001000100010001000100010001000100010001000000000000010000011001100110011 T
b1000001000100010001000100010001000100010001000100010 &
b1000001000100010001000100010001000100010001000100010 8
b1000001000100010001000100010001000100010001000100010 L
b10001000100010000000000001000001000100010001000100010001000100010001000100010001000100010001000000000000010000011001100110011 3
b10001000100010000000000001000001000100010001000100010001000100010001000100010001000100010001000000000000010000011001100110011 K
b10001000100010000000000001000001000100010001000100010001000100010001000100010001000100010001000000000000010000011001100110011 S
b1000100010001000000000000100000100010001000100010001000100010 C
b1000100010001000000000000100000100010001000100010001000100010 Q
b1 A
0:
b1000 >
b10001000100010001000100010001000000000000010000011001100110011 F
b1000100010001000000000000100000100010001000100010001000100010 B
b10 @
1+
b11000000 *
b11000000 2
b11001100110011001100110011001100110011001100110000000000000000 )
b11001100110011001100110011001100110011001100110000000000000000 1
1^
b11000000 ]
b11001100110011001100110011001100110011001100110000000000000000 \
b1 .
1'
#770000
0'
#775000
1:
b11001100110011001100110011001100110011001100110000000000000000 F
1"
10
1H
b10001000100010001000100010001000000000000010000011001100110011 B
b11111111 %
b11111111 7
b11111111 M
b1000 5
b1000 N
b1000 U
b1 @
b0 >
1#
b1000 ?
b1000 P
b10001000100010001000100010001000100010001000100010001000100010 &
b10001000100010001000100010001000100010001000100010001000100010 8
b10001000100010001000100010001000100010001000100010001000100010 L
b10001000100010 9
b10001000100010 W
b1100 6
b1100 V
b100 =
b100 J
b100 O
b10 A
1'
#780000
0'
#785000
0"
00
b100 6
b100 V
b0 %
b0 7
b0 M
b0 5
b0 N
b0 U
b110 <
0#
1;
b0 ?
b0 P
b11001100110011001100110011001100110011001100110000000000000000 G
b11001100110011001100110011001100110011001100110000000000000000 R
b1000 9
b1000 W
b100010001000100010001000100010000000000000100000110011001100110011001100110011001100110011001100110011001100110000000000000000 4
b100010001000100010001000100010000000000000100000110011001100110011001100110011001100110011001100110011001100110000000000000000 T
b1000001100110011001100110011001100110011001100110011 &
b1000001100110011001100110011001100110011001100110011 8
b1000001100110011001100110011001100110011001100110011 L
b100010001000100010001000100010000000000000100000110011001100110011001100110011001100110011001100110011001100110000000000000000 3
b100010001000100010001000100010000000000000100000110011001100110011001100110011001100110011001100110011001100110000000000000000 K
b100010001000100010001000100010000000000000100000110011001100110011001100110011001100110011001100110011001100110000000000000000 S
b10001000100010001000100010001000000000000010000011001100110011 C
b10001000100010001000100010001000000000000010000011001100110011 Q
b1 A
1H
1:
b1000 >
b11001100110011001100110011001100110011001100110000000000000000 F
b10001000100010001000100010001000000000000010000011001100110011 B
b10 @
b0 g
b11 f
0,
b10 .
1'
#790000
0'
#795000
1"
10
0H
b11001100110011001100110011001100110011001100110000000000000000 B
b11111111 %
b11111111 7
b11111111 M
b1000 5
b1000 N
b1000 U
b1 @
b0 >
1#
b1000 ?
b1000 P
b11001100110011001100110011001100110011001100110011001100110011 &
b11001100110011001100110011001100110011001100110011001100110011 8
b11001100110011001100110011001100110011001100110011001100110011 L
b11001100110011 9
b11001100110011 W
b1110 6
b1110 V
b110 =
b110 J
b110 O
b10 A
b1 g
1'
#800000
0'
