sim/waveform/timing_func.vcd
$date
	Mon Mar 16 07:39:41 2026
$end
$version
	Icarus Verilog
$end
$timescale
	1ps
$end
$scope module msg_extractor_tb $end
$var wire 1 ! m_tready $end
$var wire 1 " s_tready $end
$var wire 1 # m_tvalid $end
$var wire 1 $ m_tlast $end
$var wire 8 % m_tkeep [7:0] $end
$var wire 64 & m_tdata [63:0] $end
$var reg 1 ' clk $end
$var reg 1 ( rst_n $end
$var reg 64 ) s_tdata [63:0] $end
$var reg 8 * s_tkeep [7:0] $end
$var reg 1 + s_tlast $end
$var reg 1 , s_tvalid $end
$var integer 32 - fail_cnt [31:0] $end
$var integer 32 . n_out [31:0] $end
$var integer 32 / pass_cnt [31:0] $end
$scope module dut $end
$var wire 1 ' clk $end
$var wire 1 ! m_tready $end
$var wire 1 0 m_tvalid_pre $end
$var wire 1 ( rst_n $end
$var wire 64 1 s_tdata [63:0] $end
$var wire 8 2 s_tkeep [7:0] $end
$var wire 1 + s_tlast $end
$var wire 1 " s_tready $end
$var wire 1 , s_tvalid $end
$var wire 128 3 wide_fill [127:0] $end
$var wire 128 4 wide [127:0] $end
$var wire 4 5 out_bytes [3:0] $end
$var wire 5 6 noff5 [4:0] $end
$var wire 1 # m_tvalid $end
$var wire 1 7 m_tlast_pre $end
$var wire 1 $ m_tlast $end
$var wire 8 8 m_tkeep_pre [7:0] $end
$var wire 8 9 m_tkeep [7:0] $end
$var wire 64 : m_tdata_pre [63:0] $end
$var wire 64 ; m_tdata [63:0] $end
$var wire 16 < hdr [15:0] $end
$var reg 1 = last_nx $end
$var reg 1 > last_q $end
$var reg 3 ? off_nx [2:0] $end
$var reg 3 @ off_q [2:0] $end
$var reg 6 A prem_nx [5:0] $end
$var reg 6 B prem_q [5:0] $end
$var reg 2 C state_nx [1:0] $end
$var reg 2 D state_q [1:0] $end
$var reg 64 E wa_nx [63:0] $end
$var reg 64 F wa_q [63:0] $end
$var reg 1 G wa_valid_nx $end
$var reg 1 H wa_valid_q $end
$var reg 64 I wb_nx [63:0] $end
$var reg 64 J wb_q [63:0] $end
$var reg 1 K wb_vld_nx $end
$var reg 1 L wb_vld_q $end
$scope module u_bshift $end
$var wire 3 M offset [2:0] $end
$var wire 128 N window [127:0] $end
$var wire 64 O data_out [63:0] $end
$upscope $end
$scope module u_opipe $end
$var wire 1 ' clk $end
$var wire 64 P d_pre [63:0] $end
$var wire 1 7 l_pre $end
$var wire 1 ( rst_n $end
$var wire 1 0 v_pre $end
$var wire 8 Q k_pre [7:0] $end
$var reg 64 R m_tdata [63:0] $end
$var reg 8 S m_tkeep [7:0] $end
$var reg 1 $ m_tlast $end
$var reg 1 # m_tvalid $end
$upscope $end
$scope module u_tkeep $end
$var wire 8 T tkeep [7:0] $end
$var wire 4 U byte_count [3:0] $end
$upscope $end
$scope module u_win $end
$var wire 3 V off [2:0] $end
$var wire 6 W prem [5:0] $end
$var wire 64 X wa [63:0] $end
$var wire 64 Y wb [63:0] $end
$var wire 1 L wb_vld $end
$var wire 128 Z wide_fill [127:0] $end
$var wire 128 [ wide [127:0] $end
$var wire 4 \ out_bytes [3:0] $end
$var wire 5 ] noff5 [4:0] $end
$var wire 16 ^ hdr [15:0] $end
$upscope $end
$upscope $end
$scope task check_beat $end
$var reg 64 _ exp_d [63:0] $end
$var reg 8 ` exp_k [7:0] $end
$var reg 1 a exp_l $end
$var integer 32 b idx [31:0] $end
$upscope $end
$scope task do_reset $end
$upscope $end
$scope task send_beat $end
$var reg 64 c data [63:0] $end
$var reg 8 d keep [7:0] $end
$var reg 1 e last $end
$upscope $end
$scope task send_idle $end
$upscope $end
$scope task test_max_payload $end
$var integer 32 f base [31:0] $end
$var integer 32 g i [31:0] $end
$upscope $end
$scope task test_multi_min_msgs $end
$var integer 32 h base [31:0] $end
$upscope $end
$scope task test_single_8byte_msg $end
$var integer 32 i base [31:0] $end
$upscope $end
$scope task test_two_messages $end
$var integer 32 j base [31:0] $end
$upscope $end
$scope task test_with_input_gaps $end
$var integer 32 k base [31:0] $end
$upscope $end
$scope task wait_for_outputs $end
$var integer 32 l base [31:0] $end
$var integer 32 m count [31:0] $end
$var integer 32 n timeout_cnt [31:0] $end
$upscope $end
$upscope $end
$enddefinitions $end
$comment Show the parameter values. $end
$dumpall
$end
#0
$dumpvars
bx n
bx m
bx l
bx k
bx j
bx i
bx h
bx g
bx f
xe
bx d
bx c
bx b
xa
bx `
bx _
b0 ^
b0 ]
b0 \
b0 [
b0 Z
b0 Y
b0 X
b0 W
b0 V
b0 U
b0 T
b0 S
b0 R
b0 Q
b0 P
b0 O
b0 N
b0 M
0L
0K
b0 J
b0 I
1H
1G
b0 F
b0 E
b0 D
b0 C
b0 B
b0 A
b0 @
b0 ?
0>
0=
b0 <
b0 ;
b0 :
b0 9
b0 8
17
b0 6
b0 5
b0 4
b0 3
b11111111 2
b0 1
00
b0 /
b0 .
b0 -
0,
0+
b11111111 *
b0 )
0(
0'
b0 &
b0 %
0$
0#
1"
1!
$end
#5000
1'
#10000
0'
#15000
1'
#20000
0'
#25000
1'
#30000
0'
#35000
1(
1'
#40000
0'
#45000
1'
#50000
0'
#55000
b1 C
b1000110111101010110110111110111011110000000000000000 E
1,
b1000110111101010110110111110111011110000000000000000 )
b1000110111101010110110111110111011110000000000000000 1
0e
b11111111 d
b1000110111101010110110111110111011110000000000000000 c
b0 i
1'
#60000
0'
#65000
b10 ?
b1000 A
1K
b1000000000000000000000000000000000000000000000000 I
b1000 <
b1000 ^
b10001101111010101101101111101110111100000000000000000000000000000000000000000000000000000000000000000000000000000000 4
b10001101111010101101101111101110111100000000000000000000000000000000000000000000000000000000000000000000000000000000 [
b1000110111101010110110111110111011110000000000000000 :
b1000110111101010110110111110111011110000000000000000 O
b1000110111101010110110111110111011110000000000000000 P
b10001101111010101101101111101110111100000000000000000000000000000000000000000000000000000000000000000000000000000000 3
b10001101111010101101101111101110111100000000000000000000000000000000000000000000000000000000000000000000000000000000 N
b10001101111010101101101111101110111100000000000000000000000000000000000000000000000000000000000000000000000000000000 Z
b1000110111101010110110111110111011110000000000000000 F
b1000110111101010110110111110111011110000000000000000 X
b1 D
1=
b1000110111101010110110111110111011110000000000000000 E
b10 C
1+
b11000000 *
b11000000 2
b1000000000000000000000000000000000000000000000000 )
b1000000000000000000000000000000000000000000000000 1
1e
b11000000 d
b1000000000000000000000000000000000000000000000000 c
1'
#70000
0'
#75000
b1000000000000000000000000000000000000000000000000 E
b11111111 8
b11111111 Q
b11111111 T
b1000 5
b1000 U
b1000 \
0"
b10001101111010101101101111101110111100000000000000000000000000000001000000000000000000000000000000000000000000000000 3
b10001101111010101101101111101110111100000000000000000000000000000001000000000000000000000000000000000000000000000000 N
b10001101111010101101101111101110111100000000000000000000000000000001000000000000000000000000000000000000000000000000 Z
10
1>
b1000 B
b1000 W
b1101111010101101101111101110111100000000000000000000000000000001 :
b1101111010101101101111101110111100000000000000000000000000000001 O
b1101111010101101101111101110111100000000000000000000000000000001 P
b1101111010101101 <
b1101111010101101 ^
b1010 6
b1010 ]
b10 @
b10 M
b10 V
1L
b10001101111010101101101111101110111100000000000000000000000000000001000000000000000000000000000000000000000000000000 4
b10001101111010101101101111101110111100000000000000000000000000000001000000000000000000000000000000000000000000000000 [
b1000000000000000000000000000000000000000000000000 J
b1000000000000000000000000000000000000000000000000 Y
b10 D
1=
b0 A
b10 ?
0K
b1000000000000000000000000000000000000000000000000 I
b1 C
b0 n
b1 m
b0 l
0,
1'
#80000
0'
#85000
b10 6
b10 ]
b0 8
b0 Q
b0 T
b0 5
b0 U
b0 \
1"
b0 C
00
b0 B
b0 W
0L
b0 <
b0 ^
b10000000000000000000000000000000000000000000000000000000000000001000000000000000000000000000000000000000000000000 4
b10000000000000000000000000000000000000000000000000000000000000001000000000000000000000000000000000000000000000000 [
b0 :
b0 O
b0 P
b10000000000000000000000000000000000000000000000000000000000000000000000000000000000000000000000000000000000000000 3
b10000000000000000000000000000000000000000000000000000000000000000000000000000000000000000000000000000000000000000 N
b10000000000000000000000000000000000000000000000000000000000000000000000000000000000000000000000000000000000000000 Z
b1000000000000000000000000000000000000000000000000 F
b1000000000000000000000000000000000000000000000000 X
b1 D
1$
b11111111 %
b11111111 9
b11111111 S
b1101111010101101101111101110111100000000000000000000000000000001 &
b1101111010101101101111101110111100000000000000000000000000000001 ;
b1101111010101101101111101110111100000000000000000000000000000001 R
1#
b1 n
1'
#90000
0'
#95000
0#
b0 D
b1 /
1a
b11111111 `
b1101111010101101101111101110111100000000000000000000000000000001 _
b0 b
b10 n
b1 .
1'
#100000
0'
#105000
1'
#110000
0'
#115000
1'
#120000
0'
#125000
1'
#130000
0'
#135000
1'
#140000
0'
#145000
0=
b0 ?
b0 I
b0 E
0>
b0 6
b0 ]
b0 @
b0 M
b0 V
b0 J
b0 Y
b0 4
b0 [
b0 3
b0 N
b0 Z
b0 F
b0 X
0$
b0 %
b0 9
b0 S
b0 &
b0 ;
b0 R
b0 .
b11111111 *
b11111111 2
b0 )
b0 1
0+
0(
1'
#150000
0'
#155000
1'
#160000
0'
#165000
1'
#170000
0'
#175000
1'
#180000
0'
#185000
1(
1'
#190000
0'
#195000
1'
#200000
0'
#205000
b1 C
b1000110111101010110110111110111011110000000000000000 E
1,
b1000110111101010110110111110111011110000000000000000 )
b1000110111101010110110111110111011110000000000000000 1
0e
b11111111 d
b1000110111101010110110111110111011110000000000000000 c
b0 j
1'
#210000
0'
#215000
b10 ?
b1000 A
1K
b1000000000000101011001010111111101011101010111110 I
b1000 <
b1000 ^
b10001101111010101101101111101110111100000000000000000000000000000000000000000000000000000000000000000000000000000000 4
b10001101111010101101101111101110111100000000000000000000000000000000000000000000000000000000000000000000000000000000 [
b1000110111101010110110111110111011110000000000000000 :
b1000110111101010110110111110111011110000000000000000 O
b1000110111101010110110111110111011110000000000000000 P
b10001101111010101101101111101110111100000000000000000000000000000000000000000000000000000000000000000000000000000000 3
b10001101111010101101101111101110111100000000000000000000000000000000000000000000000000000000000000000000000000000000 N
b10001101111010101101101111101110111100000000000000000000000000000000000000000000000000000000000000000000000000000000 Z
b1000110111101010110110111110111011110000000000000000 F
b1000110111101010110110111110111011110000000000000000 X
b1 D
b1000110111101010110110111110111011110000000000000000 E
b10 C
b1000000000000101011001010111111101011101010111110 )
b1000000000000101011001010111111101011101010111110 1
b1000000000000101011001010111111101011101010111110 c
1'
#220000
0'
#225000
b1000000000000101011001010111111101011101010111110 E
b11111111 8
b11111111 Q
b11111111 T
b1000 5
b1000 U
b1000 \
0"
b10001101111010101101101111101110111100000000000000000000000000000001000000000000101011001010111111101011101010111110 3
b10001101111010101101101111101110111100000000000000000000000000000001000000000000101011001010111111101011101010111110 N
b10001101111010101101101111101110111100000000000000000000000000000001000000000000101011001010111111101011101010111110 Z
10
b1000 B
b1000 W
b1101111010101101101111101110111100000000000000000000000000000001 :
b1101111010101101101111101110111100000000000000000000000000000001 O
b1101111010101101101111101110111100000000000000000000000000000001 P
b1101111010101101 <
b1101111010101101 ^
b1010 6
b1010 ]
b10 @
b10 M
b10 V
1L
b10001101111010101101101111101110111100000000000000000000000000000001000000000000101011001010111111101011101010111110 4
b10001101111010101101101111101110111100000000000000000000000000000001000000000000101011001010111111101011101010111110 [
b1000000000000101011001010111111101011101010111110 J
b1000000000000101011001010111111101011101010111110 Y
b10 D
0=
b0 A
b10 ?
0K
b1000000000000101011001010111111101011101010111110 I
b1 C
1+
b100000000000000000 )
b100000000000000000 1
1e
b100000000000000000 c
1'
#230000
0'
#235000
1=
1K
b100000000000000000 I
b10 6
b10 ]
b0 8
b0 Q
b0 T
b0 5
b0 U
b0 \
1"
b10 C
b100 ?
b1010 A
00
1$
b11111111 %
b11111111 9
b11111111 S
b1101111010101101101111101110111100000000000000000000000000000001 &
b1101111010101101101111101110111100000000000000000000000000000001 ;
b1101111010101101101111101110111100000000000000000000000000000001 R
1#
b0 B
b0 W
0L
b1010 <
b1010 ^
b10000000000001010110010101111111010111010101111100000000000000001000000000000101011001010111111101011101010111110 4
b10000000000001010110010101111111010111010101111100000000000000001000000000000101011001010111111101011101010111110 [
b1010110010101111111010111010101111100000000000000000 :
b1010110010101111111010111010101111100000000000000000 O
b1010110010101111111010111010101111100000000000000000 P
b10000000000001010110010101111111010111010101111100000000000000000000000000000000000000000000000000000000000000000 3
b10000000000001010110010101111111010111010101111100000000000000000000000000000000000000000000000000000000000000000 N
b10000000000001010110010101111111010111010101111100000000000000000000000000000000000000000000000000000000000000000 Z
b1000000000000101011001010111111101011101010111110 F
b1000000000000101011001010111111101011101010111110 X
b1 D
1'
#240000
0'
#245000
b11111111 8
b11111111 Q
b11111111 T
b1000 5
b1000 U
b1000 \
0"
b10000000000001010110010101111111010111010101111100000000000000000000000000000000000000000000000100000000000000000 3
b10000000000001010110010101111111010111010101111100000000000000000000000000000000000000000000000100000000000000000 N
b10000000000001010110010101111111010111010101111100000000000000000000000000000000000000000000000100000000000000000 Z
b100000000000000000 E
10
1>
07
b1010 B
b1010 W
b1100101011111110101110101011111000000000000000000000000000000000 :
b1100101011111110101110101011111000000000000000000000000000000000 O
b1100101011111110101110101011111000000000000000000000000000000000 P
b1100101011111110 <
b1100101011111110 ^
b1100 6
b1100 ]
b100 @
b100 M
b100 V
1L
b10000000000001010110010101111111010111010101111100000000000000000000000000000000000000000000000100000000000000000 4
b10000000000001010110010101111111010111010101111100000000000000000000000000000000000000000000000100000000000000000 [
b100000000000000000 J
b100000000000000000 Y
b10 D
0#
1=
b10 A
b100 ?
0K
b100000000000000000 I
b10 C
b0 n
b11 m
0,
b1 .
1'
#250000
0'
#255000
b110 ?
10
b110 6
b110 ]
b11000000 8
b11000000 Q
b11000000 T
b10 5
b10 U
b10 \
1"
b1 C
b0 A
0$
b1100101011111110101110101011111000000000000000000000000000000000 &
b1100101011111110101110101011111000000000000000000000000000000000 ;
b1100101011111110101110101011111000000000000000000000000000000000 R
1#
17
b10 B
b10 W
0L
b10 <
b10 ^
b1000000000000000000000000000000000000000000000000000000000000000100000000000000000 4
b1000000000000000000000000000000000000000000000000000000000000000100000000000000000 [
b10000000000000000000000000000000000000000000000000 :
b10000000000000000000000000000000000000000000000000 O
b10000000000000000000000000000000000000000000000000 P
b1000000000000000000000000000000000000000000000000000000000000000000000000000000000 3
b1000000000000000000000000000000000000000000000000000000000000000000000000000000000 N
b1000000000000000000000000000000000000000000000000000000000000000000000000000000000 Z
b100000000000000000 F
b100000000000000000 X
b1 n
1'
#260000
0'
#265000
b0 8
b0 Q
b0 T
b0 5
b0 U
b0 \
b0 C
00
b0 B
b0 W
b0 :
b0 O
b0 P
b0 <
b0 ^
b110 6
b110 ]
b110 @
b110 M
b110 V
b1 D
1$
b11000000 %
b11000000 9
b11000000 S
b10000000000000000000000000000000000000000000000000 &
b10000000000000000000000000000000000000000000000000 ;
b10000000000000000000000000000000000000000000000000 R
b10 n
b10 .
1'
#270000
0'
#275000
0#
b0 D
b11 .
b11 n
1'
#280000
0'
#285000
b11000000 `
1a
b10000000000000000000000000000000000000000000000000 _
b10 b
b100 /
b100 n
1'
#290000
0'
#295000
1'
#300000
0'
#305000
1'
#310000
0'
#315000
1'
#320000
0'
#325000
1'
#330000
0'
#335000
0=
b0 ?
b0 I
b0 E
0$
b0 %
b0 9
b0 S
b0 &
b0 ;
b0 R
0>
b0 6
b0 ]
b0 @
b0 M
b0 V
b0 J
b0 Y
b0 4
b0 [
b0 3
b0 N
b0 Z
b0 F
b0 X
b0 .
b0 )
b0 1
0+
0(
1'
#340000
0'
#345000
1'
#350000
0'
#355000
1'
#360000
0'
#365000
1'
#370000
0'
#375000
1(
1'
#380000
0'
#385000
1'
#390000
0'
#395000
b1 C
b100000101010101010101010101010101010101010101010101010 E
1,
b100000101010101010101010101010101010101010101010101010 )
b100000101010101010101010101010101010101010101010101010 1
0e
b100000101010101010101010101010101010101010101010101010 c
b0 f
1'
#400000
0'
#405000
b10 ?
b100000 A
1K
b1010101010101010101010101010101010101010101010101010101010101010 I
b100000 <
b100000 ^
b1000001010101010101010101010101010101010101010101010100000000000000000000000000000000000000000000000000000000000000000 4
b1000001010101010101010101010101010101010101010101010100000000000000000000000000000000000000000000000000000000000000000 [
b100000101010101010101010101010101010101010101010101010 :
b100000101010101010101010101010101010101010101010101010 O
b100000101010101010101010101010101010101010101010101010 P
b1000001010101010101010101010101010101010101010101010100000000000000000000000000000000000000000000000000000000000000000 3
b1000001010101010101010101010101010101010101010101010100000000000000000000000000000000000000000000000000000000000000000 N
b1000001010101010101010101010101010101010101010101010100000000000000000000000000000000000000000000000000000000000000000 Z
b100000101010101010101010101010101010101010101010101010 F
b100000101010101010101010101010101010101010101010101010 X
b1 D
b100000101010101010101010101010101010101010101010101010 E
b10 C
b1010101010101010101010101010101010101010101010101010101010101010 )
b1010101010101010101010101010101010101010101010101010101010101010 1
b1010101010101010101010101010101010101010101010101010101010101010 c
1'
#410000
0'
#415000
b11111111 8
b11111111 Q
b11111111 T
b1000 5
b1000 U
b1000 \
0"
b1000001010101010101010101010101010101010101010101010101010101010101010101010101010101010101010101010101010101010101010 3
b1000001010101010101010101010101010101010101010101010101010101010101010101010101010101010101010101010101010101010101010 N
b1000001010101010101010101010101010101010101010101010101010101010101010101010101010101010101010101010101010101010101010 Z
0K
b1010101010101010101010101010101010101010101010101010101010101010 E
b11000 A
10
07
b100000 B
b100000 W
b1010101010101010101010101010101010101010101010101010101010101010 :
b1010101010101010101010101010101010101010101010101010101010101010 O
b1010101010101010101010101010101010101010101010101010101010101010 P
b1010101010101010 <
b1010101010101010 ^
b1010 6
b1010 ]
b10 @
b10 M
b10 V
1L
b1000001010101010101010101010101010101010101010101010101010101010101010101010101010101010101010101010101010101010101010 4
b1000001010101010101010101010101010101010101010101010101010101010101010101010101010101010101010101010101010101010101010 [
b1010101010101010101010101010101010101010101010101010101010101010 J
b1010101010101010101010101010101010101010101010101010101010101010 Y
b10 D
1'
#420000
0'
#425000
1K
00
1"
b1010101010101010101010101010101010101010101010100000000000000000 :
b1010101010101010101010101010101010101010101010100000000000000000 O
b1010101010101010101010101010101010101010101010100000000000000000 P
b11000 A
b11000 B
b11000 W
0L
b10101010101010101010101010101010101010101010101010101010101010101010101010101010101010101010101010101010101010101010101010101010 4
b10101010101010101010101010101010101010101010101010101010101010101010101010101010101010101010101010101010101010101010101010101010 [
b10101010101010101010101010101010101010101010101010101010101010100000000000000000000000000000000000000000000000000000000000000000 3
b10101010101010101010101010101010101010101010101010101010101010100000000000000000000000000000000000000000000000000000000000000000 N
b10101010101010101010101010101010101010101010101010101010101010100000000000000000000000000000000000000000000000000000000000000000 Z
b1010101010101010101010101010101010101010101010101010101010101010 F
b1010101010101010101010101010101010101010101010101010101010101010 X
b11111111 %
b11111111 9
b11111111 S
b1010101010101010101010101010101010101010101010101010101010101010 &
b1010101010101010101010101010101010101010101010101010101010101010 ;
b1010101010101010101010101010101010101010101010101010101010101010 R
1#
1'
#430000
0'
#435000
0K
b10000 A
10
0"
b1010101010101010101010101010101010101010101010101010101010101010 :
b1010101010101010101010101010101010101010101010101010101010101010 O
b1010101010101010101010101010101010101010101010101010101010101010 P
b10101010101010101010101010101010101010101010101010101010101010101010101010101010101010101010101010101010101010101010101010101010 3
b10101010101010101010101010101010101010101010101010101010101010101010101010101010101010101010101010101010101010101010101010101010 N
b10101010101010101010101010101010101010101010101010101010101010101010101010101010101010101010101010101010101010101010101010101010 Z
0#
1L
b1 .
1'
#440000
0'
#445000
1K
00
1"
b1010101010101010101010101010101010101010101010100000000000000000 :
b1010101010101010101010101010101010101010101010100000000000000000 O
b1010101010101010101010101010101010101010101010100000000000000000 P
b10101010101010101010101010101010101010101010101010101010101010100000000000000000000000000000000000000000000000000000000000000000 3
b10101010101010101010101010101010101010101010101010101010101010100000000000000000000000000000000000000000000000000000000000000000 N
b10101010101010101010101010101010101010101010101010101010101010100000000000000000000000000000000000000000000000000000000000000000 Z
b10000 A
b10000 B
b10000 W
0L
1#
1'
#450000
0'
#455000
b1000 A
10
0"
b1010101010101010101010101010101010101010101010101010101010101010 :
b1010101010101010101010101010101010101010101010101010101010101010 O
b1010101010101010101010101010101010101010101010101010101010101010 P
b10101010101010101010101010101010101010101010101010101010101010101010101010101010101010101010101010101010101010101010101010101010 3
b10101010101010101010101010101010101010101010101010101010101010101010101010101010101010101010101010101010101010101010101010101010 N
b10101010101010101010101010101010101010101010101010101010101010101010101010101010101010101010101010101010101010101010101010101010 Z
0#
1L
0=
b1010101010101010101010101010101010101010101010101010101010101010 I
0K
1+
b11000000 *
b11000000 2
b1010101010101010101010101010101000000000000000000000000000000000 )
b1010101010101010101010101010101000000000000000000000000000000000 1
1e
b11000000 d
b1010101010101010101010101010101000000000000000000000000000000000 c
b10 .
1'
#460000
0'
#465000
1=
1K
b1010101010101010101010101010101000000000000000000000000000000000 I
00
1"
b1010101010101010101010101010101010101010101010100000000000000000 :
b1010101010101010101010101010101010101010101010100000000000000000 O
b1010101010101010101010101010101010101010101010100000000000000000 P
b10101010101010101010101010101010101010101010101010101010101010100000000000000000000000000000000000000000000000000000000000000000 3
b10101010101010101010101010101010101010101010101010101010101010100000000000000000000000000000000000000000000000000000000000000000 N
b10101010101010101010101010101010101010101010101010101010101010100000000000000000000000000000000000000000000000000000000000000000 Z
b10 C
b1000 A
17
b1000 B
b1000 W
0L
1#
1'
#470000
0'
#475000
b1 C
b1010101010101010101010101010101000000000000000000000000000000000 E
b0 A
10
0"
b1010101010101010101010101010101010101010101010101010101010101010 :
b1010101010101010101010101010101010101010101010101010101010101010 O
b1010101010101010101010101010101010101010101010101010101010101010 P
b10101010101010101010101010101010101010101010101010101010101010101010101010101010101010101010101000000000000000000000000000000000 3
b10101010101010101010101010101010101010101010101010101010101010101010101010101010101010101010101000000000000000000000000000000000 N
b10101010101010101010101010101010101010101010101010101010101010101010101010101010101010101010101000000000000000000000000000000000 Z
0#
1>
1L
b10101010101010101010101010101010101010101010101010101010101010101010101010101010101010101010101000000000000000000000000000000000 4
b10101010101010101010101010101010101010101010101010101010101010101010101010101010101010101010101000000000000000000000000000000000 [
b1010101010101010101010101010101000000000000000000000000000000000 J
b1010101010101010101010101010101000000000000000000000000000000000 Y
1=
0K
b1010101010101010101010101010101000000000000000000000000000000000 I
b0 n
b100 m
0,
b11 .
1'
#480000
0'
#485000
b10 6
b10 ]
b0 8
b0 Q
b0 T
b0 5
b0 U
b0 \
1"
b0 C
b101010 A
00
b0 B
b0 W
0L
b10101010101010101010101010101010000000000000000000000000000000001010101010101010101010101010101000000000000000000000000000000000 4
b10101010101010101010101010101010000000000000000000000000000000001010101010101010101010101010101000000000000000000000000000000000 [
b1010101010101010000000000000000000000000000000000000000000000000 :
b1010101010101010000000000000000000000000000000000000000000000000 O
b1010101010101010000000000000000000000000000000000000000000000000 P
b10101010101010101010101010101010000000000000000000000000000000000000000000000000000000000000000000000000000000000000000000000000 3
b10101010101010101010101010101010000000000000000000000000000000000000000000000000000000000000000000000000000000000000000000000000 N
b10101010101010101010101010101010000000000000000000000000000000000000000000000000000000000000000000000000000000000000000000000000 Z
b1010101010101010101010101010101000000000000000000000000000000000 F
b1010101010101010101010101010101000000000000000000000000000000000 X
b1 D
1$
1#
b1 n
1'
#490000
0'
#495000
b1010 6
b1010 ]
b11111111 8
b11111111 Q
b11111111 T
b1000 5
b1000 U
b1000 \
0#
07
b101010 B
b101010 W
b0 D
b1000 /
1a
b11111111 `
b1010101010101010101010101010101010101010101010101010101010101010 _
b11 b
b11 g
b10 n
b100 .
1'
#500000
0'
#505000
1'
#510000
0'
#515000
1'
#520000
0'
#525000
1'
#530000
0'
#535000
1'
#540000
0'
#545000
b0 8
b0 Q
b0 T
b0 5
b0 U
b0 \
0=
b0 A
b0 ?
b0 I
b0 E
0>
17
b0 B
b0 W
b0 6
b0 ]
b0 @
b0 M
b0 V
b0 J
b0 Y
b0 <
b0 ^
b0 4
b0 [
b0 :
b0 O
b0 P
b0 3
b0 N
b0 Z
b0 F
b0 X
0$
b0 %
b0 9
b0 S
b0 &
b0 ;
b0 R
b0 .
b11111111 *
b11111111 2
b0 )
b0 1
0+
0(
1'
#550000
0'
#555000
1'
#560000
0'
#565000
1'
#570000
0'
#575000
1'
#580000
0'
#585000
1(
1'
#590000
0'
#595000
1'
#600000
0'
#605000
b1 C
b1000110111101010110110111110111011110000000000000000 E
1,
b1000110111101010110110111110111011110000000000000000 )
b1000110111101010110110111110111011110000000000000000 1
0e
b11111111 d
b1000110111101010110110111110111011110000000000000000 c
b0 k
1'
#610000
0'
#615000
b10 ?
b1000 A
b1000 <
b1000 ^
b10001101111010101101101111101110111100000000000000000000000000000000000000000000000000000000000000000000000000000000 4
b10001101111010101101101111101110111100000000000000000000000000000000000000000000000000000000000000000000000000000000 [
b1000110111101010110110111110111011110000000000000000 :
b1000110111101010110110111110111011110000000000000000 O
b1000110111101010110110111110111011110000000000000000 P
b10001101111010101101101111101110111100000000000000000000000000000000000000000000000000000000000000000000000000000000 3
b10001101111010101101101111101110111100000000000000000000000000000000000000000000000000000000000000000000000000000000 N
b10001101111010101101101111101110111100000000000000000000000000000000000000000000000000000000000000000000000000000000 Z
b1000110111101010110110111110111011110000000000000000 F
b1000110111101010110110111110111011110000000000000000 X
b1 D
b1000110111101010110110111110111011110000000000000000 E
b10 C
0,
1'
#620000
0'
#625000
b1000110111101010110110111110111011110000000000000000 E
b11111111 8
b11111111 Q
b11111111 T
b1000 5
b1000 U
b1000 \
b10 C
b1000 A
00
b1000 B
b1000 W
b1101111010101101101111101110111100000000000000000000000000000000 :
b1101111010101101101111101110111100000000000000000000000000000000 O
b1101111010101101101111101110111100000000000000000000000000000000 P
b1101111010101101 <
b1101111010101101 ^
b1010 6
b1010 ]
b10 @
b10 M
b10 V
b10 D
1'
#630000
0'
#635000
1=
1K
b1000000000000000000000000000000000000000000000000 I
1,
1+
b11000000 *
b11000000 2
b1000000000000000000000000000000000000000000000000 )
b1000000000000000000000000000000000000000000000000 1
1e
b11000000 d
b1000000000000000000000000000000000000000000000000 c
1'
#640000
0'
#645000
b1 C
b1000000000000000000000000000000000000000000000000 E
b0 A
10
0"
b1101111010101101101111101110111100000000000000000000000000000001 :
b1101111010101101101111101110111100000000000000000000000000000001 O
b1101111010101101101111101110111100000000000000000000000000000001 P
b10001101111010101101101111101110111100000000000000000000000000000001000000000000000000000000000000000000000000000000 3
b10001101111010101101101111101110111100000000000000000000000000000001000000000000000000000000000000000000000000000000 N
b10001101111010101101101111101110111100000000000000000000000000000001000000000000000000000000000000000000000000000000 Z
1>
1L
b10001101111010101101101111101110111100000000000000000000000000000001000000000000000000000000000000000000000000000000 4
b10001101111010101101101111101110111100000000000000000000000000000001000000000000000000000000000000000000000000000000 [
b1000000000000000000000000000000000000000000000000 J
b1000000000000000000000000000000000000000000000000 Y
1=
0K
b1000000000000000000000000000000000000000000000000 I
b0 n
b1 m
0,
1'
#650000
0'
#655000
b10 6
b10 ]
b0 8
b0 Q
b0 T
b0 5
b0 U
b0 \
1"
b0 C
00
1$
b11111111 %
b11111111 9
b11111111 S
b1101111010101101101111101110111100000000000000000000000000000001 &
b1101111010101101101111101110111100000000000000000000000000000001 ;
b1101111010101101101111101110111100000000000000000000000000000001 R
1#
b0 B
b0 W
0L
b0 <
b0 ^
b10000000000000000000000000000000000000000000000000000000000000001000000000000000000000000000000000000000000000000 4
b10000000000000000000000000000000000000000000000000000000000000001000000000000000000000000000000000000000000000000 [
b0 :
b0 O
b0 P
b10000000000000000000000000000000000000000000000000000000000000000000000000000000000000000000000000000000000000000 3
b10000000000000000000000000000000000000000000000000000000000000000000000000000000000000000000000000000000000000000 N
b10000000000000000000000000000000000000000000000000000000000000000000000000000000000000000000000000000000000000000 Z
b1000000000000000000000000000000000000000000000000 F
b1000000000000000000000000000000000000000000000000 X
b1 D
b1 n
1'
#660000
0'
#665000
b0 D
0#
b1001 /
b1101111010101101101111101110111100000000000000000000000000000001 _
b0 b
b10 n
b1 .
1'
#670000
0'
#675000
1'
#680000
0'
#685000
1'
#690000
0'
#695000
1'
#700000
0'
#705000
1'
#710000
0'
#715000
0=
b0 ?
b0 I
b0 E
0$
b0 %
b0 9
b0 S
b0 &
b0 ;
b0 R
0>
b0 6
b0 ]
b0 @
b0 M
b0 V
b0 J
b0 Y
b0 4
b0 [
b0 3
b0 N
b0 Z
b0 F
b0 X
b0 .
b11111111 *
b11111111 2
b0 )
b0 1
0+
0(
1'
#720000
0'
#725000
1'
#730000
0'
#735000
1'
#740000
0'
#745000
1'
#750000
0'
#755000
1(
1'
#760000
0'
#765000
1'
#770000
0'
#775000
b1 C
b1000000100010001000100010001000100010001000100010001 E
1,
b1000000100010001000100010001000100010001000100010001 )
b1000000100010001000100010001000100010001000100010001 1
0e
b11111111 d
b1000000100010001000100010001000100010001000100010001 c
b0 h
1'
#780000
0'
